{
  "label": "Acciones Macros",
  "mapping": {
    "name": "name"
  },
  "entries": {
    "Administer First Aid - Stabilize: Medicine": {
      "name": "Administrar Primeros Auxilios - Estabilizar: Medicina"
    },
    "Administer First Aid - Stop Bleeding: Medicine": {
      "name": "Administrar Primeros Auxilios - Detener Hemorragias: Medicina"
    },
    "Athletics: Arcane Slam": {
      "name": "Atletismo: Arcano Slam"
    },
    "Balance: Acrobatics": {
      "name": "Mantener El Equilibrio: Acrobacias"
    },
    "Bon Mot: Diplomacy": {
      "name": "Bon Mot: Diplomacia"
    },
    "Climb: Athletics": {
      "name": "Trepar: Atletismo"
    },
    "Coerce: Intimidation": {
      "name": "Obligar: Intimidación"
    },
    "Command an Animal: Nature": {
      "name": "Comandar A Un Animal: Naturaleza"
    },
    "Conceal an Object: Stealth": {
      "name": "Ocultar Un Objeto: Sigilo"
    },
    "Craft: Crafting": {
      "name": "Artesanía: Artesanía"
    },
    "Create a Diversion - Distracting Words: Deception": {
      "name": "Crear Una Distracción - Distracting Words: Engaño"
    },
    "Create a Diversion - Gesture: Deception": {
      "name": "Crear Una Distracción - Gesto: Engaño"
    },
    "Create a Diversion - Trick: Deception": {
      "name": "Crear Una Distracción - Truco: Engaño"
    },
    "Create Forgery: Society": {
      "name": "Falsificar: Sociedad"
    },
    "Decipher Writing: Arcana": {
      "name": "Descifrar Escritura: Arcanos"
    },
    "Decipher Writing: Occultism": {
      "name": "Descifrar Escritura: Ocultismo"
    },
    "Decipher Writing: Religion": {
      "name": "Descifrar Escritura: Religión"
    },
    "Decipher Writing: Society": {
      "name": "Descifrar Escritura: Sociedad"
    },
    "Demoralize: Intimidation": {
      "name": "Desmoralizar: Intimidación"
    },
    "Disable Device: Thievery": {
      "name": "Desactivar dispositivo: Latrocinio"
    },
    "Disarm: Athletics": {
      "name": "Desarmar: Atletismo"
    },
    "Encouraging Words": {
      "name": "Palabras Animadoras"
    },
    "Escape: Acrobatics": {
      "name": "Huir: Acrobacias"
    },
    "Escape: Athletics": {
      "name": "Huir: Atletismo"
    },
    "Escape: Unarmed Attack": {
      "name": "Huir: Ataque Sin Armas"
    },
    "Escape": {
      "name": "Huir"
    },
    "Exploration: Avoid Notice": {
      "name": "Exploración: Evitar Ser Visto"
    },
    "Feint: Deception": {
      "name": "Fintar: Engaño"
    },
    "Force Open: Athletics": {
      "name": "Abrir A La Fuerza: Atletismo"
    },
    "Gather Information: Diplomacy": {
      "name": "Reunir Información: Diplomacia"
    },
    "Grapple: Athletics": {
      "name": "Presa: Atletismo"
    },
    "Hide: Stealth": {
      "name": "Esconderse: Sigilo"
    },
    "High Jump: Athletics": {
      "name": "Salto De Altura: Atletismo"
    },
    "Impersonate: Deception": {
      "name": "Imitar: Engaño"
    },
    "Lie: Deception": {
      "name": "Mentir: Engaño"
    },
    "Long Jump: Athletics": {
      "name": "Salto De Longitud: Atletismo"
    },
    "Make an Impression: Diplomacy": {
      "name": "Causar impresión: Diplomacia"
    },
    "Maneuver in Flight: Acrobatics": {
      "name": "Maniobra En Vuelo: Acrobacias"
    },
    "Palm an Object: Thievery": {
      "name": "Escamotear Un Objeto: Latrocinio"
    },
    "Perform - Acting: Performance": {
      "name": "Interpretar - Actuación: Interpretación"
    },
    "Perform - Comedy: Performance": {
      "name": "Interpretar - Comedy: Interpretación"
    },
    "Perform - Dance: Performance": {
      "name": "Interpretar - Danza: Interpretación"
    },
    "Perform - Oratory: Performance": {
      "name": "Interpretar - Oratoria: Interpretación"
    },
    "Perform - Play keyboard instrument: Performance": {
      "name": "Interpretar - Tocar instrumento de teclado: Interpretación"
    },
    "Perform - Play percussion instrument: Performance": {
      "name": "Interpretar - Tocar instrumento de percusión: Interpretación"
    },
    "Perform - Play string instrument: Performance": {
      "name": "Interpretar - Tocar instrumento de cuerda: Interpretación"
    },
    "Perform - Play wind instrument: Performance": {
      "name": "Interpretar - Tocar instrumento de viento: Interpretación"
    },
    "Perform - Singing: Performance": {
      "name": "Interpretar - Cantar: Interpretación"
    },
    "Pick a Lock: Thievery": {
      "name": "Forzar Una Cerradura: Latrocinio"
    },
    "Raise a Shield": {
      "name": "Alzar Un Escudo"
    },
    "Repair: Crafting": {
      "name": "Reparar: Crafting"
    },
    "Request: Diplomacy": {
      "name": "Pedir: Diplomacia"
    },
    "Seek: Perception": {
      "name": "Buscar: Percepción"
    },
    "Sense Direction: Survival": {
      "name": "Sentir La Dirección: Supervivencia"
    },
    "Sense Motive: Perception": {
      "name": "Averiguar Intenciones: Percepción"
    },
    "Shove: Athletics": {
      "name": "Empujar: Atletismo"
    },
    "Sneak: Stealth": {
      "name": "Movimiento Furtivo: Sigilo"
    },
    "Squeeze: Acrobatics": {
      "name": "Escurrirse: Acrobacias"
    },
    "Steal: Thievery": {
      "name": "Sustraer: Latrocinio"
    },
    "Steel Your Resolve": {
      "name": "Templar Tu Resolución"
    },
    "Subsist: Society": {
      "name": "Subsistir: Sociedad"
    },
    "Subsist: Survival": {
      "name": "Subsistir: Supervivencia"
    },
    "Swim: Athletics": {
      "name": "Nadar: Atletismo"
    },
    "Tamper: Crafting": {
      "name": "Manipulación: Crafting"
    },
    "Track: Survival": {
      "name": "Rastrear: Supervivencia"
    },
    "Treat Disease: Medicine": {
      "name": "Tratar Enfermedad: Medicina"
    },
    "Treat Poison: Medicine": {
      "name": "Tratar Veneno: Medicina"
    },
    "Trip: Athletics": {
      "name": "Viaje: Atletismo"
    },
    "Tumble Through: Acrobatics": {
      "name": "Pasar Haciendo Acrobacias: Acrobacias"
    },
    "Whirling Throw: Athletics": {
      "name": "Lanzamiento de torbellino: Atletismo"
    }
  }
}
