{
  "label": "PFS Presentaciones",
  "mapping": {
    "disable": "system.details.disable",
    "detailsDescription": "system.details.description",
    "name": "name",
    "reset": "system.details.reset",
    "stealth": "system.attributes.stealth.details",
    "description": "system.description.value",
    "routine": "system.details.routine",
    "hpDetails": "system.attributes.hp.details",
    "creatureType": "system.details.creatureType",
    "publicNotes": "system.details.publicNotes",
    "languagesCustom": "system.traits.languages.custom",
    "duration": "system.duration.value",
    "time": "system.time.value"
  },
  "entries": {
    "Ancient Summoning Rune": {
      "disable": "<p>prueba @Check[type:acrobatics|dc:15|name:Approach the Rune|traits:magical,trap] para acercarse sin activar la trampa seguida de @Check[type:thievery|dc:17|name:Erase the Rune|traits:action:disable-a-device,magical,trap] (entrenado) para borrar la runa, o @Check[type:athletics|dc:19|name:Remove Stones|traits:magical,trap] para quitar suficientes piedras del pilar para desbaratar la magia, o <em>@UUID[Compendium.pf2e.spells-srd.9HpwDN4MYQJnW0LG]{Disipar Magia}</em> (1º nivel; cd de contrarrestar 15) para contrarrestar la runa.</p>",
      "detailsDescription": "<p>Una nube de sensores mágicos invisibles en un radio de 10 pies rodea la columna central de la sala.</p>",
      "name": "Runa de Convocación Antigua",
      "reset": "<p>La trampa se reinicia cada día al amanecer.</p>",
      "stealth": "<p>(entrenado)</p>",
      "items": {
        "Summon Weak Monster": {
          "description": "<p><strong>Desencadenante</strong> Una criatura entra en la nube de sensores mágicos</p>\n<hr />\n<p><strong>Efecto</strong> La trampa invoca una de las criaturas encontradas anteriormente en el área B con el ajuste débil. La criatura tira iniciativa y permanece durante 7 asaltos, tras los cuales el conjuro finaliza y la criatura desaparece. La criatura convocada también desaparece si una criatura desactiva la trampa antes de que expire la duración. La criatura convocada puede utilizar 3 acciones en cada asalto y puede utilizar reacciones, a diferencia de la mayoría de criaturas convocadas.</p>",
          "name": "Invocar monstruo débil"
        }
      }
    },
    "Befuddled Thoughts": {
      "disable": "<p>@Check[type:religion|dc:20|name:Exorcise Spirit|traits:complex,haunt] (entrenado) para exorcizar el espíritu, @Check[type:religion|dc:21|name:Sever Spiritual Connection|traits:complex,haunt] o @Check[type:occultism|dc:21|name:Sever Spiritual Connection|traits:complex,haunt] (entrenado) para cortar la conexión entre <em>Hunger's Call</em> y el templo, o @Check[type:athletics|dc:21|name:Crack the Wall|traits:complex,haunt] para agrietar el muro por varios sitios; se necesitan tres éxitos en total para desactivar la aparición.</p>",
      "detailsDescription": "<p>La runa de la calavera colmilluda empieza a hablar en tonos dulces y melosos sobre la vida eterna.</p>",
      "name": "Pensamientos confusos",
      "reset": "<p>El mosaico cesa su rutina 2 asaltos después de que todas las criaturas vivas estén fuera de la vista de la escalera. Después de 6 horas la aparición se prepara para desencadenante de nuevo.</p>",
      "routine": "<p>(3 acciones) Una bola roja pulsante de energía vuela desde el muro y explota en energía negativa en la habitación. Cualquiera en la habitación [[/r (1d10+4)[negative]]] daño (@Check[type:reflex|dc:20|basic:true|name:Avoid the Energy|traits:complex,haunt,negative] salvación).</p>",
      "stealth": "<p>(entrenado)</p>",
      "items": {
        "Hunger's Possession": {
          "description": "<p><strong>Desencadenante</strong> Una criatura viviente con <em>la Llamada del Hambre</em> se mueve a menos de 30 pies de la escalera de salida.</p>\n<hr />\n<p><strong>Efecto</strong> La mente de la criatura se vuelve brumosa y nebulosa cuando una voz invisible le dice que suelte la reliquia y se marche. La criatura debe intentar una @Check[type:will|dc:20|name:Resist Hunger's Possession|traits:haunt,complex], y la aparición tira iniciativa.</p>\n<hr />\n<p><strong>Éxito Crítico</strong> El objetivo no se ve afectado.</p>\n<p><strong>Éxito</strong> El objetivo es @UUID[Compendium.pf2e.conditionitems.TkIyaNPgTZFBCCuh]{Deslumbrado} por 1 asalto.</p>\n<p><strong>Fallo</strong> El objetivo está deslumbrado durante 1 minuto.</p>\n<p><strong>Fallo Crítico</strong> El objetivo pierde el control de su mente y en su siguiente asalto debe poner <em>Llamada del Hambre</em> en el suelo y mover su velocidad en dirección contraria a la reliquia; esto hace que la reliquia se teletransporte de vuelta al área D1. Si le quedan acciones, el objetivo las pierde. Al final de su turno, el objetivo recupera el control de su mente.</p>",
          "name": "Posesión del hambre"
        }
      }
    },
    "Blood Hunger": {
      "disable": "<p>@Check[type:religion|dc:20|name:Exorcise Spirit|traits:complex,haunt] (entrenado) para exorcizar el espíritu, @Check[type:religion|dc:21|name:Sever Spiritual Connection|traits:complex,haunt] o @Check[type:occultism|dc:21|name:Sever Spiritual Connection|traits:complex,haunt] (entrenado) para cortar la conexión entre <em>Hunger's Call</em> y el templo, o @Check[type:crafting|dc:21|name:Break up the Mural|traits:complex,haunt] (entrenado) para romper la pauta del mural; se necesitan tres éxitos totales para desactivar la aparición.</p>",
      "detailsDescription": "<p>La sangre fluye de la runa del cráneo con colmillos como si fuera una herida abierta.</p>",
      "name": "Hambre de sangre",
      "reset": "<p>El mosaico cesa su rutina 2 asaltos después de que todas las criaturas vivas estén fuera de la vista de la escalera. Después de 6 horas la aparición se prepara para desencadenante de nuevo.</p>",
      "routine": "<p>(3 acciones) El mosaico sangriento lanza fragmentos de cristal coloreado a cualquiera que se encuentre a 10 pies del muro oriental, y cada uno de ellos sufre daño por [[/r 1[bleed]]] más daño por [[/r 1[bleed]]] salvación por @Check[type:reflex|dc:20|basic:true|name:Avoid the Glass Shards|traits:complex,haunt,slashing]; el éxito crítico anula el daño por sangrado).</p>",
      "stealth": "<p>(entrenado)</p>",
      "items": {
        "Hunger's Possession": {
          "description": "<p><strong>Desencadenante</strong> Una criatura viviente con <em>la Llamada del Hambre</em> se mueve a menos de 30 pies de la escalera de salida.</p>\n<hr />\n<p><strong>Efecto</strong> Voces susurrantes llenan la mente de la criatura con una compulsión por la sangre de los vivos. La criatura debe intentar una salvación de @Check[type:will|dc:20|name:Resist Hunger's Possession|traits:mental,occult,haunt,complex], y la aparición tira iniciativa.</p>\n<hr />\n<p><strong>Éxito Crítico</strong> El objetivo no se ve afectado.</p>\n<p><strong>Éxito</strong> El objetivo es @UUID[Compendium.pf2e.conditionitems.xYTAsEpcJE1Ccni3]{Lentificado 1}.</p>\n<p><strong>Fallo</strong> El objetivo es @UUID[Compendium.pf2e.conditionitems.xYTAsEpcJE1Ccni3]{Lentificado 2}.</p>\n<p><strong>Fallo Crítico</strong> El objetivo pierde el control de su mente y en su próximo asalto debe moverse al aliado más cercano y hacer un ataque sin armas. El aliado está @UUID[Compendium.pf2e.conditionitems.AJh5ex99aV6VTggg]{Desprevenido} contra este ataque. El mordisco causa [[/r 1d4[piercing]]]{1d4 daño perforante} y un impacto crítico causa un daño adicional [[/r 1[bleed]]] Al final de su turno, el objetivo recupera el control de su mente.</p>",
          "name": "Posesión del hambre"
        }
      }
    },
    "Cheerful Tune": {
      "disable": "<p>@Check[type:religion|dc:20|name:Exorcise Spirits|traits:complex,haunt] (entrenado) para exorcizar a los espíritus, o @Check[type:intimidation|dc:21|name:Take a Break|traits:complex,haunt] para convencer a los espíritus de que es hora de tomar un rompecabezas; se requieren tres éxitos totales para desactivar la aparición.</p>",
      "detailsDescription": "<p>Una alegre melodía sin palabras llena la sala, obligando a todos a ponerse manos a la obra.</p>",
      "name": "Alegre melodía",
      "reset": "<p>Los trabajadores fantasmales cesan su rutina 2 asaltos después de que todas las criaturas vivas abandonen la sala y se reinician al cabo de 6 horas.</p>",
      "routine": "<p>(3 acciones) Aparecen trabajadores fantasmales en la habitación y comienzan a abrasar, fregar y salpicar con productos químicos de limpieza a cualquiera que se encuentre en la zona. Cada criatura de la habitación hace una [[/r (1d4+2)[slashing]]] de daño y otra [[/r (1d4+2)[acid]]] (@Check[type:reflex|dc:20|basic:true|name:Avoid Workers|traits:haunt,complex] salvación; tira una vez para ambas).</p>",
      "stealth": "<p>(entrenado)</p>",
      "items": {
        "Nose to the Grindstone": {
          "description": "<p><strong>Desencadenante</strong> Una criatura viviente se acerca a 10 pies de la cara sonriente en el centro del muro norte</p>\n<hr />\n<p><strong>Efecto</strong> El silbido aumenta de volumen hasta alcanzar un tono doloroso e inflige daño [[/r (1d8+4)[sonic]]] La criatura afectada debe intentar una salvación de @Check[type:will|dc:20|traits:damaging-effect], y la aparición tira iniciativa.</p>\n<hr />\n<p><strong>Éxito Crítico</strong> El objetivo no causa daño.</p>\n<p><strong>Éxito</strong> La criatura lleva medio daño.</p>\n<p><strong>Fallo</strong> La criatura recibe daño completo y es @UUID[Compendium.pf2e.conditionitems.9PR9y0bi4JPKnHPR]{Ensordecido} durante 1 minuto.</p>\n<p><strong>Fallo Crítico</strong> La criatura recibe doble daño, es @UUID[Compendium.pf2e.conditionitems.TBSHQspnbcqxsmjL]{Asustado 1}, y es ensordecido durante 2 minutos.</p>",
          "name": "La nariz en la piedra de afilar"
        }
      }
    },
    "Cleaning Agents": {
      "disable": "<p>@Check[type:engineering-lore|dc:20|name:Disable Control Panel|traits:mechanical,complex]{Engineering Saber} (entrenado) o prueba de @Check[type:thievery|dc:20|name:Disable Control Panel|traits:mechanical,complex] (entrenado) para desactivar el panel de control, o @Check[type:athletics|dc:21|name:Plug the Spouts|traits:mechanical,complex] o @Check[type:acrobatics|dc:21|name:Plug the Spouts|traits:mechanical,complex] para taponar los pitorros que soltar los productos químicos; se necesitan tres aciertos para desactivar la trampa.</p>",
      "detailsDescription": "<p>Los disolventes y detergentes salpican desde el techo y bajan por las paredes, donde se combinan de forma peligrosa.</p>",
      "name": "Agentes de limpieza",
      "reset": "<p>La trampa se desactiva al cabo de 1 minuto y se restablece en 1 hora.</p>",
      "routine": "<p>(3 acciones) La trampa llena la habitación con una nube de vapor cáustico e inflige daño de [[/r (2d6+2)[acid]]] a todas las criaturas del área (@Check[type:fortitude|dc:20|basic:true|name:Cleaning Agent|traits:acid]).</p>",
      "stealth": "<p>(entrenado)</p>",
      "items": {
        "Decontamination Spray": {
          "description": "<p><strong>Desencadenante</strong> Una criatura entra en la habitación.</p>\n<hr />\n<p><strong>Efecto</strong> La trampa rocía productos químicos de limpieza a la criatura desencadenante causándole [[/r (1d8+4)[acid]] daño. La criatura debe intentar una salvación de @Check[type:reflex|dc:20|traits:acid,damaging-effect], y la trampa tira iniciativa.</p>\n<hr />\n<p><strong>Éxito Crítico</strong> La criatura no se ve afectada.</p>\n<p><strong>Éxito</strong> La criatura lleva medio daño.</p>\n<p><strong>Fallo</strong> La criatura recibe daño completo y es @UUID[Compendium.pf2e.conditionitems.TkIyaNPgTZFBCCuh]{Deslumbrado} por 1 asalto.</p>\n<p><strong>Fallo Crítico</strong> La criatura recibe doble daño y es @UUID[Compendium.pf2e.conditionitems.XgEqL1kFApUbl5Z2]{Ciega} por 1 asalto.</p>",
          "name": "Spray descontaminante"
        }
      }
    },
    "Encouraging Supervision": {
      "disable": "<p>@Check[type:deception|dc:20|name:Fake a Smile|traits:complex,haunt] para fingir una actitud alegre y positiva, o @Check[type:crafting|dc:21|name:Show Skill at a Task|traits:complex,haunt] (entrenado) para demostrar habilidad en una tarea; se requieren tres pruebas con éxito para desactivar la aparición.</p>",
      "detailsDescription": "<p>La cara del supervisor de Azlante en el muro se anima y empieza a regañar a los presentes por sus malas actitudes en el trabajo.</p>",
      "name": "Animador Supervisión",
      "reset": "<p>La voz fantasmal cesa su rutina 2 asaltos después de que todas las criaturas vivas abandonen la sala y se reinicia al cabo de 6 horas.</p>",
      "routine": "<p>(3 acciones) La voz del supervisor llena la sala y obliga a todos los presentes a empezar a sonreír. Cada criatura de la sala recibe una [[/r (1d8+4)[mental]]] daño y debe intentar una salvación @Check[type:will|dc:20|name:Try Not to Smile too Hard|traits:complex,haunt].</p>\n<hr />\n<p><strong>Éxito Crítico</strong> El objetivo no causa daño.</p>\n<p><strong>Éxito</strong> El objetivo se lleva la mitad de daño.</p>\n<p><strong>Fallo</strong> La criatura toma pleno daño.</p>\n<p><strong>Fallo Crítico</strong> La criatura recibe daño completo y es @UUID[Compendium.pf2e.conditionitems.4D2KBtexWXa6oUMR]{Drenado 1}.</p>",
      "stealth": "<p>(entrenado)</p>",
      "items": {
        "Smile! Smile!": {
          "description": "<p><strong>Desencadenante</strong> Una criatura viviente se acerca a 10 pies de la cara sonriente en el centro del muro norte</p>\n<hr />\n<p><strong>Efecto</strong> La cara alaridos en Azlante en la criatura para poner una sonrisa en su cara y volver al trabajo. La criatura saca [[/r (1d8+4)[mental]]] de daño y debe intentar una salvación de @Check[type:will|dc:20|name:Resist Loud Yelling|traits:complex,haunt] voluntad. La aparición entonces tira iniciativa.</p>\n<hr />\n<p><strong>Éxito Crítico</strong> El objetivo no causa daño.</p>\n<p><strong>Éxito</strong> La criatura lleva medio daño.</p>\n<p><strong>Fallo</strong> La criatura toma pleno daño.</p>\n<p><strong>Fallo Crítico</strong> La criatura recibe daño completo y es @UUID[Compendium.pf2e.conditionitems.dfCMdR4wnpbYNTix]{Aturdido 1}.</p>",
          "name": "Sonríe ¡Sonríe!"
        }
      }
    },
    "Ghoul (PFS Intro 2)": {
      "hpDetails": "Curación Negativa",
      "creatureType": "Muerto Viviente",
      "publicNotes": "<p>Los guls son famélica muerto viviente que aparición cementerios y comer cadáveres.</p>\n<hr />\n<p>Pocas criaturas son más omnipresentes en lugares siniestros como cementerios solitarios y criptas en ruinas que el muerto viviente devorador de carne conocido como guls.</p>",
      "name": "Gul (PFS Intro 2)",
      "items": {
        "Jaws": {
          "name": "Fauces"
        },
        "Claw": {
          "name": "Garra"
        },
        "Darkvision": {
          "description": "<p>@Localize[PF2E.NPC.Abilities.Glossary.Darkvision]</p>",
          "name": "Visión en la Oscuridad"
        },
        "Negative Healing": {
          "description": "<p>@Localize[PF2E.NPC.Abilities.Glossary.NegativeHealing]</p>",
          "name": "Curación Negativa"
        },
        "Consume Flesh": {
          "description": "<p><strong>Requisitos</strong> El gul se encuentra junto al cadáver de una criatura fallecida en la última hora.</p>\n<hr />\n<p><strong>Efecto</strong> El gul devora un trozo del cadáver y recupera [[/r 1d6[healing]]]{1d6 Puntos De Golpe}.</p>\n<p>Puede recuperar Puntos De Golpe de cualquier cadáver sólo una vez.</p>",
          "name": "Consumir carne"
        },
        "Ghoul Fever": {
          "description": "<p><strong>Tirada De Salvación</strong> @Check[type:fortitude|dc:15]</p>\n<hr />\n<p><strong>Etapa 1</strong> portador sin efecto nocivo (1 día)</p>\n<p><strong>Etapa 2</strong> [[/r 3d8[negative]]] daño y recupera la mitad de Puntos De Golpe de toda curación (1 día)</p>\n<p><strong>Etapa 3</strong> como etapa 2 (1 día)</p>\n<p><strong>Etapa 4</strong> [[/r 3d8[negative]]] daño y no obtiene ningún beneficio de la curación (1 día)</p>\n<p><strong>Etapa 5</strong> como etapa 4 (1 día)</p>\n<p><strong>Etapa 6</strong> muerto, y resucita como @UUID[Compendium.pf2e.pathfinder-bestiary.LHHgGSs0ELCR4CYK]{Gul} a la medianoche siguiente.</p>",
          "name": "Fiebre de Gul"
        },
        "Paralysis": {
          "description": "<p>Cualquier criatura no élfica viva golpeada por un ataque de gul debe tener éxito en una salvación de @Check[type:fortitude|dc:15] o quedar @UUID[Compendium.pf2e.conditionitems.6uEgoh53GbXuHpTF]{Paralizada}. Puede intentar una nueva salvación al final de cada uno de sus turnos, y la CD disminuye acumulativamente en 1 en cada salvación.</p>",
          "name": "Parálisis"
        },
        "Swift Leap": {
          "description": "<p>El gul saltos hasta la mitad de su Velocidad. Este movimiento no desencadenar reacción.</p>",
          "name": "Swift Salto"
        },
        "Acrobatics": {
          "name": "Acrobacias"
        },
        "Athletics": {
          "name": "Atletismo"
        },
        "Stealth": {
          "name": "Sigilo"
        },
        "Survival": {
          "name": "Supervivencia"
        }
      }
    },
    "Rain In Cloudy Day": {
      "languagesCustom": "Hablar Con Las Plantas (Sólo Hongos)",
      "name": "Lluvia en día nublado",
      "items": {
        "Focus Occult Spells": {
          "name": "Foco Conjuros Ocultistas"
        },
        "Innate Primal Spells": {
          "name": "Conjuros Primigenios Innatos"
        },
        "Speak with Plants": {
          "description": "<p>Puedes hacer preguntas a las plantas y recibir respuestas de ellas, pero el conjuro no las hace más amistosas o inteligentes de lo normal. La mayoría de las plantas normales tienen una visión distinta del mundo que las rodea, por lo que no reconocen detalles sobre las criaturas ni saben nada sobre el mundo más allá de su entorno inmediato. Los monstruos planta astutos suelen ser escuetos y evasivos, mientras que los menos inteligentes suelen hacer comentarios inanes.</p>",
          "duration": "10 minutos",
          "time": "2",
          "name": "talk with plants"
        },
        "Counter Performance": {
          "description": "<p><strong>Desencadenante</strong> Tú o un aliado en un radio de 60 pies lanzáis una tirada de salvación contra un efecto auditivo o visual.</p>\n<hr />\n<p>Tu interpretación os protege a ti y a tus aliados. Tira una Prueba de Interpretación de un tipo que conozcas: una interpretación auditiva si el desencadenante era auditivo, o una visual para un desencadenante visual. Tú y tus aliados en el área podéis usar el mejor resultado entre tu Prueba de Interpretación y la tirada de salvación.</p>",
          "time": "Reacción",
          "name": "Contrainterpretación"
        },
        "Inspire Courage": {
          "description": "<p>Te inspiras a ti mismo y a tus aliados con palabras o melodías de ánimo. Tú y todos los aliados en el área ganáis un +1 bonificador por estatus a las tiradas de ataque, tiradas de daño y salvaciones contra efectos del miedo.</p>\n<p>@UUID[Compendium.pf2e.spell-effects.beReeFroAx24hj83]{Efecto de Conjuro: Infundir Valor}</p>",
          "duration": "1 Asalto",
          "time": "1",
          "name": "Infundir Valor"
        },
        "Fist": {
          "name": "Puño"
        },
        "Spore Pod": {
          "name": "Vaina de esporas"
        },
        "Darkvision": {
          "description": "<p>@Localize[PF2E.NPC.Abilities.Glossary.Darkvision]</p>",
          "name": "Visión en la Oscuridad"
        },
        "Verdant Burst": {
          "description": "<p>Cuando Lluvia en Día Nublado muere, una explosión de energía primigenia estalla de su cuerpo, restaurando [[/r 2d8[healing]]]{2d8 Puntos De Golpe} a cada criatura planta en una @Template[type:emanation|distance:30]. Esta zona se llena de hongos, convirtiéndose en terreno difícil. Si el terreno no es un entorno viable para este fúngico, se marchita al cabo de 24 horas.</p>",
          "name": "Explosión verde"
        },
        "Change Shape": {
          "description": "<p>Lluvia en Día Nublado se transforma en un Pequeño gigante hongo o parche de hongos. Por lo demás, esta habilidad utiliza los efectos de <em>@UUID[Compendium.pf2e.spells-srd.dileJ0Yxqg76LMvu]{Forma Arbórea}</em>.</p>",
          "name": "Cambiar De Forma"
        },
        "Spore Cloud": {
          "description": "<p>La lluvia en Día nublado puede desatar una nube de esporas que irrita los ojos y la garganta de las criaturas no fúngicas en una @Template[type:emanation|distance:15]. Cada criatura debe tener éxito en una salvación de @Check[type:fortitude|dc:16] o sufrir un daño [[/r 1[persistent,poison]]. Una criatura tiene su visión reducida mientras el daño persistente continúe y sólo puede ver en un radio de 20 pies (10 pies en un fallo crítico).</p>",
          "name": "Nube de esporas"
        },
        "Spores": {
          "description": "<p>Una criatura que recibe daño de Lluvia en la vaina de esporas Golpe de Cloudy Day debe intentar una tirada de salvación con la misma CD y efecto que su habilidad Nube de esporas.</p>",
          "name": "Esporas"
        },
        "Diplomacy": {
          "name": "Diplomacia"
        },
        "Nature": {
          "name": "Naturaleza"
        },
        "Pathfinder Society Lore": {
          "name": "Saber de la Sociedad Pathfinder"
        },
        "Performance": {
          "name": "Interpretación"
        },
        "Society": {
          "name": "Sociedad"
        },
        "Stealth": {
          "name": "Sigilo"
        }
      }
    },
    "Spiked Pit": {
      "disable": "<p>@Check[type:thievery|dc:14|name:Remove Trap Door|traits:mechanical,trap] para quitar la trampilla</p>",
      "detailsDescription": "<p>Una trampilla de madera coberturas un pozo de 10 pies cuadrados y 20 pies de profundidad. Sharp púas línea el fondo de la fosa.</p>",
      "name": "Foso Con Estacas",
      "reset": "<p>Las criaturas aún pueden caer en la trampa, pero la trampilla debe ser reajustada manualmente para que la trampa vuelva a estar escondida.</p>",
      "stealth": "<p>(entrenado, o 0 si la trampilla está desactivada o rota)</p>",
      "items": {
        "Pitfall": {
          "description": "<p><strong>Desencadenante</strong> Una criatura camina sobre la trampilla</p>\n<hr />\n<p><strong>Efecto</strong> La criatura desencadenante cae y recibe daño de [[/r 10[bludgeoning]]] más daño de [[/r 2d6[piercing]]] de los utensilios afilados en el fondo del pozo. Esa criatura puede usar la reacción @UUID[Compendium.pf2e.actionspf2e.3yoajuKjwHZ9ApUY]{Agarrarse A Un Saliente} para evitar la caída.</p>",
          "name": "Pitfall"
        }
      }
    },
    "Spite of the Righteous": {
      "disable": "<p>@Check[type:religion|dc:20|name:Exorcise Spirit|traits:complex,haunt] (entrenado) para exorcizar el espíritu, @Check[type:religion|dc:21|name:Sever Spiritual Connection|traits:complex,haunt] o @Check[type:occultism|dc:21|name:Sever Spiritual Connection|traits:complex,haunt] (entrenado) para cortar la conexión entre <em>Hunger's Call</em> y el templo, o @Check[type:thievery|dc:21|name:Scratch Eyes out of the Mural|traits:complex,haunt] (entrenado) para arrancar los ojos del mural; se necesitan tres aciertos totales para desactivar la aparición.</p>",
      "detailsDescription": "<p>La imagen de una guerrera fantasmal su símbolo sagrado goteando sangre y palpitando con energía negativa, pasos del muro y autobuses para matar a cualquier criatura viva.</p>",
      "name": "Rencor del De La Justicia",
      "reset": "<p>El guerrero espectral vuelve al muro y cesa 2 asaltos después de que todas las criaturas vivas estén fuera de la vista de la escalera. Después de 6 horas la aparición se prepara para desencadenante de nuevo.</p>",
      "routine": "<p>(3 acciones) La espada del guerrero barridos a través de los cuerpos de cualquier criatura viviente a la vista de las escaleras de salida, y cada uno de ellos toma [[/r (1d10+4)[slashing]]] de daño (@Check[type:fortitude|dc:20|basic:true|name:Avoid the Warrior's Blade|traits:complex,haunt,slashing] salvación). Las Criaturas Muerto Viviente en el área ganan 5 puntos de golpe temporales.</p>",
      "stealth": "<p>(entrenado)</p>",
      "items": {
        "Racing Blood": {
          "description": "<p><strong>Desencadenante</strong> Una criatura viviente con <em>la Llamada del Hambre</em> se mueve a menos de 30 pies de la escalera de salida.</p>\n<hr />\n<p><strong>Efecto</strong> La sangre late con fuerza en el cuerpo de la criatura mientras su corazón se acelera sin control. La criatura debe intentar una salvación de @Check[type:will|dc:20|name:Resist Racing Blood|traits:complex], y la aparición tira iniciativa.</p>\n<hr />\n<p><strong>Éxito Crítico</strong> El objetivo no se ve afectado.</p>\n<p><strong>Éxito</strong> El objetivo es @UUID[Compendium.pf2e.conditionitems.fesd1n5eVhpCSS18]{Indispuesto 1}.</p>\n<p><strong>Fallo</strong> El objetivo es @UUID[Compendium.pf2e.conditionitems.fesd1n5eVhpCSS18]{Indispuesto 2}.</p>\n<p><strong>Fallo Crítico</strong> As fallo, y la velocidad de movimiento del objetivo se reduce en 10 durante 1 minuto.</p>",
          "name": "Sangre de carrera"
        }
      }
    },
    "Sun-Scorched Shadow Drake": {
      "creatureType": "Dragón",
      "publicNotes": "<p>Los dragones sombra suelen ser de los más pequeños y menos poderosos de su especie. La mayoría se ponen de pie y son tan altos y largos como un gato doméstico. Tienen escamas de color carbón y alas membranosas lo bastante translúcidas como para pasar por sombras. Atraídos por los materiales brillantes, emplean el engaño, el trabajo en equipo e incluso la trampa rudimentaria para crear oportunidades de hacerse con ganancias mal habidas. Los dragones sombra sienten una especial fascinación y admiración por los dragones umbrales, una notable excepción a la norma entre dragones y dragones.</p>",
      "name": "Sol-Scorched Draco sombrío",
      "items": {
        "Jaws": {
          "name": "Fauces"
        },
        "Tail": {
          "name": "Cola"
        },
        "Darkvision": {
          "description": "<p>@Localize[PF2E.NPC.Abilities.Glossary.Darkvision]</p>",
          "name": "Visión en la Oscuridad"
        },
        "Scent (Imprecise) 30 feet": {
          "description": "<p>@Localize[PF2E.NPC.Abilities.Glossary.Scent]</p>",
          "name": "Olfato (impreciso) 30 pies"
        },
        "Light Blindness": {
          "description": "<p>@Localize[PF2E.NPC.Abilities.Glossary.LightBlindness]</p>",
          "name": "Ceguera Ante La Luz"
        },
        "Shadow Blend": {
          "description": "<p>La forma del draco de sombra cambia y se mezcla por reflejo con las sombras circundantes. Un draco de sombra gana una reacción adicional en cada asalto, pero sólo puede usar esta reacción para Evadir Sombra.</p>",
          "name": "Mezcla Sombra"
        },
        "Shadow Evade": {
          "description": "<p><strong>Desencadenante</strong> A ataques de criatura la Draco sombrío mientras está en una zona de luz tenue</p>\n<hr />\n<p><strong>Efecto</strong> El draco de sombra oscurece aún más su posición. El atacante debe tener éxito en una @Check[type:flat|dc:11] para afectar al draco de sombra, como si el draco fuera @UUID[Compendium.pf2e.conditionitems.iU0fEDdBp3rXpTMC]{Escondido} para el ataque desencadenante.</p>",
          "name": "Sombra Evade"
        },
        "Draconic Frenzy": {
          "description": "<p>El draco de sombra hace un Golpe de mandíbula y dos Golpes de cola en cualquier orden.</p>",
          "name": "Frenesí dracónico"
        },
        "Shadow Breath": {
          "description": "<p>Un draco de sombra escupe una bola de líquido negro que explota en una nube de gélida sombra negra. Este ataque tiene un alcance de 40 pies y explota en una explosión de 5 pies de radio. Las criaturas que se encuentren dentro de la explosión reciben una [[/r 2d6[cold]]] daño (salvación de @Check[type:reflex|dc:16|basic:true]). La explosión de sombra también apaga las fuentes de luz mundana del tamaño de una antorcha, linterna o menor, e intenta contrarrestar la luz mágica con un modificador +8 para contrarrestar.</p>\n<p>El draco sombra no puede volver a usar Aliento Sombra para [[/br 1d6]] asaltos.</p>",
          "name": "Aliento de Sombra"
        },
        "Speed Surge": {
          "description": "<p><strong>Frecuencia</strong> tres veces al día</p>\n<hr />\n<p><strong>Efecto</strong> La Draco sombrío Zancadas o Vuela dos veces.</p>",
          "name": "Oleada de velocidad"
        },
        "Acrobatics": {
          "name": "Acrobacias"
        },
        "Stealth": {
          "name": "Sigilo"
        },
        "Thievery": {
          "name": "Latrocinio"
        }
      }
    },
    "Swamp Ooze": {
      "creatureType": "Cieno",
      "publicNotes": "<p>Estas masas amorfas de aguas residuales y otros detritus se abren paso por alcantarillas inmundas bajo ciudades grandes y pequeñas.</p>\n<hr />\n<p>Los limos, mohos y otros cienos pueden encontrarse en mazmorras húmedas y bosques sombríos. Aunque no son necesariamente malignos, algunos alcanzan tamaños enormes y tienen un apetito insaciable.</p>",
      "name": "Cieno de Pantano",
      "items": {
        "Pseudopod": {
          "name": "Seudópodo"
        },
        "Motion Sense 60 feet": {
          "description": "<p>Un cieno del pantano puede sentir el movimiento cercano a través de la vibración y el movimiento del aire.</p>",
          "name": "Detección de movimiento 60 pies"
        },
        "Swamp Wave": {
          "description": "<p><strong>Frecuencia</strong> una vez por minuto</p>\n<hr />\n<p><strong>Efecto</strong> El cieno del pantano desata una ola de lodo del pantano llena de escombros afilados, que cubre a todas las criaturas en un radio de @Template[type:emanation|distance:20] pies. Cada criatura en el área debe tener éxito en una salvación de @Check[type:reflex|dc:17|name:Filth Wave|traits:damaging-effect] o recibir daño de [[/r 1d4[piercing]]] y sufrir un penalizador de -10 pies a sus Velocidades durante 1 minuto (en un fallo crítico, la criatura también cae @UUID[Compendium.pf2e.conditionitems.j91X7x0XSomq8d60]{Tumbada}).</p>\n<p>Una criatura puede gastar una Acción de interacción para limpiar a alguien, disminuyendo el Penalizador a la Velocidad en 5 pies con cada acción.</p>",
          "name": "Ola de pantano"
        },
        "Stealth": {
          "name": "Sigilo"
        }
      }
    },
    "Swampy Quicksand": {
      "disable": "<p>@Check[type:survival|dc:16|name:Disturb Surface|traits:environmental] (entrenado) para perturbar la superficie</p>",
      "detailsDescription": "<p>Una mancha de agua y arena de 15 pies de ancho intenta sumergir a las criaturas que pasan sobre ella.</p>",
      "name": "Arenas movedizas pantanosas",
      "reset": "<p>El peligro sigue sumergiendo a cualquiera que entre, pero la superficie no vuelve a ser escondida hasta que se asienta en el transcurso de 24 horas.</p>",
      "routine": "<p>(1 acciones) En su iniciativa, las arenas movedizas tiran hacia abajo de cada criatura que hay en su interior. Una criatura que estaba sumergida hasta la cintura pasa a estar sumergida hasta el cuello, y una criatura que estaba sumergida hasta el cuello es arrastrada hacia abajo y tiene que contener la respiración para evitar la asfixia.</p>\n<p>Una criatura en las arenas movedizas puede intentar una prueba @Check[type:athletics|dc:18|name:Swim out of Quicksand|traits:action:swim,environmental] prueba a Nadar para levantarse un paso si está sumergida hasta el cuello o peor, o para moverse 1,5 m si está sumergida sólo hasta la cintura. En un fallo crítico, la criatura se baja un paso. Una criatura que Nadars fuera de las arenas movedizas huye del peligro y es tumbada en un espacio adyacente a la mancha de arenas movedizas. Otras criaturas pueden Prestar Ayuda a la criatura, típicamente usando una cuerda o similar prestar ayuda, o intentar sacar la criatura con su propia @Check[type:athletics|dc:18|name:Aid Another Creature in Quicksand] prueba, con los mismos resultados que si la criatura intentara la prueba.</p>",
      "stealth": "<p>(entrenado), o CD 0 y sin competencia mínima si la superficie está alterada.</p>",
      "items": {
        "Submerge": {
          "description": "<p><strong>Desencadenante</strong> A Enorme o menor criatura camina sobre las arenas movedizas</p>\n<hr />\n<p><strong>Efecto</strong> La criatura desencadenante se hunde en las arenas movedizas hasta la cintura. Las arenas movedizas ruedan iniciativa si no lo han hecho ya.</p>",
          "name": "Sumergir"
        }
      }
    }
  }
}
