{
  "label": "Efectos de la campaña",
  "mapping": {
    "description": "system.description.value",
    "duration": "system.duration.expiry",
    "name": "name"
  },
  "entries": {
    "Effect: Burned Mouth and Throat (Linguistic)": {
      "description": "<p>Quemaduras de boca y garganta, dando un penalizador de -1 por objeto a las pruebas de base lingüística y CDs durante 1 hora.</p>",
      "duration": "turno-start",
      "name": "Efecto: Quemaduras en boca y garganta (Lingüístico)"
    },
    "Effect: Burned Mouth and Throat (No Singing or Yelling)": {
      "description": "<p>El bebedor es incapaz de gritar o cantar durante 8 horas.</p>",
      "duration": "turno-start",
      "name": "Efecto: Boca y Garganta Quemadas (No Cantar ni Gritar)"
    },
    "Effect: Burned Tongue (Linguistic)": {
      "description": "<p>Quemaduras de lengua, que dan un penalizador de -1 por objeto a las pruebas y CDs de base lingüística durante 1 minuto.</p>",
      "duration": "turno-start",
      "name": "Efecto: Lengua quemada (Lingüístico)"
    },
    "Effect: Burned Tongue (No Singing or Yelling)": {
      "description": "<p>El bebedor no puede gritar ni cantar durante 1 hora.</p>",
      "duration": "turno-start",
      "name": "Efecto: Lengua quemada (No cantar ni gritar)"
    },
    "Effect: Extreme stomach cramps": {
      "description": "<p>No puedes ingerir voluntariamente nada, ni siquiera otras bebidas, durante 8 horas</p>",
      "duration": "turno-start",
      "name": "Efecto: Calambres estomacales extremos"
    },
    "Effect: Heart Break": {
      "description": "<p>Hasta el final de su siguiente turno, cada enemigo en un radio de 60 pies de Narcela sufre un penalizador de -1 por objeto a las salvaciones de Voluntad.</p>",
      "duration": "turno-end",
      "name": "Efecto: Romper Corazón"
    },
    "Effect: Heightened awareness": {
      "description": "<p>Conciencia aumentada, otorga un +1 bonificador por objeto a Prueba de Percepción para @UUID[Compendium.pf2e.actionspf2e.BlAOM2X92SI6HMtJ]{Buscar} durante 8 horas.</p>",
      "duration": "turno-start",
      "name": "Efecto: Mayor conciencia"
    },
    "Effect: Hope or Despair (Critical Success)": {
      "description": "<p>Shelyn ve en la criatura la oportunidad de devolver la gloria al santuario y, en lugar de desesperarles, la aparición les llena de esperanza. Además de sentir el impulso de derrotar al maligno que ha infestado el santuario, la criatura siente el impulso de restaurar el santuario. Los detalles exactos sobre la naturaleza del maligno que infesta el santuario no son evidentes, salvo para alertar al personaje de que ciertamente hay algo funesto entre las paredes del santuario. La criatura no necesita actuar según estos impulsos, pero mientras persiga cualquiera de los dos objetivos, gana un +1 bonificador por estatus a todas las pruebas mientras permanezca en el área del santuario. El GM determina si una prueba cuenta o no para este objetivo (como mínimo, cuentan todas las pruebas de combate realizadas contra enemigos en el descanso de la aventura).</p>",
      "duration": "turno-start",
      "name": "Efecto: Esperanza o desesperación (Éxito Crítico)"
    },
    "Effect: Hope or Despair (Failure or Critical Failure)": {
      "description": "<p><strong>Fallo</strong> Sentimientos de tristeza y desesperación afloran en la mente de la criatura. Durante la siguiente hora, la criatura recibe un penalizador de -1 a todas las tiradas de salvación contra efectos mentales; este penalizador aumenta a un penalizador de -2 contra efectos de emoción mental. Este efecto tiene la maldición rasgo.</p>\n<p><strong>Fallo Crítico</strong> As fallo, pero los efectos persisten mientras la Saga cetrina Tulvak siga en control del santuario.</p>",
      "duration": "turno-start",
      "name": "Efecto: Esperanza o Desesperación (Fallo o Fallo Crítico)"
    },
    "Effect: Immediate and Intense Headache": {
      "description": "<p>Cefalea inmediata e intensa, causando debilidad 5 a daño mental durante 8 horas</p>",
      "duration": "turno-start",
      "name": "Efecto: Dolor de cabeza inmediato e intenso"
    },
    "Effect: Improved reflexes": {
      "description": "<p>Reflejos mejorados, que otorga un bonificador +1 por objeto a las salvaciones de Reflejos durante 8 horas.</p>",
      "duration": "turno-start",
      "name": "Efecto: Reflejos mejorados"
    },
    "Effect: Keen insight": {
      "description": "<p>Afilada perspicacia, concede un +1 bonificador por objeto a Prueba de Percepción para @UUID[Compendium.pf2e.actionspf2e.1xRFPTFtWtGJ9ELw]{Averiguar Intenciones} durante 8 horas</p>",
      "duration": "turno-start",
      "name": "Efecto: Afilada perspicaz"
    },
    "Effect: Manipulate Luck - Drusilla (Good)": {
      "description": "<p>La criatura afectada puede tirar dos veces en una tirada de d20 durante el día siguiente y utilizar el resultado más alto.</p>",
      "duration": "turno-start",
      "name": "Efecto: Suerte de Manipulación - Drusilla (Bien)"
    },
    "Effect: Reflection of Life (Fast Healing)": {
      "description": "<p>Obtienes curación rápida durante 1 minuto. Esta cantidad de curación rápida comienza en 3 y aumenta en 1 por cada 2 niveles que superes el 5º nivel.</p>",
      "duration": "turno-start",
      "name": "Efecto: Reflejo de Vida (Curación Rápida)"
    },
    "Geb's Blessing": {
      "description": "<p>Cada personaje obtiene resistencia 20 a dos de los siguientes tipos de daño a su elección: ácido, contundente, frío, electricidad, fuego, negativo, perforante, veneno, positivo, cortante o sónico. También ganan 40 Puntos De Golpe temporales durante 24 horas. Por último, cada personaje obtiene las dos habilidades especiales siguientes, cada una utilizable una vez.</p>\n<p>@UUID[Compendium.pf2e.adventure-specific-actions.MgSwLes5lp3TE1ZV]{Pabellón psiquiátrico}</p>\n<p>@UUID[Compendium.pf2e.adventure-specific-actions.TM4pOPSM9r7XEM64]{Guardián del alma}</p>",
      "name": "La bendición de Geb"
    },
    "Mixed Drink: Dancing Lights": {
      "description": "<p>Puedes lanzar <em>@UUID[Compendium.pf2e.spells-srd.kl2q6JvBZwed4B6v]{Luces Danzantes}</em> como truco primigenio una vez durante el día siguiente.</p>",
      "duration": "turno-start",
      "name": "Bebida combinada: Luces Danzantes"
    },
    "Mixed Drink: Guidance": {
      "description": "<p>Puedes lanzar <em>@UUID[Compendium.pf2e.spells-srd.izcxFQFwf3woCnFs]{Orientación Divina}</em> como truco de primigenio una vez durante el día siguiente.</p>",
      "duration": "turno-start",
      "name": "Bebida combinada: Orientación Divina"
    },
    "Mixed Drink: Luck": {
      "description": "<p>Ganas un poco de suerte: una vez durante las próximas 8 horas cuando intentes una tirada de salvación o una prueba de habilidad, puedes tirar dos veces y coger el resultado más alto. Esto es un efecto de la fortuna.</p>",
      "duration": "turno-start",
      "name": "Bebida combinada: Suerte"
    },
    "Mixed Drink: Prestidigitation": {
      "description": "<p>Puedes lanzar <em>@UUID[Compendium.pf2e.spells-srd.Qw3fnUlaUbnn7ipC]{Prestidigitación}</em> como primigenio truco una vez durante el día siguiente.</p>",
      "duration": "turno-start",
      "name": "Bebida combinada: Prestidigitación"
    },
    "Resonant Reflection: Reflection of Life": {
      "description": "<p>Recuperas el doble del número normal de Puntos De Golpe al descansar (lo que significa que recuperas el doble de tu Modificador de Constitución multiplicado por tu nivel). La curación que obtienes del descanso de larga duración se duplica de forma similar. Además, puedes enfocar esta energía de curación para acelerar aún más los procesos naturales de curación de tu cuerpo.</p>\n<hr />\n<p><strong>Activar</strong> <span class=\"pf2-icon\">2</span> visualizar</p>\n<p><strong>Frecuencia</strong> una vez al día</p>\n<hr />\n<p><strong>Efecto</strong> Obtienes curación rápida 3 durante 1 minuto. Esta cantidad de curación rápida aumenta en 1 por cada 2 niveles que superes el 5º nivel.</p>\n<p>@UUID[Compendium.pf2e.campaign-effects.DOxl0FDd21VMDOMP]{Efecto: Reflejo de Vida (Curación Rápida)}</p>",
      "name": "Reflejo Resonante: Reflejo de Vida"
    },
    "Resonant Reflection: Reflection of Light": {
      "description": "<p>Tus ojos están imbuidos de una luz interior que no es visible externamente pero que te proporciona visión en la oscuridad y la habilidad de distinguir el color en la oscuridad. También puedes enfocar esta luz interior para que se manifieste como un rayo brillante de energía desde tus ojos.</p>\n<hr />\n<p><strong>Activar</strong> <span class=\"pf2-icon\">2</span> visualizar</p>\n<p><strong>Frecuencia</strong> una vez al día</p>\n<hr />\n<p><strong>Efecto</strong> Lanzas <em>@UUID[Compendium.pf2e.spells-srd.DyiD239dNS7RIxZE]{Luz Abrasadora}</em> como un conjuro divino innato, aumentado a un nivel de conjuro igual a la mitad de tu nivel redondeado hacia arriba.</p>",
      "name": "Reflejo Resonante: Reflejo de Luz"
    },
    "Resonant Reflection: Reflection of Stone": {
      "description": "<p>Tu cuerpo está infundido con la resistencia y durabilidad de la piedra. Estás protegido contra los efectos del frío intenso y el calor intenso. Además, también puedes enfocar esta durabilidad para obtener un efecto adicional.</p>\n<hr />\n<p><strong>Activar</strong> <span class=\"pf2-icon\">2</span> visualizar</p>\n<p><strong>Frecuencia</strong> una vez al día</p>\n<hr />\n<p><strong>Efecto</strong> Lanzas <em>@UUID[Compendium.pf2e.spells-srd.2BV2yYPfVJ5zirZt]{Piel Pétrea}</em> como un conjuro divino innato, aumentado a un nivel de conjuro igual a la mitad de tu nivel redondeado hacia arriba.</p>",
      "name": "Reflejo Resonante: Reflejo de Piedra"
    },
    "Resonant Reflection: Reflection of Storm": {
      "description": "<p>Tu cuerpo está acostumbrado a la devastación infligida por las fuerzas naturales. Obtienes una resistencia al daño por electricidad igual a tu nivel. No tratas el viento como terreno difícil o terreno difícil mayor mientras vuelas, y no puedes ser movido por el viento a menos que lo elijas. Obtienes un bonificador +1 por estatus a las salvaciones contra magia primigenia. Además, puedes absorber esta energía revigorizante en tu cuerpo para obtener el siguiente efecto.</p>\n<hr />\n<p><strong>Activar</strong> <span class=\"pf2-icon\">2</span> visualizar</p>\n<p><strong>Frecuencia</strong> una vez al día</p>\n<hr />\n<p><strong>Efecto</strong> Lanzas <em>@UUID[Compendium.pf2e.spells-srd.4MOew29Z1oCX8O28]{Momento de}</em> renovación (sólo para ti) como conjuro innato divino de 8º nivel y recuperas 1 Punto De Foco.</p>",
      "name": "Reflejo Resonante: Reflejo de Tormenta"
    },
    "Resonant Reflection: Reflection of Water": {
      "description": "<p>Tu cuerpo se infunde con la esencia del agua y se adapta a su presencia. Ganas una velocidad de nado de 10 pies y puedes respirar bajo el agua. Además, también puedes enfocar esta afinidad para ganar un efecto adicional.</p>\n<hr />\n<p><strong>Activar</strong> <span class=\"pf2-icon\">2</span> visualizar</p>\n<p><strong>Frecuencia</strong> una vez al día</p>\n<hr />\n<p><strong>Efecto</strong> Lanzas <em>@UUID[Compendium.pf2e.spells-srd.zfn5RqAdF63neqpP]{Controlar Las Aguas}</em> como un conjuro divino innato de 5º nivel. El área de agua que controlas aumenta en 10 pies de largo y ancho por cada 2 niveles que tengas por encima del 10º nivel.</p>",
      "name": "Reflejo Resonante: Reflejo de Agua"
    }
  }
}
