{
  "label": "Efectos de Bestiario",
  "mapping": {
    "description": "system.description.value",
    "duration": "system.duration.expiry",
    "name": "name"
  },
  "entries": {
    "Effect: Absorb Memories": {
      "description": "<p>La criatura gana un +1 bonificador por estatus a todas las pruebas de habilidad.</p>",
      "duration": "turno-start",
      "name": "Efecto: Absorber Recuerdos"
    },
    "Effect: Activate Defenses": {
      "description": "<p>La criatura gana un +2 bonificador por circunstancia a la CA.</p>",
      "duration": "turno-start",
      "name": "Efecto: Activar Defensas"
    },
    "Effect: Adaptive Strike": {
      "description": "<p>Los golpes cuerpo a cuerpo de la criatura cuentan como adamantita, hierro frío o plata.</p>",
      "duration": "turno-start",
      "name": "Efecto: Golpe Adaptativo"
    },
    "Effect: Air of Sickness": {
      "description": "<p>La criatura tiene un penalizador de -2 por estatus a las salvaciones hechas para resistir enfermedades.</p>",
      "duration": "turno-start",
      "name": "Efecto: Aire de enfermedad"
    },
    "Effect: Alchemical Crossbow": {
      "description": "<p>El Alquímico Ballesta inflige un daño adicional de 1d6 del tipo infligido por la bomba utilizada.</p>",
      "duration": "turno-start",
      "name": "Efecto: Alquímico Ballesta"
    },
    "Effect: Alchemical Strike": {
      "description": "<p>Elige ácido, frío, electricidad o daño por fuego. El esclavo imbuye sus ataques de puño con este daño.</p>\n<p>Cada golpe inflige 1d6 puntos de daño del mismo tipo que el de la bomba cargada en él. Cada bomba contiene suficiente líquido para 10 golpes con éxito.</p>",
      "duration": "turno-start",
      "name": "Efecto: Alquímico Golpe"
    },
    "Effect: Ancestral Journey": {
      "description": "<p>La criatura gana un +1 bonificador por estatus a Tiradas de Salvación de Voluntad y a todas las pruebas de habilidad.</p>",
      "duration": "turno-start",
      "name": "Efecto: Viaje Ancestral"
    },
    "Effect: Ancestral Response": {
      "description": "<p>La criatura gana un +2 bonificador por circunstancia en tirada de salvacións.</p>",
      "duration": "turno-start",
      "name": "Efecto: Respuesta ancestral"
    },
    "Effect: Artificer's Command": {
      "description": "<p>La criatura gana un +1 bonificador por estatus a las tiradas de ataque, tiradas de daño y tiradas de salvación.</p>",
      "duration": "turno-start",
      "name": "Efecto: Mando del artífice"
    },
    "Effect: Aura of Command": {
      "description": "<p>La criatura gana un +1 bonificador por estatus a las tiradas de ataque y un +2 bonificador por estatus a las salvaciones de Voluntad.</p>",
      "duration": "turno-start",
      "name": "Efecto: Aura de mando"
    },
    "Effect: Aura of Corruption": {
      "description": "<p>La criatura es tratada como si fuera una planta a efectos de cualquier efecto que particularmente dañe o incomode a las criaturas planta más que a otras criaturas, pero no obtiene ningún beneficio por ser una criatura planta.</p>",
      "duration": "turno-start",
      "name": "Efecto: Aura de corrupción"
    },
    "Effect: Aura of Good Cheer": {
      "description": "<p>Los aliados dentro del aura ganan un +1 bonificador por estatus a las salvaciones de Voluntad contra efectos emocionales.</p>",
      "duration": "turno-start",
      "name": "Efecto: Aura de Bienestar"
    },
    "Effect: Aura of Misfortune": {
      "description": "<p>Las criaturas vivas deben tirar dos veces en todas las tiradas de d20 y utilizar el resultado más bajo.</p>",
      "duration": "turno-start",
      "name": "Efecto: Aura de Desgracia"
    },
    "Effect: Aura of Protection (Solar)": {
      "description": "<p>Los aliados en el aura del solar ganan un +2 bonificador por estatus a la CA contra criaturas malignas y un +2 bonificador por estatus a las salvaciones contra efectos de criaturas malignas. El bonificador aumenta a +4 contra control por criaturas malignas y ataques por criatura maligna convocada.</p>",
      "duration": "turno-start",
      "name": "Efecto: Aura de Protección (Solar)"
    },
    "Effect: Aura of Righteousness (Planetar)": {
      "description": "<p>Los aliados en el aura del Planotáreoio ganan un +2 bonificador por estatus a la CA contra criaturas malignas y un +2 bonificador por estatus a las tiradas de daño contra criaturas malignas.</p>",
      "duration": "turno-start",
      "name": "Efecto: Aura De Rectitud (Planotáreo)"
    },
    "Effect: Aura of Vitality": {
      "description": "<p>Los aliados en el aura de la deva movánica ganan un bonificador +1 por estatus a todas las tiradas de salvación, resistencia 10 al positivo y daño negativo, y son ilesos a los efectos de los rasgos positivos y negativos de un plano. Los animales en el aura de nivel 12 o inferior no atacan a la deva movanic ni a los aliados de la deva a menos que sean controlados o forzados de otro modo a atacar.</p>",
      "duration": "turno-start",
      "name": "Efecto: Aura de Vitalidad"
    },
    "Effect: Barbed Net": {
      "description": "<p>La criatura recibe un penalizador de -10 pies por circunstancia a sus Velocidades.</p>",
      "duration": "turno-start",
      "name": "Efecto: Red de púas"
    },
    "Effect: Bark Orders": {
      "description": "<p>Todos los aliados kóbold a menos de 30 pies de él ganan un +1 bonificador por estatus en las tiradas de ataque y tirada de salvación contra efectos del miedo hasta el inicio del siguiente turno del Jefe Sootscale.</p>",
      "duration": "turno-end",
      "name": "Efecto: Órdenes de corteza"
    },
    "Effect: Bastion Aura": {
      "description": "<p>Todas las criaturas bien alineadas en el aura tienen curación rápida 30 mientras permanezcan en el rango, y ganan un bonificador +2 por estatus a las tiradas de ataque y daño.</p>",
      "duration": "turno-start",
      "name": "Efecto: Bastión Aura"
    },
    "Effect: Battle Cry": {
      "description": "<p>La criatura gana un +1 bonificador por estatus a las tiradas de ataque y daño.</p>",
      "duration": "turno-start",
      "name": "Efecto: Grito de Batalla"
    },
    "Effect: Bittersweet Dreams": {
      "description": "<p>La criatura recibe un penalizador por estatus a las tiradas de ataque, tirada de salvacións y pruebas de habilidad según su resultado de salvación.</p>",
      "duration": "turno-end",
      "name": "Efecto: Sueños agridulces"
    },
    "Effect: Black Cat Curse": {
      "description": "<p><strong>Efecto</strong> Mistress Dusklight lanza una odiosa maldición a una criatura en un radio de 30 pies que pueda ver. Si el objetivo falla una @Check[type:will|dc:32], cada vez que intente una tirada de ataque o de salvación, debe tirar dos veces y utilizar el resultado más bajo. El objetivo queda temporalmente inmune durante 24 horas. La maldición persiste hasta que se elimina o el objetivo supera una tirada de salvación posterior contra ella. La víctima puede intentar una nueva prueba de salvación de @Check[type:will|dc:32] una vez por hora para acabar con la maldición.</p>",
      "duration": "turno-start",
      "name": "Efecto: Black Cat Maldición"
    },
    "Effect: Blasphemous Utterances": {
      "description": "<p>La criatura tiene un penalizador -2 por circunstancia a las salvaciones contra efectos mentales.</p>\n<p>No puede tomar acciones que tengan el rasgo de concentración a menos que tenga éxito en una prueba @Check[type:flat|dc:10]. Fallar esta prueba desperdicia las acciones.</p>",
      "duration": "turno-start",
      "name": "Efecto: Blasfemias"
    },
    "Effect: Blood Frenzy": {
      "description": "<p>La criatura gana puntos de golpe temporales y otros efectos basados en la criatura específica.</p>",
      "duration": "turno-start",
      "name": "Efecto: Frenesí de Sangre"
    },
    "Effect: Blood Fury": {
      "description": "<p>La criatura gana un +1 bonificador por estatus a las tiradas de ataque.</p>",
      "duration": "turno-end",
      "name": "Efecto: Furia de Sangre"
    },
    "Effect: Blood Magic": {
      "description": "<p>La criatura gana un +2 bonificador por estatus a Tiradas de Salvación de Voluntad.</p>",
      "duration": "turno-start",
      "name": "Efecto: Magia de Sangre"
    },
    "Effect: Blood Siphon (Critical Failure)": {
      "description": "<p>La criatura gana un +2 bonificador por estatus a CA y salvaciones y es acelerada. Puede usar sus acciones extra sólo para Golpear.</p>",
      "duration": "turno-end",
      "name": "Efecto: Blood Siphon (Fallo Crítico)"
    },
    "Effect: Blood Soak": {
      "description": "<p>La criatura gana un +4 bonificador por estatus a las tiradas de daño.</p>",
      "duration": "turno-start",
      "name": "Efecto: Remojo de Sangre"
    },
    "Effect: Blood Wake": {
      "description": "<p>La criatura lleva un -4 penalizador por estatus a Pruebas de Atletismo a Nadar.</p>",
      "duration": "turno-start",
      "name": "Efecto: Estela de Sangre"
    },
    "Effect: Bloodline Magic (Stirvyn Banyan)": {
      "description": "<p>Cuando Stirvyn lanza un conjuro de linaje, una oleada de recuerdos ancestrales le otorga a él o a un objetivo del conjuro un +1 bonificador por estatus a las pruebas de habilidad durante 1 asalto.</p>",
      "duration": "turno-start",
      "name": "Efecto: Linaje Magia (Stirvyn Banyan)"
    },
    "Effect: Bloodline Magic": {
      "description": "<p>La criatura gana un +1 bonificador por estatus a Pruebas de Engaño.</p>",
      "duration": "turno-start",
      "name": "Efecto: Linaje Magia"
    },
    "Effect: Bodyguard's Defense": {
      "description": "<p>La criatura gana un +2 bonificador por circunstancia a la CA.</p>",
      "duration": "turno-start",
      "name": "Efecto: Defensa de Guardaespaldas"
    },
    "Effect: Bond in Light": {
      "description": "<p>La criatura brilla con luz brillante en una emanación de 20 pies y luz tenue a 40 pies y tiene @UUID[Compendium.pf2e.bestiary-ability-glossary-srd.fJSNOw4zHGbIm4bZ]{Curación Rápida 10}.</p>",
      "duration": "turno-start",
      "name": "Efecto: Lazo en Luz"
    },
    "Effect: Bosun's Command - Attack Bonus": {
      "description": "<p>La criatura gana un +2 bonificador por estatus a las tiradas de ataque.</p>",
      "duration": "turno-end",
      "name": "Efecto: Mando Contramaestre - Bonificador de Ataque"
    },
    "Effect: Bosun's Command - Speed Bonus": {
      "description": "<p>La criatura gana un +10 bonificador por estatus sus Velocidades.</p>",
      "duration": "turno-end",
      "name": "Efecto: Mando Contramaestre - Velocidad Bonificador"
    },
    "Effect: Brand of the Impenitent": {
      "description": "<p>La criatura toma un -1 penalizador por estatus a CA y salvaciones, reduce sus resistencias en 2, y gana debilidad 2 a daño bueno.</p>",
      "duration": "turno-start",
      "name": "Efecto: Marcar del impenitente"
    },
    "Effect: Breach the Abyss - Acid": {
      "description": "<p>La criatura inflige un daño extra [[/r 2d6[acid]]] su arma.</p>",
      "duration": "turno-end",
      "name": "Efecto: Romper el Abismo - Ácido"
    },
    "Effect: Breach the Abyss - Cold": {
      "description": "<p>La criatura inflige un daño extra [[/r 2d6[cold]]] su arma.</p>",
      "duration": "turno-end",
      "name": "Efecto: Romper el Abismo - Frío"
    },
    "Effect: Breach the Abyss - Electricity": {
      "description": "<p>La criatura inflige un daño extra [[/r 2d6[electricity]]] su arma.</p>",
      "duration": "turno-end",
      "name": "Efecto: Romper el Abismo - Electricidad"
    },
    "Effect: Breach the Abyss - Fire": {
      "description": "<p>La criatura inflige un daño extra [[/r 2d6[fire]]] su arma.</p>",
      "duration": "turno-end",
      "name": "Efecto: Rompe el Abismo - Fuego"
    },
    "Effect: Breach the Abyss - Negative": {
      "description": "<p>La criatura inflige un daño extra [[/r 2d6[negative]]] su arma.</p>",
      "duration": "turno-end",
      "name": "Efecto: Romper el Abismo - Negativo"
    },
    "Effect: Brutal Rally": {
      "description": "<p>La criatura gana un +1 bonificador por circunstancia a las tiradas de ataque.</p>",
      "duration": "turno-start",
      "name": "Efecto: Brutal Reagrupar"
    },
    "Effect: Bully the Departed": {
      "description": "<p>La criatura gana @UUID[Compendium.pf2e.bestiary-ability-glossary-srd.lR9R5Vld8Eu2Dha5]{Regeneración 15 (desactivada por fuerza o bien)}, e inflige una [[/r 1d8[evil]]] extra de daño en sus Golpes.</p>",
      "duration": "turno-end",
      "name": "Efecto: Intimidar a los difuntos"
    },
    "Effect: Bully's Rage": {
      "description": "<p>El matón gana un +2 bonificador por estatus a Pruebas de Intimidación y daño hasta el final de su turno.</p>",
      "duration": "turno-start",
      "name": "Efecto: Furia de Bully"
    },
    "Effect: Call to Action": {
      "description": "<p>La criatura gana un +1 bonificador por estatus a las tiradas de ataque y daño.</p>",
      "duration": "turno-start",
      "name": "Efecto: Llamada a Acciones"
    },
    "Effect: Call to Blood": {
      "description": "<p>La criatura gana un +2 bonificador por estatus a las tiradas de ataque contra criaturas @UUID[Compendium.pf2e.conditionitems.AJh5ex99aV6VTggg]{Desprevenidas}.</p>",
      "duration": "turno-start",
      "name": "Efecto: Llamada a la sangre"
    },
    "Effect: Call to Halt (Success)": {
      "description": "<p>El objetivo sufre un penalizador de -10 pies a todas sus Velocidades durante 1 minuto.</p>",
      "duration": "turno-end",
      "name": "Efecto: Call to Halt (Éxito)"
    },
    "Effect: Calming Bioluminescence": {
      "description": "<p>La criatura gana un +2 bonificador por circunstancia a tirada de salvacións contra efectos emocionales.</p>",
      "duration": "turno-start",
      "name": "Efecto: Bioluminiscencia calmante"
    },
    "Effect: Cat Sith's Mark": {
      "description": "<p>Siempre que la criatura maldita obtenga un éxito crítico en una prueba de habilidad o tirada de salvación, obtiene un éxito en su lugar. Cada día, una criatura maldita puede intentar una prueba @Check[type:flat|dc:10|trait:curse,misfortune|name:Break Cat Sith's Mark] para romper la maldición.</p>",
      "duration": "turno-start",
      "name": "Efecto: Marca del Gato Sith"
    },
    "Effect: Caustic Mucus": {
      "description": "<p>La criatura recibe un penalizador de -5 pies por estatus a su Velocidad. Esta reducción de Velocidad termina con el persistente daño por ácido.</p>",
      "duration": "turno-start",
      "name": "Efecto: Mucosidad cáustica"
    },
    "Effect: Choose Weakness": {
      "description": "<p>El Ghaele cambia el daño elemental infligido por su mandoble y su rayo de luz en ácido, frío, electricidad, fuego o sónico.</p>\n<p>También puede cambiar su resistencia a la energía a cualquiera de estos tipos de energía (puede ser un tipo diferente al de sus ataques).</p>",
      "duration": "turno-start",
      "name": "Efecto: Elegir Debilidad"
    },
    "Effect: Chug": {
      "description": "<p>La criatura gana un +2 bonificador por objeto a Pruebas de Atletismo, tiradas de daño, y tirada de salvacións contra miedo.</p>",
      "duration": "turno-start",
      "name": "Efecto: Chug"
    },
    "Effect: Cite Precedent": {
      "description": "<p>La criatura gana un penalizador -2 por circunstancia en la siguiente Prueba de Diplomacia en un argumento legal.</p>",
      "duration": "turno-start",
      "name": "Efecto: Citar Precedente"
    },
    "Effect: Claim Corpse - Fleshy": {
      "duration": "turno-start",
      "name": "Efecto: Reclamar Cadáver - Carnoso"
    },
    "Effect: Claim Corpse - Skeletal": {
      "duration": "turno-start",
      "name": "Efecto: Reclamar Cadáver - Esquelético"
    },
    "Effect: Commander's Aura": {
      "description": "<p>La criatura gana un +1 bonificador por circunstancia a las tiradas de ataque, tiradas de daño, CA, salvaciones y pruebas de habilidad.</p>",
      "duration": "turno-start",
      "name": "Efecto: Aura del Comandante"
    },
    "Effect: Commanding Aura (Quara)": {
      "description": "<p>Concedido por @UUID[Compendium.pf2e.abomination-vaults-bestiary.JrowrtDilEG8dN2s]{Quara Orshendiel}</p>\n<p>Las drow que rodean a Quara se sienten alentadas por su presencia. Sus aliados drow en el aura ganan un +1 bonificador por estatus a las tiradas de ataque y pruebas de habilidad.</p>",
      "duration": "turno-start",
      "name": "Efecto: Aura de mando (Quara)"
    },
    "Effect: Consume Memories": {
      "description": "<p>Vordakai obtiene un +1 bonificador por estatus a todas las pruebas de habilidad durante 1 minuto como resultado de los recuerdos consumidos.</p>",
      "duration": "turno-start",
      "name": "Efecto: Consumir recuerdos"
    },
    "Effect: Consume Organ": {
      "description": "<p>La criatura gana 15 Puntos De Golpe temporales y un +1 bonificador por estatus a las tiradas de ataque y daño.</p>",
      "duration": "turno-start",
      "name": "Efecto: Consumir Órgano"
    },
    "Effect: Countered by Fire": {
      "description": "<p>La criatura tiene un penalizador -1 por circunstancia a las tiradas de ataque y CA, y su Golpe de mandíbula no inflige daño por electricidad.</p>",
      "duration": "turno-end",
      "name": "Efecto: Contrarrestado por Fuego"
    },
    "Effect: Countered by Water": {
      "description": "<p>La criatura tiene un penalizador -1 por circunstancia a las tiradas de ataque, y su Golpe de mandíbula no inflige daño por fuego.</p>",
      "duration": "turno-end",
      "name": "Efecto: Contrarrestado por Agua"
    },
    "Effect: Crocodile Form": {
      "description": "<p>El bunyip gana una Velocidad terrestre de 20 pies, pero su Golpe de Fauces pierde el persistente daño por sangrado.</p>",
      "duration": "turno-start",
      "name": "Efecto: Forma de Cocodrilo"
    },
    "Effect: Crush Chitin": {
      "description": "<p>La criatura lleva un penalizador de -2 por circunstancia a CA.</p>",
      "duration": "turno-start",
      "name": "Efecto: Triturar quitina"
    },
    "Effect: Crush of Hundreds": {
      "description": "<p>La criatura sufre un penalizador de -10 pies a todos los Velocidades.</p>",
      "duration": "turno-start",
      "name": "Efecto: Crush of Hundreds"
    },
    "Effect: Crushing Spirits": {
      "description": "<p>La criatura recibe un penalizador por circunstancia de -10 pies a todas sus Velocidades.</p>",
      "duration": "turno-start",
      "name": "Efecto: Espíritus aplastantes"
    },
    "Effect: Crystalline Dust Form": {
      "description": "<p>La criatura gana una velocidad de vuelo de 40 pies.</p>",
      "duration": "turno-start",
      "name": "Efecto: Cristalino Forma De Polvo"
    },
    "Effect: Curl Up": {
      "description": "<p>La criatura gana un +2 bonificador por circunstancia a la CA.</p>",
      "duration": "turno-start",
      "name": "Efecto: Curl Up"
    },
    "Effect: Curse of Boiling Blood": {
      "description": "<p>La criatura gana debilidad a fuego 20.</p>",
      "duration": "turno-start",
      "name": "Efecto: Maldición de la sangre hirviendo"
    },
    "Effect: Curse of Fire": {
      "description": "<p>La criatura gana debilidad al fuego 15.</p>",
      "duration": "turno-start",
      "name": "Efecto: Maldición de Fuego"
    },
    "Effect: Curse of Frost": {
      "description": "<p>La criatura gana debilidad al frío 15.</p>",
      "duration": "turno-start",
      "name": "Efecto: Maldición de Escarcha"
    },
    "Effect: Curse of Stone": {
      "description": "<p>La criatura gana un +1 bonificador por estatus a su CA.</p>",
      "duration": "turno-start",
      "name": "Efecto: Maldición de Piedra"
    },
    "Effect: Curse of the Baneful Venom": {
      "description": "<p>La criatura intenta inmediatamente su siguiente tirada de salvación contra un veneno con un penalizador de -2 por estatus.</p>",
      "duration": "turno-start",
      "name": "Efecto: Maldición del veneno nefasto"
    },
    "Effect: Darivan's Bloodline Magic": {
      "description": "<p>Cuando el linaje mágico de Darivan se activa, sus movimientos se vuelven sobrenaturalmente gráciles y distractores, otorgándole un +1 bonificador por estatus a Pruebas de Diplomacia durante 1 asalto o imponiendo un -1 penalizador por estatus a las salvaciones de Voluntad de un objetivo durante 1 asalto.</p>",
      "duration": "turno-start",
      "name": "Efecto: Linaje Magia de Darivan"
    },
    "Effect: Death Gasp (Etioling)": {
      "description": "<p>La criatura obtiene los rasgos muerto viviente e incorporal, una velocidad de vuelo de 25 pies, resistencia 10 a todo daño (excepto fuerza, toque fantasmal o positivo; dobla esta resistencia contra no mágico) y se vuelve inmune a sangrar, efectos de la muerte, enfermedad, paralizado, veneno y sueño.</p>",
      "duration": "turno-start",
      "name": "Efecto: Muerte Gasp (Etioling)"
    },
    "Effect: Death Gasp": {
      "description": "<p>La criatura obtiene el rasgo muerto viviente y se vuelve inmune a sangrar, efectos de la muerte, enfermedad, paralizado, veneno y sueño.</p>",
      "name": "Efecto: Muerte Gasp"
    },
    "Effect: Deceitful Feast (Failure)": {
      "description": "<p>La criatura sufre un penalizador de -1 por circunstancia a las salvaciones de Voluntad contra cualquiera de los conjuros o habilidades del brughadatch. El penalizador aumenta con cada salvación fallida, hasta un máximo de -5.</p>",
      "duration": "turno-start",
      "name": "Efecto: Festín Engañoso (Fallo)"
    },
    "Effect: Defensive Assault": {
      "description": "<p>La criatura gana un bonificador por circunstancia a CA basado en las armas usadas para defensa.</p>",
      "duration": "turno-start",
      "name": "Efecto: Asalto defensivo"
    },
    "Effect: Defensive Slam": {
      "description": "<p>La criatura gana un +2 bonificador por circunstancia a la CA.</p>",
      "duration": "turno-start",
      "name": "Efecto: Golpe Defensivo"
    },
    "Effect: Defensive Slice": {
      "description": "<p>El Barón Drelev asume una posición defensiva con sus armas desplegadas e intenta un Golpe cuerpo a cuerpo. Sufre un penalizador por estatus de -2 en todos los Golpes (incluido éste) y gana un bonificador por estatus de +2 a su CA hasta el comienzo de su siguiente turno.</p>",
      "duration": "turno-start",
      "name": "Efecto: Rodaja defensiva"
    },
    "Effect: Despair": {
      "description": "<p>Las criaturas vivas están asustadas 1 mientras están en un aura de desesperación. No pueden recuperarse naturalmente de este miedo mientras están en el área, pero se recuperan al instante una vez que salen de ella.</p>",
      "duration": "turno-start",
      "name": "Efecto: Desesperación"
    },
    "Effect: Despoiler": {
      "description": "<p>La criatura lleva un -2 penalizador por circunstancia a toda tirada de salvacións contra venenos, enfermedades, y drogas.</p>",
      "duration": "turno-start",
      "name": "Efecto: Despojador"
    },
    "Effect: Devour Soul (Victim Level 15 or Higher)": {
      "description": "<p>La criatura gana 10 Puntos De Golpe temporales y un +2 bonificador por estatus a las tiradas de ataque y daño.</p>",
      "duration": "turno-start",
      "name": "Efecto: Devorar alma (víctima de nivel 15 o superior)"
    },
    "Effect: Devour Soul": {
      "description": "<p>La criatura gana 10 Puntos De Golpe temporales y un +2 bonificador por estatus a las tiradas de ataque y daño.</p>",
      "duration": "turno-start",
      "name": "Efecto: Devorar Alma"
    },
    "Effect: Dire Warning": {
      "description": "<p>La criatura gana un +1 bonificador por estatus a las tiradas de ataque y daño.</p>",
      "duration": "turno-end",
      "name": "Efecto: Advertencia funesta"
    },
    "Effect: Dirty Bomb (Critical Failure)": {
      "description": "<p>La criatura tiene un penalizador de -3 por circunstancia a las salvaciones de fortaleza contra las Bombas Crudas del químico.</p>",
      "duration": "turno-start",
      "name": "Efecto: Sucio Bomba (Fallo Crítico)"
    },
    "Effect: Dirty Bomb": {
      "description": "<p>La criatura tiene un penalizador de -2 por circunstancia a las salvaciones de fortaleza contra las Bombas Crudas del químico.</p>",
      "duration": "turno-start",
      "name": "Efecto: Sucio Bomba"
    },
    "Effect: Discerning Aura": {
      "description": "<p>Todos los muertos vivientes dentro del aura brillan en azul, derramando luz tenue en un radio de 5 pies.</p>",
      "duration": "turno-start",
      "name": "Efecto: Aura de discernimiento"
    },
    "Effect: Distracting Frolic": {
      "description": "<p>El aliado objetivo puede tirar la salvación dos veces y llevarse el mejor resultado.</p>",
      "duration": "turno-start",
      "name": "Efecto: Jugueteo de distracción"
    },
    "Effect: Disturbing Vision": {
      "description": "<p>Las visiones duran [[/br 1d4 #rounds]]{1d4 asaltos}, y mientras duran, todas las criaturas malignas del área ganan un +1 bonificador por estatus a todas las pruebas.</p>",
      "duration": "turno-start",
      "name": "Efecto: Visión perturbadora"
    },
    "Effect: Divine Aegis": {
      "description": "<p>La criatura gana un +1 bonificador por circunstancia a tirada de salvacións contra efectos mágicos no divinos y un -1 penalizador por circunstancia a salvaciones contra efectos divinos.</p>",
      "duration": "turno-start",
      "name": "Efecto: Divino Aegis"
    },
    "Effect: Draconic Breath Weapon Aura": {
      "description": "<p>Después de que el dragón utilice su Arma de aliento, un aura rodea su cuerpo durante 1 asalto.</p>",
      "duration": "turno-start",
      "name": "Efecto: Dracónico Aliento Arma Aura"
    },
    "Effect: Drain Luck": {
      "description": "<p>La criatura debe tener éxito en una @Check[type:will|dc:48] o gana un penalizador por estado de -1 a todas las pruebas; entonces es temporalmente inmune a Drenar Suerte durante 1 asalto. El daño adicional infligido por la runa abrasadora Golpes del Rey Linterna aumenta el penalizador por estado en 1 en una salvación fallida hasta un penalizador por estado máximo de -4. Este penalizador por estado se reduce en uno cada vez que la criatura afectada consigue un éxito crítico en una tirada de dado contra una criatura que tenga un nivel mínimo igual al suyo, pero por lo demás es permanente hasta que se elimine.</p>",
      "duration": "turno-start",
      "name": "Efecto: Drenar Suerte"
    },
    "Effect: Ectoplasmic Form (Physical)": {
      "description": "<p>La criatura pierde el rasgo incorporal, la inmunidad al daño de precisión y todas las resistencias. Gana puntos de golpe temporales y una clase de armadura aumentada según la criatura específica, sus mandíbulas asestan golpes perforantes y sus garras asestan golpes de daño cortante en lugar de negativo.</p>",
      "duration": "turno-start",
      "name": "Efecto: Forma ectoplasmática (Físico)"
    },
    "Effect: Energy Ward": {
      "description": "<p>El cascader gana resistencia 15 al daño desencadenante, reemplazando cualquier otra resistencia obtenida de esta habilidad. Los golpes cuerpo a cuerpo del cascader también infligen un daño adicional de 4d10 de este tipo.</p>",
      "duration": "turno-start",
      "name": "Efecto: Energía Ward"
    },
    "Effect: Ensnare": {
      "description": "<p>La criatura recibe un penalizador de -10 pies por estatus a su Velocidad.</p>",
      "duration": "turno-start",
      "name": "Efecto: Ensnare"
    },
    "Effect: Entangling Slime": {
      "description": "<p>La criatura se convierte en torpe 1 y sufre un penalizador de -5 pies a la Velocidad.</p>",
      "duration": "turno-start",
      "name": "Efecto: Limo enredante"
    },
    "Effect: Entangling Train": {
      "description": "<p>La criatura lleva un penalizador de -15 pies por circunstancia a sus Velocidades.</p>",
      "duration": "turno-end",
      "name": "Efecto: Tren de enredo"
    },
    "Effect: Fan Bolt": {
      "description": "<p>La criatura recibe un penalizador de -10 pies por estatus a su velocidad de nado.</p>",
      "duration": "turno-start",
      "name": "Efecto: Abanico"
    },
    "Effect: Fanatical Frenzy": {
      "description": "<p>La criatura gana un +1 bonificador por estatus a las tiradas de ataque y un +2 bonificador por estatus a las tiradas de daño, y recibe un -2 penalizador por estatus a la CA.</p>",
      "duration": "turno-start",
      "name": "Efecto: Frenesí fanático"
    },
    "Effect: Fed by Metal": {
      "description": "<p>La criatura gana un +1 bonificador por objeto a la CA.</p>",
      "duration": "turno-start",
      "name": "Efecto: Alimentado por Metal"
    },
    "Effect: Fed by Wood": {
      "description": "<p>El daño por fuego de las fauces de la criatura aumenta en un dado.</p>",
      "duration": "turno-end",
      "name": "Efecto: Alimentado por madera"
    },
    "Effect: Feed": {
      "description": "<p>La criatura gana un bonificador por estatus a sus pruebas y CDs dependiendo de la frecuencia con la que utilizó la habilidad Feed.</p>",
      "duration": "turno-start",
      "name": "Efecto: Alimenta"
    },
    "Effect: Fetid Screech (Critical Failure)": {
      "description": "<p>La criatura lleva un penalizador de -5 pies por estatus a sus Velocidades.</p>",
      "duration": "turno-start",
      "name": "Efecto: Fetid Chillido (Fallo Crítico)"
    },
    "Effect: Fettering Fedora": {
      "description": "<p>La criatura sufre un penalizador por circunstancia de -10 pies a sus Velocidades.</p>",
      "duration": "turno-start",
      "name": "Efecto: Fettering Fedora"
    },
    "Effect: Fiddle": {
      "description": "<p>La criatura toma un penalizador de -10 pies por estatus a Velocidades.</p>",
      "duration": "turno-start",
      "name": "Efecto: Violín"
    },
    "Effect: Fiery Form": {
      "description": "<p>La saga de sangre obtiene el rasgo fuego y una velocidad de vuelo de 60 pies, se vuelve inmune al fuego y emite luz como antorcha.</p>",
      "duration": "turno-start",
      "name": "Efecto: Forma Ardiente"
    },
    "Effect: Filth Wave": {
      "description": "<p>La criatura sufre un penalizador de -10 pies a sus Velocidades.</p>",
      "duration": "turno-start",
      "name": "Efecto: Ola de suciedad"
    },
    "Effect: Focused Assault": {
      "description": "<p>La criatura inflige daño adicional en función de la cantidad de espada larga que empuñe.</p>",
      "duration": "turno-start",
      "name": "Efecto: Asalto Enfocado"
    },
    "Effect: Form a Phalanx": {
      "description": "<p>La criatura gana un +2 bonificador por circunstancia a la CA.</p>",
      "duration": "turno-start",
      "name": "Efecto: Formar una Falange"
    },
    "Effect: Fortune's Favor": {
      "description": "<p>Cada vez que la criatura intenta un tipo específico de tirada de salvación, tira dos veces y se queda con el resultado más alto. El tipo de tirada de salvación viene determinado por el palo más destacado en la lectura de la grada: Fortaleza (Martillos o Escudos), Reflejos (Llaves o Libros), o Voluntad (Estrellas o Coronas).</p>",
      "duration": "turno-start",
      "name": "Efecto: Favor de Fortuna"
    },
    "Effect: Furious Possession": {
      "description": "<p>La criatura gana 12 Puntos De Golpe temporales que se pierden al finalizar la posesión. Durante la posesión, la criatura tiene el pulso de furia aura. Cada vez que la criatura poseída realiza un Golpe cuerpo a cuerpo, el espíritu puede sustituir su garra efímera modificadora de ataque, cantidad de daño o ambas en lugar de las estadísticas propias de la criatura.</p>\n<p>@UUID[Compendium.pf2e.bestiary-effects.GC5441z8i7N8swk1]{Efecto: Pulso de Furia}</p>",
      "duration": "turno-start",
      "name": "Efecto: Furious Posesión"
    },
    "Effect: Ganzi Resistance": {
      "description": "<p>La criatura gana una cantidad de resistencia al ácido, la electricidad o el sónico (elegida al azar cada día) en función de la criatura específica.</p>",
      "duration": "turno-start",
      "name": "Efecto: Ganzi Resistencia"
    },
    "Effect: Ghonhatine Feed": {
      "description": "<p>La criatura gana @UUID[Compendium.pf2e.bestiary-ability-glossary-srd.fJSNOw4zHGbIm4bZ]{Curación Rápida 5} y un +2 bonificador por estatus a las tiradas de daño.</p>",
      "duration": "turno-start",
      "name": "Efecto: Ghonhatino Feed"
    },
    "Effect: Gird in Prayer": {
      "description": "<p>La criatura gana un +2 bonificador por estatus a tirada de salvacións contra muerte, mental, y efecto de posesións.</p>",
      "duration": "turno-start",
      "name": "Efecto: Ceñir en Plegaria"
    },
    "Effect: Gleaming Armor": {
      "description": "<p>La criatura gana un +2 bonificador por estatus a CA y resistencia a daño por energía basado en la criatura específica.</p>",
      "duration": "turno-end",
      "name": "Efecto: Armadura brillante"
    },
    "Effect: Gloom Aura": {
      "description": "<p>La criatura lleva un -1 penalizador por circunstancia a tirada de salvacións hecha para resistir efectos emocionales.</p>",
      "duration": "turno-start",
      "name": "Efecto: Gloom Aura"
    },
    "Effect: Glowing Spores": {
      "description": "<p>La criatura lleva un penalizador de -4 a Pruebas de Sigilo.</p>",
      "duration": "turno-start",
      "name": "Efecto: Esporas Brillantes"
    },
    "Effect: Goblin Song": {
      "description": "<p>La criatura tiene un penalizador de -1 por estatus a las salvaciones de Prueba de Percepción y Voluntad.</p>",
      "duration": "turno-start",
      "name": "Efecto: Goblin Song"
    },
    "Effect: Graveknight's Curse": {
      "description": "<p>La Velocidad de la criatura se reduce en 10.</p>",
      "duration": "turno-start",
      "name": "Efecto: Maldición de Caballero Sepulcral"
    },
    "Effect: Guardian's Aegis": {
      "description": "<p>La criatura obtiene un bonificador +1 por estatus a las salvaciones contra efectos mágicos. El bonificador aumenta a +2 si el efecto procede de un demonio u otro caótico maligno infernal.</p>",
      "duration": "turno-start",
      "name": "Efecto: Égida del Guardián"
    },
    "Effect: Guide's Warning": {
      "duration": "turno-start",
      "name": "Efecto: Advertencia de Guía"
    },
    "Effect: Guiding Words": {
      "duration": "turno-start",
      "name": "Efecto: Palabras guía"
    },
    "Effect: Guildmaster's Lead": {
      "duration": "turno-start",
      "name": "Efecto: Maestre Gremial"
    },
    "Effect: Hallucinogenic Pollen (Critical Failure)": {
      "description": "<p>La criatura tiene un penalizador de -4 por estatus a Prueba de Percepción y se salva contra efectos mentales.</p>",
      "duration": "turno-start",
      "name": "Efecto: Polen alucinógeno (Fallo Crítico)"
    },
    "Effect: Hallucinogenic Pollen (Failure)": {
      "description": "<p>La criatura tiene un penalizador de -2 por estatus a Prueba de Percepción y se salva contra efectos mentales.</p>",
      "duration": "turno-start",
      "name": "Efecto: Polen alucinógeno (Fallo)"
    },
    "Effect: Hamstring": {
      "description": "<p>El objetivo lleva un penalizador de -10 pies por estatus a sus Velocidades.</p>",
      "duration": "turno-end",
      "name": "Efecto: Isquiotibiales"
    },
    "Effect: Harmonizing Aura (Allies)": {
      "description": "<p>La criatura gana un +2 bonificador por estatus a las tiradas de daño sónico y un +1 bonificador por estatus a la CA y a todas las salvaciones contra sónico y efectos auditivos</p>",
      "name": "Efecto: Aura Armonizadora (Aliados)"
    },
    "Effect: Harmonizing Aura (Enemies)": {
      "description": "<p>La criatura gana un -2 bonificador por estatus a las tiradas de daño sónico y un -1 bonificador por estatus a la CA y a todas las salvaciones contra sónico y efectos auditivos.</p>",
      "name": "Efecto: Aura Armonizadora (Enemigos)"
    },
    "Effect: Harrowing Misfortune": {
      "description": "<p>La criatura debe tirar dos veces y tomar el resultado más bajo en su siguiente tirada de un tipo específico, determinado por el palo de la carta. Los palos y sus efectos son: Martillos (tirada de ataque cuerpo a cuerpo), Llaves (tirada de Reflejos), Escudos (tirada de Fortaleza), Libros (prueba de habilidad), Estrellas (tirada de Voluntad) y Coronas (tirada de ataque de conjuro).</p>",
      "duration": "turno-start",
      "name": "Efecto: Desgracia Desgarradora"
    },
    "Effect: Haywire": {
      "description": "<p>La criatura se lleva un -1 penalizador por circunstancia a Golpes pero inflige un daño adicional a la [[/r 1d6[bludgeoning]]] más @UUID[Compendium.pf2e.bestiary-ability-glossary-srd.BCLvAx4Pz4MLa2pu]{Derribar}.</p>",
      "duration": "turno-end",
      "name": "Efecto: Haywire"
    },
    "Effect: Hunted Fear": {
      "description": "<p>La criatura lleva un -2 penalizador por circunstancia a Pruebas de Supervivencia para no perderse.</p>",
      "duration": "turno-start",
      "name": "Efecto: Miedo Cazado"
    },
    "Effect: Hurl Net": {
      "description": "<p>La criatura recibe un penalizador de -10 pies por circunstancia a sus Velocidades.</p>",
      "duration": "turno-start",
      "name": "Efecto: Lanzar Red"
    },
    "Effect: Hurtful Critique": {
      "description": "<p>La criatura recibe un -1 penalizador por circunstancia a las tiradas de ataque (-2 en un fallo crítico).</p>",
      "duration": "turno-start",
      "name": "Efecto: Crítica hiriente"
    },
    "Effect: Hydra Heads": {
      "description": "<p>El número de cabezas que tiene actualmente la hidra.</p>",
      "duration": "turno-start",
      "name": "Efecto: Cabezas de Hidra"
    },
    "Effect: Hypnotic Stare": {
      "description": "<p>Ese objetivo lleva un penalizador de -2 a Tiradas de Salvación de Voluntad.</p>",
      "duration": "turno-start",
      "name": "Efecto: Mirada Hipnótica"
    },
    "Effect: Ill Omen": {
      "description": "<p>La criatura tiene un penalizador -1 a las tiradas de ataque, pruebas de habilidad y tirada de salvacións mientras esté dentro del aura de mal agüero y se vuelve inmune a los efectos de la fortuna durante 1 día.</p>",
      "duration": "turno-start",
      "name": "Efecto: Mal Agüero"
    },
    "Effect: Infectious Aura": {
      "description": "<p>La criatura tiene un penalizador de -2 por estatus a las salvaciones contra efectos de enfermedad.</p>\n<p>Si una criatura dentro del rango contrae o progresa una enfermedad, todas las criaturas adyacentes están expuestas a la misma enfermedad, en la misma CD.</p>",
      "duration": "turno-start",
      "name": "Efecto: Aura Infecciosa"
    },
    "Effect: Inspirational Presence": {
      "description": "<p>Cualquiera de los alumnos del maestro en el aura gana un +1 bonificador por circunstancia a @UUID[Compendium.pf2e.actionspf2e.1OagaWtBpVXExToo]{Recordar Conocimiento}.</p>",
      "duration": "turno-start",
      "name": "Efecto: Presencia Inspiradora"
    },
    "Effect: Inspire Courage (Love Siktempora)": {
      "description": "<p>La criatura gana un +2 bonificador por estatus a las tiradas de ataque, tiradas de daño y salvaciones contra efectos del miedo.</p>",
      "duration": "turno-start",
      "name": "Efecto: Infundir Valor (Amor Siktempora)"
    },
    "Effect: Inspire Defense (Love Siktempora)": {
      "description": "<p>La criatura gana un +2 bonificador por estatus a CA y tirada de salvacións, así como resistencia 4 al daño físico.</p>",
      "duration": "turno-start",
      "name": "Efecto: Inspirar Defensa (Amor Siktempora)"
    },
    "Effect: Inspire Envoy": {
      "description": "<p>La criatura gana un bonificador por estatus a las tiradas de ataque, CA, o todas las siguientes: Percepción, salvaciones de Voluntad y pruebas de habilidad basadas en Carisma. El valor del bonificador depende de la criatura específica que conceda este efecto.</p>",
      "duration": "turno-start",
      "name": "Efecto: Inspire Enviado"
    },
    "Effect: Inspired Feast": {
      "description": "<p>La criatura gana un +1 bonificador por estatus a las tiradas de ataque y un +2 bonificador por estatus a las tiradas de daño.</p>",
      "duration": "turno-start",
      "name": "Efecto: Festín Inspirado"
    },
    "Effect: Inspiring Presence": {
      "description": "<p>La criatura gana un +2 bonificador por circunstancia a las salvaciones contra efectos del miedo.</p>",
      "duration": "turno-start",
      "name": "Efecto: Presencia Inspiradora"
    },
    "Effect: Instinctual Tinker (Critical Success)": {
      "description": "<p>La criatura gana un +1 bonificador por circunstancia a las tiradas de ataque.</p>",
      "duration": "turno-start",
      "name": "Efecto: Experimentador Instintivo (Éxito Crítico)"
    },
    "Effect: Interpose": {
      "description": "<p>La criatura gana un +2 bonificador por circunstancia a la CA.</p>",
      "duration": "turno-start",
      "name": "Efecto: Interponer"
    },
    "Effect: Invigorating Passion": {
      "description": "<p>La criatura gana un +1 bonificador por estatus a las tiradas de ataque y 10 Puntos De Golpe temporales.</p>",
      "duration": "turno-start",
      "name": "Efecto: Pasión vigorizante"
    },
    "Effect: Jury-Rig": {
      "description": "<p>El objetivo gana 10 Puntos De Golpe temporales.</p>",
      "duration": "turno-start",
      "name": "Efecto: Arreglar"
    },
    "Effect: Kharna's Blessing": {
      "duration": "turno-start",
      "name": "Efecto: Bendición de Kharna"
    },
    "Effect: Lantern of Hope (Gestalt)": {
      "description": "<p>La criatura gana un +3 bonificador por estatus a las tiradas de daño y a la tirada de salvacións contra <em>@UUID[Compendium.pf2e.spells-srd.GaRQlC9Yw1BGKHfN]{Desesperación Aplastante}</em>.</p>",
      "duration": "turno-start",
      "name": "Efecto: Linterna de la Esperanza (Gestalt)"
    },
    "Effect: Lantern of Hope": {
      "description": "<p>La criatura gana un +1 bonificador por estatus a las tiradas de daño y a las tiradas de salvación contra <em>@UUID[Compendium.pf2e.spells-srd.GaRQlC9Yw1BGKHfN]{Desesperación Aplastante}</em>.</p>",
      "duration": "turno-start",
      "name": "Efecto: Linterna de la Esperanza"
    },
    "Effect: Lost Plates": {
      "description": "<p>La criatura lleva un penalizador por estatus a CA igual al número de placas perdidas.</p>",
      "duration": "turno-start",
      "name": "Efecto: Placas Perdidas"
    },
    "Effect: Lost Red Cap": {
      "description": "<p>La criatura recibe un -4 penalizador por estatus a sus tiradas de daño.</p>",
      "duration": "turno-start",
      "name": "Efecto: Gorra Roja Perdida"
    },
    "Effect: Lurker's Glow (Critical Failure)": {
      "description": "<p>La criatura arroja luz brillante en una emanación de 20 pies durante la duración del efecto.</p>",
      "duration": "turno-start",
      "name": "Efecto: Lurker's Glow (Fallo Crítico)"
    },
    "Effect: Mangling Rend": {
      "description": "<p>El objetivo recibe un penalizador de -20 pies por estatus a todos los Velocidades hasta el final de su siguiente turno.</p>",
      "duration": "turno-end",
      "name": "Efecto: Rasgadura"
    },
    "Effect: Manipulate Luck (Bad)": {
      "description": "<p>La criatura debe tirar dos veces y utilizar el resultado más bajo en su siguiente tirada d20.</p>",
      "name": "Efecto: Suerte de Manipulación (Malo)"
    },
    "Effect: Manipulate Luck (Good)": {
      "description": "<p>La criatura afectada puede tirar dos veces en una tirada de d20 en el minuto siguiente y utilizar el resultado más alto.</p>",
      "duration": "turno-start",
      "name": "Efecto: Suerte de Manipulación (Bien)"
    },
    "Effect: Moon Frenzy": {
      "description": "<p>La criatura aumenta un tamaño, aumenta su alcance en 1,5 m y aumenta el daño de su Golpe de mandíbula (o un Golpe similar) en 2.</p>",
      "duration": "turno-start",
      "name": "Efecto: Luna Frenzy"
    },
    "Effect: Mortal Reflection": {
      "description": "<p>El autómata imperfecto recurre a las emociones del objetivo para recordar una apariencia de sentimiento mortal, obteniendo un bonificador por estatus de +5 pies a su Velocidad durante 1 minuto.</p>",
      "duration": "turno-start",
      "name": "Efecto: Reflejo Mortal"
    },
    "Effect: Motivating Assault": {
      "description": "<p>Ganas un +1 bonificador por estatus a las tiradas de ataque, tiradas de daño y salvaciones contra efectos del miedo.</p>",
      "duration": "turno-start",
      "name": "Efecto: Asalto Motivador"
    },
    "Effect: Musk": {
      "description": "<p>La criatura lleva un penalizador de -2 a Pruebas de Sigilo.</p>",
      "duration": "turno-start",
      "name": "Efecto: Almizcle"
    },
    "Effect: Mutilating Bite": {
      "description": "<p>La criatura recibe entonces un penalizador de -1 por estatus a las pruebas basadas en Carisma. Este penalizador es acumulativo hasta -3.</p>",
      "duration": "turno-start",
      "name": "Efecto: Mordedura Mutiladora"
    },
    "Effect: Nanite Surge (Glow)": {
      "description": "<p>La criatura arroja luz tenue en una emanación de 10 pies.</p>",
      "duration": "turno-start",
      "name": "Efecto: Nanite Surge (Glow)"
    },
    "Effect: Necrotic Field": {
      "description": "<p>Muerto Viviente dentro del aura inflige un daño adicional [[/r 1d6[negative]]] sus ataques naturales.</p>",
      "duration": "turno-start",
      "name": "Efecto: Campo Necrótico"
    },
    "Effect: No Quarter!": {
      "description": "<p>El capitán ordena a sus compañeros de navío luchar sin merced. Todas las criaturas aliadas de nivel igual o inferior a 20 pies del capitán de navío ganan un bonificador +1 por estatus a las tiradas de ataque y de daño hasta el final del siguiente turno del capitán de navío.</p>",
      "duration": "turno-start",
      "name": "Efecto: ¡Sin cuartel!"
    },
    "Effect: Nymph Queen's Inspiration": {
      "description": "<p>La criatura gana un +1 bonificador por estatus a todas las pruebas de Artesanía, Pruebas de Interpretación y salvaciones de Voluntad.</p>\n<p>Los bardos reciben prestaciones adicionales:</p>\n<ul>\n<li><strong>Musa Enigma:</strong> +1 bonificador por estatus a todas las Pruebas de Saber <em>(no incluidas)</em></li>\n<li><strong>Musa Maestra:</strong> +2 bonificador por estatus a Pruebas de Interpretación para determinar los efectos de composicións</li>\n<li><strong>Musa Polifacetica:</strong> +4 bonificador por estatus a pruebas de habilidad no entrenada</li>\n<li><strong>Otras Musas:</strong> +2 bonificador por estatus a las salvaciones de Voluntad contra feérico</li>\n</ul>",
      "duration": "turno-start",
      "name": "Efecto: Inspiración de Ninfa Queen"
    },
    "Effect: Oceanic Armor": {
      "description": "<p>La criatura gana un +2 bonificador por circunstancia a la CA.</p>",
      "duration": "turno-start",
      "name": "Efecto: Armadura Oceánica"
    },
    "Effect: Overtake Soul": {
      "duration": "turno-start",
      "name": "Efecto: Superar el alma"
    },
    "Effect: Pain Frenzy": {
      "description": "<p>La criatura gana un +2 bonificador por estatus a las tiradas de ataque y daño.</p>",
      "duration": "turno-end",
      "name": "Efecto: Dolor Frenzy"
    },
    "Effect: Parry Dance": {
      "description": "<p>El desgarramiento gana un +2 bonificador por circunstancia a la CA hasta el final de su próximo turno.</p>",
      "duration": "turno-start",
      "name": "Efecto: Parada Dance"
    },
    "Effect: PFS Level Bump": {
      "description": "<p>Los escenarios y las misiones están diseñados para desafiar a los PC cuyo nivel normal es el menor de los dos niveles de un Rango de Nivel dado (por ejemplo, el Rango de Nivel 1-2 está construido para desafiar a los PC de 1º nivel, y el Rango de Nivel 3-4 está construido para desafiar a los PC de 3º nivel). Normalmente, cuando el total de Puntos de Desafío determina que el poder global del grupo es equivalente al nivel más alto en un Rango de Nivel (por ejemplo, 2º nivel en Rango de Nivel 1-2), la voluntad de escalado del escenario se ajusta a esto.</p>\n<p>Sin embargo, a veces es necesario añadir un aumento de nivel, como cuando el escalado del escenario se basa en el número de jugadores, o si el escenario carece de un escalado de nivel bajo 16-18.</p>\n<ul>\n<li>Aumenta en 1 el modificador de ataques, ataque daño, conjuro daño, modificadores a la tirada de salvación, modificador de habilidades, Modificador a la Percepcións y CAs.</li>\n<li>Aumenta el total de Puntos de Golpe en 10 o en un 10%, lo que sea mayor.</li>\n</ul>",
      "duration": "turno-start",
      "name": "Efecto: Subida de nivel PFS"
    },
    "Effect: Phalanx Fighter": {
      "description": "<p>La criatura gana un +1 bonificador por circunstancia a la CA.</p>",
      "duration": "turno-start",
      "name": "Efecto: Falange Guerrero"
    },
    "Effect: Phantasmagoric Fog": {
      "description": "<p>La sala se llena de una niebla violeta que impone un -2 penalizador por circunstancia a Prueba de Percepción a todas las criaturas que se encuentren en su interior y expone a la niebla fantasmagórica a cualquiera que entre en ella.</p>",
      "duration": "turno-start",
      "name": "Efecto: Niebla Fantasmagórica"
    },
    "Effect: Poison Frenzy": {
      "description": "<p>El devorador de venenos entra en un frenesí que dura 1 minuto. Mientras está en frenesí, el devorador de venenos obtiene un +1 bonificador por estatus a las tiradas de ataque con Golpes cuerpo a cuerpo, obtiene un +4 bonificador por estatus a las tiradas de daño con Golpes cuerpo a cuerpo, obtiene 20 Puntos De Golpe temporales hasta el final del frenesí y sufre un -2 penalizador por estatus a la CA.</p>",
      "duration": "turno-start",
      "name": "Efecto: Veneno Frenzy"
    },
    "Effect: Pollution Infusion": {
      "duration": "turno-start",
      "name": "Efecto: Infusión Contaminante"
    },
    "Effect: Praise Adachros": {
      "description": "<p>La criatura gana +1 bonificador por estatus a las tiradas de ataque, prueba de percepción, tirada de salvacións y pruebas de habilidad.</p>",
      "duration": "turno-end",
      "name": "Efecto: Alabanza Adachros"
    },
    "Effect: Prepare Fangs": {
      "description": "<p>Dagas inflige un daño adicional por veneno igual al valor de la ficha.</p>",
      "duration": "turno-start",
      "name": "Efecto: Preparar Colmillos"
    },
    "Effect: Profane Gift": {
      "description": "<p>La criatura gana un +1 bonificador por estatus a las tiradas de ataque, pruebas de habilidad y tirada de salvacións.</p>",
      "duration": "turno-start",
      "name": "Efecto: Don Profano"
    },
    "Effect: Protean Anatomy": {
      "description": "<p>La criatura adquiere resistencia al ácido, a la electricidad o a la sónica según su Anatomía Proteica.</p>",
      "duration": "turno-start",
      "name": "Efecto: Anatomía Proteica"
    },
    "Effect: Pry": {
      "description": "<p>La criatura recibe un penalizador de -1 por estatus a las pruebas de habilidad basadas en Carisma.</p>",
      "duration": "turno-start",
      "name": "Efecto: Pry"
    },
    "Effect: Pulse of Rage": {
      "description": "<p>La criatura lleva un penalizador de -1 por estatus a CA.</p>",
      "duration": "turno-start",
      "name": "Efecto: Pulso de Furia"
    },
    "Effect: Putrid Blast": {
      "description": "<p>Criatura sufre un penalizador -2 por circunstancia a las salvaciones de Fortaleza contra bilis de xulgath durante 1 minuto.</p>",
      "duration": "turno-start",
      "name": "Efecto: Explosión pútrida"
    },
    "Effect: Putrid Stench": {
      "description": "<p>La criatura recibe un penalizador de -5 pies por estatus a sus Velocidades.</p>",
      "duration": "turno-end",
      "name": "Efecto: Hedor pútrido"
    },
    "Effect: Raise Guard": {
      "description": "<p>La criatura gana un +2 bonificador por circunstancia a la CA.</p>",
      "duration": "turno-start",
      "name": "Efecto: Levantar Guardia"
    },
    "Effect: Rapid Evolution - Energy Gland": {
      "description": "<p>La criatura gana daño por energía resistencia similar al tipo de disparo.</p>",
      "duration": "turno-start",
      "name": "Efecto: Evolución Rápida - Energía Gland"
    },
    "Effect: Rapid Evolution - Husk": {
      "description": "<p>La criatura gana daño físico resistencia similar al tipo de disparo.</p>",
      "duration": "turno-start",
      "name": "Efecto: Evolución Rápida - Husk"
    },
    "Effect: Read the Stars (Critical Success)": {
      "description": "<p>La criatura gana un +1 bonificador por circunstancia a tirada de salvacións.</p>",
      "duration": "turno-start",
      "name": "Efecto: Lee las estrellas (Éxito Crítico)"
    },
    "Effect: Regression": {
      "description": "<p>La criatura se reduce un tamaño y todas las habilidades del objetivo de experto y mejor se reducen a entrenado.</p>",
      "duration": "turno-start",
      "name": "Efecto: Regresión"
    },
    "Effect: Reminder of Doom": {
      "description": "<p>La criatura gana un +2 bonificador por estatus a las tiradas de ataque y daño.</p>",
      "duration": "turno-start",
      "name": "Efecto: Recordatorio de Fatalidad"
    },
    "Effect: Remove Face": {
      "description": "<p>La criatura sufre un penalizador permanente de -4 por estatus a las pruebas de Carisma y a las pruebas de habilidad basadas en Carisma. Este penalizador sólo puede eliminarse si la víctima recupera su rostro y se le lanza un conjuro de <em>@UUID[Compendium.pf2e.spells-srd.SnaLVgxZ9ryUFmUr]{Restablecimiento}</em>.</p>",
      "duration": "turno-start",
      "name": "Efecto: Quitar Cara"
    },
    "Effect: Resonance": {
      "description": "<p>La criatura gana un bonificador +1 por estatus a las tiradas de ataque y daño por efectos con el rasgo seleccionado; una criatura con el rasgo elemental y el rasgo seleccionado gana este bonificador a todas las tiradas de ataque y daño.</p>",
      "name": "Efecto: Resonancia"
    },
    "Effect: Revert Form": {
      "description": "<p>La criatura gana un +2 bonificador por estatus a las tiradas de ataque, tiradas de daño, tiradas de salvacións y pruebas de habilidad.</p>",
      "duration": "turno-start",
      "name": "Efecto: Revertir Forma"
    },
    "Effect: Rockfall Critical Failure": {
      "description": "<p>La criatura afectada sufre un penalizador por circunstancia de -20 pies a su velocidad de movimiento durante 2 asaltos.</p>",
      "duration": "turno-start",
      "name": "Efecto: Rockfall Fallo Crítico"
    },
    "Effect: Rockfall Failure": {
      "description": "<p>La criatura afectada sufre un penalizador por circunstancia de -10 pies a su velocidad de movimiento durante 1 asalto.</p>",
      "duration": "turno-start",
      "name": "Efecto: Rockfall Fallo"
    },
    "Effect: Rope Snare": {
      "description": "<p>La criatura toma un penalizador de 10 pies por circunstancia a Velocidad.</p>",
      "duration": "turno-start",
      "name": "Efecto: Cuerda Trampa De Lazo"
    },
    "Effect: Rotting Stench": {
      "description": "<p>Mientras estén dentro del aura, las criaturas también tienen un penalizador -2 por circunstancia a las salvaciones contra miedo y para recuperarse de la condición de indispuesto.</p>",
      "duration": "turno-start",
      "name": "Efecto: Rotting Hedor"
    },
    "Effect: Rune of Destruction (Greatsword)": {
      "description": "<p>El mandoble gana el rasgo letal con 3d12, y un golpe de criatura con el mandoble es @UUID[Compendium.pf2e.conditionitems.4D2KBtexWXa6oUMR]{Drenado 1} a menos que tenga éxito en una salvación de @Check[type:fortitude|dc:35|name:Rune of Destruction|traits:arcane].</p>",
      "duration": "turno-start",
      "name": "Efecto: Runa de Destrucción (Mandoble)"
    },
    "Effect: Rune of Destruction (Longspear)": {
      "description": "<p>La lanza larga gana el rasgo letal con 3d8, y un golpe de criatura con la lanza larga es @UUID[Compendium.pf2e.conditionitems.4D2KBtexWXa6oUMR]{Drenado 1} a menos que tenga éxito en una salvación de @Check[type:fortitude|dc:35|name:Rune of Destruction|traits:arcane].</p>",
      "duration": "turno-start",
      "name": "Efecto: Runa de Destrucción (Lanza Larga)"
    },
    "Effect: Rune of Destruction (Rock)": {
      "description": "<p>La roca gana el rasgo letal con 3d12, y un golpe de criatura con la roca es @UUID[Compendium.pf2e.conditionitems.4D2KBtexWXa6oUMR]{Drenado 1} a menos que tenga éxito en una salvación de @Check[type:fortitude|dc:35|name:Rune of Destruction|traits:arcane].</p>",
      "duration": "turno-start",
      "name": "Efecto: Runa de Destrucción (Roca)"
    },
    "Effect: Rune of Flames (Greatsword)": {
      "description": "<p>El mandoble inflige 3d6 adicionales de daño por fuego en todos los ataques.</p>",
      "duration": "turno-start",
      "name": "Efecto: Runa de las llamas (Mandoble)"
    },
    "Effect: Rune of Flames (Longspear)": {
      "description": "<p>La lanza larga inflige 3d6 adicionales de daño por fuego en todos los ataques.</p>",
      "duration": "turno-start",
      "name": "Efecto: Runa de las llamas (Lanza Larga)"
    },
    "Effect: Rune of Flames (Rock)": {
      "description": "<p>La roca inflige 3d6 adicionales de daño por fuego en todos los ataques.</p>",
      "duration": "turno-start",
      "name": "Efecto: Runa de las llamas (Rock)"
    },
    "Effect: Rune of Smiting (Greatsword)": {
      "description": "<p>Cuando el mandoble impacta, el gigante puede Empujar el objetivo hacia atrás 10 pies, o 20 pies en un impacto crítico.</p>",
      "duration": "turno-start",
      "name": "Efecto: Runa de Golpe (Mandoble)"
    },
    "Effect: Rune of Smiting (Longspear)": {
      "description": "<p>Cuando la lanza larga golpea, el gigante puede Empujar el objetivo hacia atrás 10 pies, o 20 pies en un impacto crítico.</p>",
      "duration": "turno-start",
      "name": "Efecto: Runa de Golpe (Lanza Larga)"
    },
    "Effect: Rune of Smiting (Rock)": {
      "description": "<p>Cuando la roca golpea, el gigante puede Empujar el objetivo hacia atrás 10 pies, o 20 pies en un impacto crítico.</p>",
      "duration": "turno-start",
      "name": "Efecto: Runa de Golpe (Roca)"
    },
    "Effect: Runic Resistance": {
      "description": "<p>La criatura gana resistencia 5 a un tipo de daño.</p>",
      "duration": "turno-start",
      "name": "Efecto: Rúnico Resistencia"
    },
    "Effect: Sandstorm": {
      "description": "<p>La criatura lleva un -4 penalizador por circunstancia a Prueba de Percepción.</p>",
      "duration": "turno-start",
      "name": "Efecto: Tormenta de arena"
    },
    "Effect: Scraping Clamor": {
      "duration": "turno-start",
      "name": "Efecto: Clamor Raspador"
    },
    "Effect: Shadow Rapier": {
      "description": "<p>El desgarramiento envuelve su espada en energía negativa, cambiando el tipo de daño a negativo.</p>",
      "duration": "turno-end",
      "name": "Efecto: Sombra Espada ropera"
    },
    "Effect: Share Defenses": {
      "description": "<p>La criatura gana resistencia al frío 10.</p>",
      "duration": "turno-start",
      "name": "Efecto: Compartir Defensas"
    },
    "Effect: Share Pain": {
      "description": "<p>La criatura recibe un penalizador por estatus a sus Velocidades basado en su resultado de salvación.</p>",
      "duration": "turno-start",
      "name": "Efecto: Compartir Dolor"
    },
    "Effect: Silent Aura": {
      "description": "<p>Un acechador silencioso no emite ningún sonido, lo que impide que las criaturas se percaten de su presencia utilizando únicamente el oído o un sentido similar. Este silencio detiene todo sonido en su interior o que lo atraviese. El acechador silencioso y todas las criaturas en el aura no pueden usar ataques sónicos o acciones que tengan el rasgo auditivo; esto impide a las criaturas lanzar conjuros con componentes verbales o activar objetos con componentes de mando.</p>",
      "duration": "turno-start",
      "name": "Efecto: Aura Silenciosa"
    },
    "Effect: Sinful Bite": {
      "description": "<p>La criatura recibe un penalizador de -10 pies por estatus a sus Velocidades.</p>",
      "duration": "turno-start",
      "name": "Efecto: Mordisco Pecaminoso"
    },
    "Effect: Sixfold Flurry": {
      "description": "<p>La criatura gana un bonificador por circunstancia a CA basado en los Golpes que decidió no tomar.</p>",
      "duration": "turno-start",
      "name": "Efecto: Sixfold Ráfaga"
    },
    "Effect: Slime Trap": {
      "description": "<p>La criatura recibe un penalizador de -10 pies por circunstancia a sus Velocidades.</p>",
      "duration": "turno-start",
      "name": "Efecto: Trampa de limo"
    },
    "Effect: Smash Kneecaps": {
      "description": "<p>La Velocidad de la criatura se reduce en 10 pies.</p>",
      "duration": "turno-start",
      "name": "Efecto: Aporrear Rodillas"
    },
    "Effect: Snake Form": {
      "description": "<p>La cola del bunyip Golpe gana alcance 10 y @UUID[Compendium.pf2e.bestiary-ability-glossary-srd.Tkd8sH4pwFIPzqTr]{Agarrón}, pero es Mandíbulas Golpe pierde el persistente daño por sangrado.</p>",
      "duration": "turno-start",
      "name": "Efecto: Forma de serpiente"
    },
    "Effect: Song of the Swamp": {
      "description": "<p>La criatura gana un +2 bonificador por estatus a las tiradas de daño y a las salvaciones contra el miedo.</p>",
      "duration": "turno-start",
      "name": "Efecto: Canción del pantano"
    },
    "Effect: Soul Siphon": {
      "description": "<p>La criatura gana 5 Puntos De Golpe temporales y un +1 bonificador por estatus a las tiradas de ataque y daño.</p>",
      "duration": "turno-start",
      "name": "Efecto: Sifón de Almas"
    },
    "Effect: Spiritual Warden": {
      "description": "<p>Los aliados en el aura ganan un +2 bonificador por estatus a tirada de salvacións contra efectos de la muerte y efectos que objetiven o manipulen sus almas.</p>",
      "duration": "turno-start",
      "name": "Efecto: Guarda Espiritual"
    },
    "Effect: Splintered Ground (Critical Failure)": {
      "description": "<p>La criatura recibe un penalizador de -15 pies por circunstancia a todos los Velocidades.</p>",
      "duration": "turno-start",
      "name": "Efecto: Suelo Astillado (Fallo Crítico)"
    },
    "Effect: Splintered Ground": {
      "description": "<p>La criatura sufre un penalizador por circunstancia de -10 pies a todos los Velocidades.</p>",
      "duration": "turno-start",
      "name": "Efecto: Tierra Astillada"
    },
    "Effect: Spotlight": {
      "description": "<p>El objetivo gana un +2 bonificador por estatus a Pruebas de Interpretación y resistencia 10 al daño mental.</p>",
      "duration": "turno-start",
      "name": "Efecto: Foco"
    },
    "Effect: Spray Toxic Oil": {
      "description": "<p>La criatura gana debilidad a fuego 5, y siempre que falle críticamente una tirada de ataque con un arma empuñada, suelta el arma.</p>",
      "duration": "turno-start",
      "name": "Efecto: Spray Aceite Tóxico"
    },
    "Effect: Stench": {
      "description": "<p>La criatura tiene un penalizador -2 por circunstancia a las salvaciones contra enfermedad.</p>",
      "duration": "turno-start",
      "name": "Efecto: Hedor"
    },
    "Effect: Stick a Fork in It": {
      "description": "<p>La criatura recibe un penalizador de -10 pies por circunstancia a sus Velocidades.</p>",
      "duration": "turno-start",
      "name": "Efecto: Clávale un tenedor"
    },
    "Effect: Sticky Spores": {
      "description": "<p>La criatura recibe un penalizador por estatus de -10 pies a todas sus Velocidades.</p>",
      "duration": "turno-start",
      "name": "Efecto: Esporas pegajosas"
    },
    "Effect: Sting of the Lash": {
      "description": "<p>La criatura gana 5 Puntos De Golpe temporales.</p>",
      "duration": "turno-start",
      "name": "Efecto: El aguijón de la pestaña"
    },
    "Effect: Stink Sap": {
      "description": "<p>Las criaturas y su equipo cubiertos por la cachiporra huelen fatal. Las criaturas en el aura deben intentar una salvación de @Check[type:fortitude|dc:16]. En caso de fallo, la criatura queda @UUID[Compendium.pf2e.conditionitems.fesd1n5eVhpCSS18]{Indispuesta 1}, y en caso de fallo crítico, la criatura queda también @UUID[Compendium.pf2e.conditionitems.dfCMdR4wnpbYNTix]{Aturdida 1}. Mientras esté dentro del aura, la criatura sufre un penalizador -2 por circunstancia a las salvaciones para recuperarse de la condición de indispuesto. Una criatura que tenga éxito en su salvación es inmune a la cachiporra apestosa durante 1 minuto. Las criaturas no se salvan contra este efecto en modo exploración y no se vuelven temporalmente inmunes, pero las criaturas con cachiporra apestosa sobre ellas deben tirar contra su propia aura cuando tiran iniciativa en modo encuentro. La cachiporra se disipa al cabo de 10 horas; dedicar 10 minutos a restregar la cachiporra con jabón y agua reduce la duración en 1 hora.</p>",
      "duration": "turno-start",
      "name": "Efecto: Hedor Cachiporra"
    },
    "Effect: Stoke the Fervent - High Tormentor": {
      "description": "<p>Cada aliado que oiga la llamada gana un +4 bonificador por estatus a las tiradas de ataque y de daño, un +2 bonificador por estatus a la tirada de salvacións, y recibe un -2 penalizador por estatus a la CA. Los aliados afectados deben usar al menos una de sus acciones para Golpear cada asalto, si son capaces aunque eso signifique atacar a un aliado, objeto o aire delgado).</p>\n<p>La duración del efecto se ha ajustado a la duración normal para [[/br 2d4 #rounds]]{2d4 asaltos}. Ajusta la duración al valor correcto cuando se añada el efecto.</p>",
      "duration": "turno-start",
      "name": "Efecto: Stoke el Fervoroso - Alto Atormentador"
    },
    "Effect: Susceptible to Mockery (Critical Failure)": {
      "description": "<p>La criatura gana un +1 bonificador por estatus a las tiradas de Golpes y daño contra enemigos.</p>",
      "duration": "turno-start",
      "name": "Efecto: Susceptible a la burla (Fallo Crítico)"
    },
    "Effect: Swell": {
      "description": "<p>La criatura crece a tamaño Enorme, y su alcance aumenta a 15 pies. También gana 12 Puntos De Golpe temporales, resistencia 5 a contundente, y un +2 bonificador por estatus a las tiradas de daño.</p>",
      "duration": "turno-start",
      "name": "Efecto: Hinchazón"
    },
    "Effect: Swig": {
      "duration": "turno-end",
      "name": "Efecto: Trago"
    },
    "Effect: Sylvan Wine (Horned Hunter)": {
      "description": "<p>La criatura gana un +3 bonificador por objeto a las salvaciones de Voluntad.</p>",
      "duration": "turno-start",
      "name": "Efecto: Vino Silvano (Cazador de Cuernos)"
    },
    "Effect: Sylvan Wine": {
      "description": "<p>La criatura gana un +1 bonificador por objeto a las salvaciones de Voluntad y un +3 bonificador por objeto a las salvaciones de Voluntad contra efectos del miedo.</p>",
      "duration": "turno-start",
      "name": "Efecto: Vino Silvano"
    },
    "Effect: Tail Lash (Attack Roll)": {
      "description": "<p>La criatura recibe un penalizador de -2 por circunstancia a la tirada de ataque desencadenante.</p>",
      "duration": "turno-start",
      "name": "Efecto: Pestaña de Cola (Ataque Roll)"
    },
    "Effect: Tail Lash (Skill Check)": {
      "description": "<p>La criatura lleva un penalizador de -2 por circunstancia a la prueba de habilidad desencadenante.</p>",
      "duration": "turno-start",
      "name": "Efecto: Tail Lash (Prueba de Habilidad)"
    },
    "Effect: Take Them Down!": {
      "description": "<p>La criatura gana un +1 bonificador por estatus a las tiradas de ataque y daño.</p>",
      "duration": "turno-end",
      "name": "Efecto: ¡Derríbenlos!"
    },
    "Effect: Technology Control": {
      "description": "<p>El objetivo recibe un penalizador -2 por circunstancia a sus tiradas de ataque y CD contra una criatura a la que normalmente no atacaría.</p>\n<hr />\n<p><em>Nota: Este efecto aplica un penalizador a todas las tiradas y CDs mientras está activo.</em></p>",
      "duration": "turno-start",
      "name": "Efecto: Control Tecnológico"
    },
    "Effect: Timely Advice": {
      "description": "<p>El sabio da un sabio consejo al aliado, proporcionándole una valiosa visión. El aliado obtiene un +2 bonificador por circunstancia a la tirada desencadenante.</p>",
      "duration": "turno-start",
      "name": "Efecto: Consejos oportunos"
    },
    "Effect: Totems of the Past": {
      "description": "<p>Cualquier hombre lagarto aliado en el área es inspirado, ganando un +1 bonificador por estatus a las tiradas de ataque.</p>",
      "duration": "turno-start",
      "name": "Efecto: Tótems del pasado"
    },
    "Effect: Towering Stance (Disbelieved)": {
      "description": "<p>La criatura se convierte en Mediano.</p>",
      "duration": "turno-start",
      "name": "Efecto: Destacado Posición (Disbelieved)"
    },
    "Effect: Transfer Protection": {
      "description": "<p>La criatura gana un +1 bonificador por estatus a la CA y a las salvaciones contra criaturas malignas.</p>",
      "duration": "turno-start",
      "name": "Efecto: Transferencia Protección"
    },
    "Effect: Uncanny Tinker": {
      "description": "<p>La criatura gana un +1 bonificador por circunstancia a las tiradas de ataque.</p>",
      "duration": "turno-start",
      "name": "Efecto: Uncanny Experimentador"
    },
    "Effect: Undead Mastery": {
      "description": "<p>La criatura gana un +1 bonificador por circunstancia a las tiradas de ataque, tiradas de daño, CA, salvaciones y pruebas de habilidad.</p>",
      "duration": "turno-start",
      "name": "Efecto: Maestría Muerto Viviente"
    },
    "Effect: Under Command": {
      "description": "<p>Al mando de un capitán de la guardia.</p>",
      "duration": "turno-start",
      "name": "Efecto: Bajo Mando"
    },
    "Effect: Unluck Aura": {
      "description": "<p>La criatura debe tirar dos veces y tomar el peor resultado en todas las pruebas.</p>",
      "duration": "turno-start",
      "name": "Efecto: Aura de mala suerte"
    },
    "Effect: Unsettled Aura": {
      "description": "<p>Los gosregs proyectan un campo de energía discordante que perturba las mentes de las criaturas pensantes. Cualquier no criatura descerebrada a menos de 30 pies de un gosreg sufre un penalizador de -1 por estatus a las salvaciones de Voluntad.</p>",
      "duration": "turno-start",
      "name": "Efecto: Aura inquieta"
    },
    "Effect: Unsettling Attention": {
      "description": "<p><strong>Fallo</strong> La criatura se inquieta y sufre un penalizador -2 a todas las salvaciones contra efectos del miedo mientras permanezcan dentro del embrujo que contiene a Candlemere.</p>",
      "duration": "turno-start",
      "name": "Efecto: Atención Inquietante"
    },
    "Effect: Utter Despair": {
      "description": "<p>Las criaturas vivas están asustadas 2 mientras están en un aura de desesperación total. No pueden recuperarse naturalmente de este miedo mientras están en el área, pero pierden la condición de asustado inmediatamente después de salir del área.</p>",
      "duration": "turno-start",
      "name": "Efecto: Desesperación absoluta"
    },
    "Effect: Vengeful Fibers": {
      "description": "<p>El objetivo lleva un penalizador de -10 pies por circunstancia a Velocidad</p>",
      "duration": "turno-start",
      "name": "Efecto: Fibras vengativas"
    },
    "Effect: Vent Energy": {
      "description": "<p>Las criaturas arma golpes infligen un daño extra de 2d6 por energía según el tipo de daño en la glándula de energía.</p>",
      "duration": "turno-start",
      "name": "Efecto: Vent Energía"
    },
    "Effect: Viscous Trap": {
      "description": "<p>La criatura recibe un penalizador de -15 pies por circunstancia a todos los Velocidades.</p>",
      "duration": "turno-start",
      "name": "Efecto: Trampa viscosa"
    },
    "Effect: Void Shroud": {
      "description": "<p>Las criaturas vivas en la emanación tienen un penalizador -2 por estatus a las salvaciones contra miedo y efectos de la muerte.</p>",
      "duration": "turno-start",
      "name": "Efecto: Sudario de Vacío"
    },
    "Effect: Volcanic Purge": {
      "description": "<p>El objetivo recibe daño por [[/r 4d6[persistent,fire]]], y mientras tenga este daño por fuego persistente, también recibe un penalizador por estatus de -10 pies a sus Velocidades.</p>",
      "duration": "turno-start",
      "name": "Efecto: Purga Volcánica"
    },
    "Effect: Vulnerable to Curved Space": {
      "description": "<p>Cuando un Perro de Tíndalos no está adyacente a un ángulo estructural de 90º (o más agudo), su resistencia al daño físico se suprime y se convierte en indispuesto 1.</p>",
      "duration": "turno-start",
      "name": "Efecto: Vulnerable al espacio curvo"
    },
    "Effect: War Leader": {
      "description": "<p>La criatura gana un +1 bonificador por estatus a las tiradas de ataque y pruebas de habilidad.</p>",
      "duration": "turno-start",
      "name": "Efecto: Líder de la Guerra"
    },
    "Effect: Warning Hoot": {
      "description": "<p>Los objetivos ganan un +1 bonificador por circunstancia a su tirada de iniciativa.</p>",
      "duration": "turno-start",
      "name": "Efecto: Advertencia Hoot"
    },
    "Effect: Waterlogged": {
      "description": "<p>Mientras están encharcados, los berberoka pueden utilizar Agua Pulverizada, su tamaño aumenta hasta Gargantuesco y su Velocidad se reduce a 15 pies.</p>",
      "duration": "turno-start",
      "name": "Efecto: Anegado"
    },
    "Effect: Whirlwind Form": {
      "description": "<p>La criatura gana resistencia 10 al daño físico.</p>",
      "duration": "turno-start",
      "name": "Efecto: Forma Torbellino"
    },
    "Effect: Wild Shape (Oaksteward)": {
      "description": "<p>Las manos de Oaksteward se transforman en garras salvajes.</p>",
      "duration": "turno-start",
      "name": "Efecto: Forma Salvaje (Oaksteward)"
    },
    "Effect: Witchflame (Critical Failure)": {
      "description": "<p>La criatura gana debilidad 10 a fuego.</p>",
      "duration": "turno-start",
      "name": "Efecto: Witchflame (Fallo Crítico)"
    },
    "Effect: Witchflame (Failure)": {
      "description": "<p>La criatura gana debilidad 5 a fuego.</p>",
      "duration": "turno-start",
      "name": "Efecto: Witchflame (Fallo)"
    },
    "Effect: Witchflame (Success)": {
      "description": "<p>La criatura gana debilidad 5 a fuego.</p>",
      "duration": "turno-start",
      "name": "Efecto: Witchflame (Éxito)"
    },
    "Effect: Wolf Shape": {
      "description": "<p>El barghest gana Velocidad 40 y sus mandíbulas ganan @UUID[Compendium.pf2e.bestiary-ability-glossary-srd.BCLvAx4Pz4MLa2pu]{Derribar}.</p>",
      "duration": "turno-start",
      "name": "Efecto: Forma de Lobo"
    },
    "Effect: Wrath of Fate": {
      "description": "<p>Una criatura afectada puede elegir tirar dos veces cuando intente un ataque, tirada de salvación o prueba de habilidad y tomar el resultado más bajo. Después de esto el efecto termina.</p>",
      "duration": "turno-start",
      "name": "Efecto: Ira de Destino"
    },
    "Effect: Wrath of Spurned Hospitality": {
      "description": "<p>El nyktera gana un +2 bonificador por estatus a las tiradas de ataque y daño de sus Golpes de puño.</p>",
      "duration": "turno-start",
      "name": "Efecto: Ira de la Hospitalidad Despreciada"
    },
    "Effect: Xulgath Stench": {
      "description": "<p>La criatura recibe un penalizador de -5 pies por estatus a sus Velocidades.</p>",
      "duration": "turno-start",
      "name": "Efecto: Xulgath Hedor"
    }
  }
}
