{
  "label": "Problemas en Otari",
  "mapping": {
    "name": "name",
    "description": "system.description.value",
    "disable": "system.details.disable",
    "detailsDescription": "system.details.description",
    "reset": "system.details.reset",
    "stealth": "system.attributes.stealth.details",
    "range": "system.range.value",
    "target": "system.target.value",
    "time": "system.time.value",
    "duration": "system.duration.value",
    "usage": "system.usage.value",
    "publicNotes": "system.details.publicNotes",
    "routine": "system.details.routine",
    "languagesCustom": "system.traits.languages.custom",
    "HPDetails": "system.attributes.hp.details"
  },
  "entries": {
    "Brimstone Rat": {
      "name": "Rata de azufre",
      "items": {
        "Jaws": {
          "name": "Fauces"
        },
        "Low-Light Vision": {
          "description": "<p>@Localize[PF2E.NPC.Abilities.Glossary.LowLightVision]</p>",
          "name": "Visión En La Penumbra"
        },
        "Acrobatics": {
          "name": "Acrobacias"
        },
        "Athletics": {
          "name": "Atletismo"
        },
        "Stealth": {
          "name": "Sigilo"
        }
      }
    },
    "Bugbear Marauder": {
      "name": "Merodeador Bugbear",
      "items": {
        "Longsword": {
          "name": "Espada Larga"
        },
        "Javelin": {
          "name": "Jabalina"
        },
        "Leather Armor": {
          "description": "<p>Mezcla de cuero cocido flexible y moldeado, un traje de este tipo de armadura proporciona cierta protección con la máxima flexibilidad.</p>",
          "name": "Armadura de Cuero"
        },
        "Fist": {
          "name": "Puño"
        },
        "Darkvision": {
          "description": "<p>@Localize[PF2E.NPC.Abilities.Glossary.Darkvision]</p>",
          "name": "Visión en la Oscuridad"
        },
        "Bushwhack": {
          "description": "<p>El merodeador bugbear Zancadas hasta 10 pies e intenta @UUID[Compendium.pf2e.actionspf2e.PMbdMWc2QroouFGD]{Presa} una criatura que no puede verlos y no sabe dónde están. Si el bugbear tiene éxito, también infligen daño de puño a esa criatura.</p>",
          "name": "Bushwhack"
        },
        "Mauler": {
          "description": "<p>El merodeador bugbear gana un +3 bonificador por circunstancia a las tiradas de daño contra criaturas que tengan @UUID[Compendium.pf2e.conditionitems.kWc1fhmv9LBiTuei]{Agarrado}.</p>",
          "name": "Peleador"
        },
        "Acrobatics": {
          "name": "Acrobacias"
        },
        "Athletics": {
          "name": "Atletismo"
        },
        "Intimidation": {
          "name": "Intimidación"
        },
        "Stealth": {
          "name": "Sigilo"
        }
      }
    },
    "Collapsing Porch": {
      "disable": "<p>@Check[type:crafting|dc:15] (trained) para sustituir o cubrir las secciones débiles del suelo, o @Check[type:survival|dc:15] (entrenado) para desmenuzar los tablones podridos desde una distancia segura</p>",
      "detailsDescription": "<p>Una sección de tablones astillados y podridos deja caer una criatura de 6 pies sobre rocas desiguales y fragmentos de madera perforantes.</p>",
      "name": "Porche que se derrumba",
      "reset": "<p>Una vez que esta sección del porche se ha derrumbado, las criaturas pueden seguir cayendo por el agujero hasta que se repare el porche.</p>",
      "stealth": "<p>(o 0 tras activarse el peligro)</p>",
      "items": {
        "Collapse": {
          "description": "<p>Si una criatura camina por la zona marcada en el mapa, se cae por las tablas del suelo debilitadas sobre rocas desiguales y fragmentos de madera afilados, sufriendo daño de [[/r 1d4[piercing]]] y daño de [[/r 1d6[bludgeoning]]]. La criatura puede usar la reacción @UUID[Compendium.pf2e.actionspf2e.3yoajuKjwHZ9ApUY]{Agarrarse A Un Saliente} para evitar la caída y el daño.</p>",
          "name": "Colapso"
        }
      }
    },
    "Hargrit Leadbuster": {
      "name": "Hargrit Leadbuster",
      "items": {
        "Divine Prepared Spells": {
          "name": "Conjuros Divinos Preparados"
        },
        "Dispel Magic": {
          "description": "<p>Desentraña la magia que hay detrás de un conjuro o efecto. Intenta una prueba para contrarrestar contra el objetivo. Si consigues contrarrestar un objeto mágico, éste se convierte en un objeto mundano de su tipo durante 10 minutos. Esto no cambia las propiedades no mágicas del objeto. Si el objetivo es un artefacto o similar, fallas automáticamente.</p>",
          "range": "120 pies",
          "target": "1 efecto de conjuro u objeto mágico desatendido",
          "time": "2",
          "name": "Disipar Magia"
        },
        "Resist Energy": {
          "description": "<p>Un escudo de energía elemental protege a una criatura contra un tipo de daño por energía. Elige ácido, frío, electricidad, fuego o daño sónico. El objetivo y su equipo ganan resistencia 5 contra el tipo de daño que hayas elegido.</p>\n<p>@UUID[Compendium.pf2e.spell-effects.con2Hzt47JjpuUej]{Efecto de Conjuro: Resistir Energía}</p>\n<hr />\n<p><strong>Aumentada (4º)</strong> La resistencia aumenta a 10, y puedes objetivar hasta dos criaturas.</p>\n<p><strong>Aumentada (7º)</strong> La resistencia aumenta a 15, y puedes objetivar hasta cinco criaturas.</p>",
          "duration": "10 minutos",
          "range": "toque",
          "target": "1 Criatura",
          "time": "2",
          "name": "Resistir a la energía"
        },
        "See Invisibility": {
          "description": "<p>Puedes ver criaturas y objetos @UUID[Compendium.pf2e.conditionitems.zJxUflt9np0q4yML]{Invisibles}. Se te aparecen como formas translúcidas, y son @UUID[Compendium.pf2e.conditionitems.DmAIPqOBomZ7H95W]{Oculto} para ti.</p>\n<hr />\n<p><strong>Potenciado (5º)</strong> El conjuro tiene una duración de 8 horas.</p>",
          "duration": "10 minutos",
          "time": "2",
          "name": "Ver Lo Invisible"
        },
        "Burning Hands": {
          "description": "<p>De tus manos brotan llamaradas. Infliges 2d6 daño por fuego a las criaturas de la zona.</p>\n<hr />\n<p><strong>Aumentado (+1)</strong> El daño aumenta en 2d6.</p>",
          "time": "2",
          "name": "Manos Ardientes"
        },
        "Command": {
          "description": "<p>Alarido un comando que es difícil de ignorar. Puedes ordenar al objetivo que se acerque a ti, que huya (como si tuviera la condición @UUID[Compendium.pf2e.conditionitems.sDPxOjQ9kx2RZE8D]{Huyendo} ), que suelte lo que tiene en la mano, que suelte @UUID[Compendium.pf2e.conditionitems.j91X7x0XSomq8d60]{Tumbado}, o que se ponga de pie en su sitio. No puede Retrasar ni tomar ninguna reacción hasta que haya obedecido tu orden. Los efectos dependen de la salvación de Voluntad del objetivo.</p>\n<hr><strong>Éxito</strong> La criatura no se ve afectada.<p><strong>Fallo</strong> En las primeras acciones de su siguiente turno, la criatura debe usar una acción individual para hacer lo que le ordenas.</p>\n<p>Fallo<strong>Crítico</strong> El objetivo debe utilizar todas sus acciones en su siguiente turno para obedecer tus órdenes.</p>\n<hr><strong>Aumentado (5º</strong> ) Puedes objetivo hasta 10 criaturas.",
          "duration": "hasta el final del siguiente turno del objetivo",
          "range": "30 pies",
          "target": "1 Criatura",
          "time": "2",
          "name": "Comando"
        },
        "Daze": {
          "description": "<p>Nublas la mente del objetivo y lo atontas con una sacudida mental. La sacudida inflige un daño mental igual a tu modificador de la característica de lanzamiento de conjuros; el objetivo debe intentar una salvación básica de Voluntad. Si el objetivo falla críticamente la salvación, también queda @UUID[Compendium.pf2e.conditionitems.dfCMdR4wnpbYNTix]{Aturdido 1}.</p>\n<hr />\n<p><strong>Aumentado (+2)</strong> El daño aumenta en 1d6.</p>",
          "duration": "1 Asalto",
          "range": "60 pies",
          "target": "1 Criatura",
          "time": "2",
          "name": "Atontar"
        },
        "Fear": {
          "description": "<p>Plantas miedo en el objetivo; debe intentar una salvación de Voluntad.</p>\n<hr />\n<p><strong>Éxito Crítico</strong> El objetivo no se ve afectado.</p>\n<p><strong>Éxito</strong> El objetivo es @UUID[Compendium.pf2e.conditionitems.TBSHQspnbcqxsmjL]{Asustado 1}.</p>\n<p><strong>Fallo</strong> El objetivo es @UUID[Compendium.pf2e.conditionitems.TBSHQspnbcqxsmjL]{Asustado 2}.</p>\n<p><strong>Fallo Crítico</strong> El objetivo es @UUID[Compendium.pf2e.conditionitems.TBSHQspnbcqxsmjL]{Asustado 3} y @UUID[Compendium.pf2e.conditionitems.sDPxOjQ9kx2RZE8D]{Huyendo} por 1 asalto.</p>\n<hr />\n<p><strong>Acentuado (3º)</strong> Puedes objetivar hasta cinco criaturas.</p>",
          "duration": "varía",
          "range": "30 pies",
          "target": "1 Criatura",
          "time": "2",
          "name": "Miedo"
        },
        "Heal": {
          "description": "<p>Canalizas energía positiva para sanar al vivo o dañar al muerto viviente. Si el objetivo es una criatura viva dispuesta, restauras 1d8 Puntos De Golpe. Si el objetivo es un muerto viviente, le infliges esa cantidad de daño positivo y consigue una salvación básica de Fortaleza. El número de acciones que gastas al lanzar este Conjuro determina sus objetivos, rango, área y otros parámetros.</p>\n<p><span class=\"pf2-icon\">1</span> <strong>(somático)</strong> El conjuro tiene un rango de toque.</p>\n<p><span class=\"pf2-icon\">2</span> <strong>(verbal, somático</strong> ) El conjuro tiene un rango de 30 pies. Si estás curando una criatura viviente, aumenta los Puntos De Golpe restaurados en 8</p>\n<p><span class=\"pf2-icon\">3</span> <strong>(material, somático, verbal)</strong> Dispersas energía positiva en una emanación de 30 pies. Esto objetiva todo viviente y criaturas muerto viviente en la explosión.</p>\n<hr />\n<p><strong>Aumentado (+1)</strong> La cantidad de curación o daño aumenta en 1d8, y la curación extra para la versión de 2-acciones aumenta en 8.</p>",
          "range": "varía",
          "target": "1 criatura viva dispuesta o 1 muerto viviente",
          "time": "1 a 3",
          "name": "Sanar"
        },
        "Light": {
          "description": "<p>El objeto brilla, lanzando luz brillante en un radio de 20 pies (y luz tenue durante los siguientes 20 pies) como una antorcha. Si vuelves a lanzar este conjuro sobre un segundo objeto, el conjuro de luz sobre el primer objeto termina.</p>\n<p>@UUID[Compendium.pf2e.spell-effects.cVVZXNbV0nElVOPZ]{Efecto de Conjuro: Luz}</p>\n<hr />\n<p><strong>Potenciado (4º)</strong> El objeto emite luz brillante en un radio de 60 pies (y luz tenue en los siguientes 60 pies).</p>",
          "duration": "hasta la próxima vez que haga sus preparativos diarios",
          "range": "toque",
          "target": "1 objeto de 1 impedimenta o menos, ya sea desatendido o poseído por usted o un aliado voluntario",
          "time": "2",
          "name": "Ligero"
        },
        "Message": {
          "description": "<p>Usted pronuncia las palabras en voz baja, pero en lugar de salir de su boca, se transmiten directamente a los oídos del objetivo. Mientras que los demás no pueden oír tus palabras mejor que si las pronunciaras normalmente, el objetivo puede oírlas como si estuviera a tu lado.</p>\n<p>El objetivo puede dar una breve respuesta como reacción, o como acción gratuita en su próximo turno si lo desea, pero debe poder verte y estar dentro de su alcance para hacerlo. Si responden, su respuesta llega directamente a tus oídos, igual que el mensaje original.</p>\n<hr />\n<p><strong>Aumentado (3º)</strong> El rango del conjuro aumenta a 500 pies.</p>",
          "duration": "véase más abajo",
          "range": "120 pies",
          "target": "1 Criatura",
          "time": "1",
          "name": "Mensaje"
        },
        "Sigil": {
          "description": "<p>Coloca tu sello mágico único, que tiene un tamaño aproximado de 2,5 cm cuadrados, en la criatura u objeto objetivo. La marca puede ser visible o invisible, y puedes cambiarla de un estado a otro utilizando una Acción de interacción para tocar el objetivo. La marca puede borrarse o rasparse con 5 minutos de trabajo. Si está en una criatura, se desvanece de forma natural en el transcurso de una semana. El tiempo antes de que la marca se desvanezca aumenta dependiendo de tu nivel de intensidad.</p>\n<hr />\n<p><strong>Acentuado (3º)</strong> El sello en cambio se desvanece al cabo de 1 mes.</p>\n<p><strong>Acentuado (5º)</strong> El sello en cambio se desvanece al cabo de 1 año.</p>\n<p><strong>Realzado (7º)</strong> El sello nunca se desvanece.</p>",
          "duration": "Ilimitada",
          "range": "toque",
          "target": "1 criatura u objeto",
          "time": "2",
          "name": "Sello"
        },
        "Dagger": {
          "name": "Daga"
        },
        "Half Plate": {
          "description": "<p>Placas y Mallas consiste en la mayoría de las placas de la parte superior del cuerpo utilizados en la armadura completa, con más ligero o más escasa protección de placas de acero para los brazos y las piernas. Esto proporciona parte de la protección de la armadura completa con mayor flexibilidad y velocidad. Un traje de esta armadura viene con una capa interior de ropa acolchada y un par de guanteletes.</p>",
          "name": "Placas y Mallas"
        },
        "Religious Symbol of Asmodeus (Wooden)": {
          "description": "<p>Esta pieza de madera o plata lleva blasonada una imagen que representa a un dios. Algunos lanzadores de conjuros divinos, como los clérigos, pueden usar un símbolo religioso de su dios como foco divino para usar ciertas habilidades y lanzar algunos conjuros. Un símbolo religioso debe sostenerse en una mano para usarlo.</p>",
          "usage": "en la mano",
          "name": "Símbolo Religioso de Asmodeo (Madera)"
        },
        "Area Map": {
          "description": "<p>Este mapa muestra el castillo de Maunder, el campamento maderero, los movimientos de los madereros y los planes de ataque.</p>\n<hr />\n<p>Los mapas son poco comunes. La mayoría de los mapas que se pueden encontrar son sencillos y funcionales. Un mapa topográfico detalla una única ubicación con todo lujo de detalles.</p>\n<p>Uno de estos mapas te da un +1 bonificador por objeto a Pruebas de Supervivencia y cualquier prueba de habilidad a Recordar Conocimiento, siempre que las pruebas estén relacionadas con el lugar detallado en el mapa.</p>",
          "usage": "en la mano",
          "name": "Mapa del área"
        },
        "Scroll of Magic Weapon (Level 1)": {
          "description": "<p><em>@UUID[Compendium.pf2e.spells-srd.TFitdEOpQC4SzKQQ]</em></p><hr /><p>Lanzar un Conjuro desde un pergamino requiere sostener el pergamino en una mano y activarlo con un Lanzar una Actividad de Conjuración usando el número normal de acciones para ese conjuro.</p>\n<p>Para lanzar un conjuro desde un pergamino, el conjuro debe aparecer en tu lista de conjuros. Como eres tú quien lanza el conjuro, utiliza tu tirada de ataque de conjuro y cd de conjuro. El conjuro también gana el rasgo apropiado para tu tradición (arcano, divino, ocultista o primigenio).</p>\n<p>Cualquier componente material físico y los costes se proporcionan cuando se crea un pergamino, por lo que no necesitas proporcionarlos cuando lanzas un Conjuro desde un pergamino. Debes reemplazar cualquier componente material requerido para ese conjuro por un componente somático. Si el conjuro requiere un foco, debes tener ese foco para lanzar el conjuro desde un pergamino.</p>\n<hr />\n<p><em>Nota: Para crear un pergamino o varita de un conjuro específico, arrastra el conjuro desde el compendio o navegador de compendios al inventario de un PC, PNJ o actor de botín.</em></p>",
          "name": "Pergamino de Arma Mágica (Nivel 1)"
        },
        "Darkvision": {
          "description": "<p>@Localize[PF2E.NPC.Abilities.Glossary.Darkvision]</p>",
          "name": "Visión en la Oscuridad"
        },
        "Unburdened Iron": {
          "description": "<p>Hargrit ignora la reducción a su Velocidad por armadura y deduce 5 pies de cualquier penalizador a su Velocidad (como por ejemplo de un conjuro)</p>",
          "name": "Hierro sin carga"
        },
        "Athletics": {
          "name": "Atletismo"
        },
        "Diplomacy": {
          "name": "Diplomacia"
        },
        "Fiend Lore": {
          "name": "Saber infernal"
        },
        "Intimidation": {
          "name": "Intimidación"
        },
        "Religion": {
          "name": "Religión"
        }
      }
    },
    "Kobold Trapmaster": {
      "publicNotes": "<p>Los maestros tramperos kóbold son los delincuentes cerebrales que elaboran y ponen en práctica astutas trampas en las guaridas kóbold, y son muy respetados entre los de su especie.</p>",
      "name": "Kóbold maestro de trampas",
      "items": {
        "Shortsword": {
          "name": "Espada Corta"
        },
        "Spear": {
          "name": "Lanza"
        },
        "Leather Armor": {
          "description": "<p>Mezcla de cuero cocido flexible y moldeado, un traje de este tipo de armadura proporciona cierta protección con la máxima flexibilidad.</p>",
          "name": "Armadura de Cuero"
        },
        "Spike Trap": {
          "description": "<p>Una vez desplegada esta trampa, cualquiera que pase por la casilla en la que se encuentra recibe una [[/r 2d8[piercing]]] de daño y debe intentar una @Check[type:reflex|dc:17|basic:true] tirada de salvación.</p>",
          "name": "Trampa de pinchos"
        },
        "Darkvision": {
          "description": "<p>@Localize[PF2E.NPC.Abilities.Glossary.Darkvision]</p>",
          "name": "Visión en la Oscuridad"
        },
        "Hurried Retreat": {
          "description": "<p>Si el kóbold está adyacente a al menos un enemigo, el kóbold Zancadas hasta 30 pies y gana un bonificador +2 por circunstancia a la CA contra reacciones desencadenadas por este movimiento. Deben terminar este movimiento en un espacio que no esté adyacente a ningún enemigo.</p>",
          "name": "Retirada apresurada"
        },
        "Quick Trap": {
          "description": "<p>El kóbold trapmaster despliega una trampa de pinchos en una casilla adyacente.</p>",
          "name": "Trampa rápida"
        },
        "Sneak Attack": {
          "description": "<p>El kóbold trapmaster inflige 1d6 de daño adicional a las criaturas que tienen la condición de desprevenido.</p>\n<hr />\n<p>@Localize[PF2E.NPC.Abilities.Glossary.SneakAttack]</p>",
          "name": "Ataque Furtivo"
        },
        "Acrobatics": {
          "name": "Acrobacias"
        },
        "Crafting": {
          "name": "Elaboración"
        },
        "Stealth": {
          "name": "Sigilo"
        }
      }
    },
    "Kotgar Leadbuster": {
      "name": "Rompedor de plomo Kotgar",
      "items": {
        "Maul": {
          "name": "Mazo"
        },
        "Javelin": {
          "name": "Jabalina"
        },
        "Half Plate": {
          "description": "<p>Placas y Mallas consiste en la mayoría de las placas de la parte superior del cuerpo utilizados en la armadura completa, con más ligero o más escasa protección de placas de acero para los brazos y las piernas. Esto proporciona parte de la protección de la armadura completa con mayor flexibilidad y velocidad. Un traje de esta armadura viene con una capa interior de ropa acolchada y un par de guanteletes.</p>",
          "name": "Placas y Mallas"
        },
        "Darkvision": {
          "description": "<p>@Localize[PF2E.NPC.Abilities.Glossary.Darkvision]</p>",
          "name": "Visión en la Oscuridad"
        },
        "Attack of Opportunity": {
          "description": "<p>@Localize[PF2E.NPC.Abilities.Glossary.AttackOfOpportunity]</p>",
          "name": "Ataque de oportunidad"
        },
        "Brutish Shove": {
          "description": "<p>Si Kotgar ya ha atacado este turno y empuña un arma cuerpo a cuerpo a dos manos, puede efectuar un Golpe con su arma cuerpo a cuerpo a dos manos. Si golpea a un objetivo que sea Mediano o menor, puede empujarlo hacia atrás 5 pies, o 10 pies si su Golpe fue un impacto crítico. Kotgar puede moverse para seguir al objetivo. Tanto si acierta como si falla, el objetivo queda @UUID[Compendium.pf2e.conditionitems.AJh5ex99aV6VTggg]{Desprevenido} hasta el final de su turno actual a menos que falle críticamente.</p>",
          "name": "Empujar brutal"
        },
        "Powerful Shove": {
          "description": "<p>Cuando una criatura Kotgar Empujars tiene que detener el movimiento porque chocaría contra un objeto, hace daño al [[/r 4[bludgeoning]]].</p>",
          "name": "Empujar con fuerza"
        },
        "Unburdened Iron": {
          "description": "<p>Kotgar ignora la reducción a su Velocidad por armadura y deduce 5 pies de cualquier penalizador a su Velocidad (como por ejemplo de un conjuro).</p>",
          "name": "Hierro sin carga"
        },
        "Athletics": {
          "name": "Atletismo"
        },
        "Crafting": {
          "name": "Elaboración"
        },
        "Deception": {
          "name": "Engaño"
        },
        "Intimidation": {
          "name": "Intimidación"
        },
        "Society": {
          "name": "Sociedad"
        },
        "Survival": {
          "name": "Supervivencia"
        }
      }
    },
    "Kurnugian Jackal": {
      "publicNotes": "<p>Bajo conjunciones planares específicas, Lamashtu otorga un don sacrílega a un chacal en el Plano Material. Cuando ese chacal tiene una camada, nace una ratonera con un tercer ojo en el centro de la frente. Si la ratonera sobrevive hasta la madurez, este chacal adquiere habilidades superiores de inteligencia y psíquicas, convirtiéndose en un chacal kurnugiano hecho y derecho, llamado así por el reino de Habilidad de la Madre de los Monstruos. Con el aumento de la inteligencia viene el apetito por sembrar el caos en nombre de Lamashtu. Cuando un chacal kurnugiano alcanza la cima de su poder, parece el doble de grande que un chacal normal y mucho más astuto.</p>\n<p>Un chacal kurnugiano disfruta acechando las afueras de los asentamientos, en busca de individuos solitarios a los que poder tender una emboscada. Una vez que localiza a su presa, abre su tercer ojo para hipnotizar y atraer a su objetivo. A menudo, un chacal kurnugiano conduce a sus víctimas a la naturaleza y luego las suelta, dejándolas perdidas sin recordar cómo han llegado hasta allí. La mayoría sucumbe a la exposición o a los peligros de la fauna local, mientras el chacal observa con regocijo. Parecen obtener sustento de la situación de sus víctimas, pero también se dan un festín con la carne de las víctimas fallecidas. Si su presa se pone a salvo, el chacal kurnugiano repite el proceso las noches siguientes.</p>\n<p>Algunos chacales kurnugianos son adoptados como objeto de culto por cultos lamashtunes, y otros reúnen seguidores por sí solos. Su parecido con el símbolo religioso de Lamashtu les confiere una gran reverencia, y a veces afirman hablar directamente en nombre de la Madre de los Monstruos. Un culto con un chacal kurnugiano suele actuar con más audacia que uno sin él.</p>",
      "name": "Chacal de Kurnugia",
      "items": {
        "Divine Innate Spells": {
          "name": "Conjuros Divinos Innatos"
        },
        "Paralyze": {
          "description": "<p>Bloqueas los impulsos motores del objetivo antes de que salgan de su mente, amenazando con congelarlo. El objetivo debe intentar una salvación de Voluntad.</p>\n<hr />\n<p><strong>Éxito Crítico</strong> El objetivo no se ve afectado.</p>\n<p><strong>Éxito</strong> El objetivo es @UUID[Compendium.pf2e.conditionitems.dfCMdR4wnpbYNTix]{Aturdido 1}.</p>\n<p><strong>Fallo</strong> El objetivo es @UUID[Compendium.pf2e.conditionitems.6uEgoh53GbXuHpTF]{Paralizado} por 1 asalto.</p>\n<p><strong>Fallo Cr</strong> ítico El objetivo queda Paralizado durante 4 asaltos. Al final de cada uno de sus turnos, puede intentar una nueva salvación de Voluntad para reducir la duración restante en 1 asalto, o terminarla por completo con un éxito crítico.</p>\n<hr />\n<p><strong>Aumentado (7º)</strong> Puedes objetivar hasta 10 criaturas.</p>",
          "duration": "varía",
          "range": "30 pies",
          "target": "1 Criatura",
          "time": "2",
          "name": "Paralizar"
        },
        "Hideous Laughter": {
          "description": "<p>Al objetivo le entra una risa incontrolable. Debe intentar una salvación de Voluntad.</p>\n<hr>Éxito<strong>Crítico</strong> El objetivo no se ve afectado.<p><strong>Éxito</strong> El objetivo es invadido por una risa incontrolable. No puede usar reacciones.</p>\n<p><strong>Fallo</strong> El objetivo está @UUID[Compendium.pf2e.conditionitems.xYTAsEpcJE1Ccni3]{Lentificado 1} y no puede usar reacciones.</p>\n<p>Fallo<strong>Crítico</strong> El objetivo cae @UUID[Compendium.pf2e.conditionitems.j91X7x0XSomq8d60]{Tumbado} y no puede usar acciones ni reacciones durante 1 asalto. Entonces sufre los efectos del fallo.</p>",
          "duration": "Kept",
          "range": "30 pies",
          "target": "1 criatura viva",
          "time": "2",
          "name": "Terribles Carcajadas"
        },
        "See Invisibility": {
          "description": "<p>Puedes ver criaturas y objetos @UUID[Compendium.pf2e.conditionitems.zJxUflt9np0q4yML]{Invisibles}. Se te aparecen como formas translúcidas, y son @UUID[Compendium.pf2e.conditionitems.DmAIPqOBomZ7H95W]{Oculto} para ti.</p>\n<hr />\n<p><strong>Potenciado (5º)</strong> El conjuro tiene una duración de 8 horas.</p>",
          "duration": "10 minutos",
          "time": "2",
          "name": "Ver Lo Invisible"
        },
        "Charm": {
          "description": "<p>Para el objetivo, tus palabras son miel y tu rostro parece bañado en una bruma de ensueño. Debe intentar una salvación de Voluntad, con un +4 bonificador por circunstancia si tú o tus aliados le habéis amenazado recientemente o habéis usado acción hostil contra él.</p>\n<p>Puedes Disipar el conjuro. Si utilizas acciones hostiles contra el objetivo, el conjuro termina. Cuando el conjuro termina, el objetivo no necesariamente se da cuenta de que fue encantado a menos que su amistad contigo o la acción que le convenciste a tomar choquen con sus expectativas, lo que significa que potencialmente podrías convencer al objetivo de seguir siendo tu amigo a través de medios mundanos.</p>\n<hr />\n<p><strong>Éxito Crítico</strong> El objetivo no se ve afectado y consciente de que intentaste hechizarlo.</p>\n<p><strong>Éxito</strong> El objetivo no se ve afectado pero piensa que tu conjuro era algo inofensivo en lugar de hechizar, a menos que identifique el conjuro.</p>\n<p><strong>Fallo</strong> La actitud del objetivo se convierte en @UUID[Compendium.pf2e.conditionitems.v66R7FdOf11l94im]{Amistoso} hacia ti. Si era Amistoso, se convierte en @UUID[Compendium.pf2e.conditionitems.v44P3WUcU1j0115l]{Solícito}. No puede usar acciones hostiles contra ti.</p>\n<p><strong>Fallo Crítico</strong> La actitud del objetivo se vuelve Solícito hacia ti, y no puede usar acción hostils contra ti.</p>\n<hr />\n<p><strong>Potenciado (4º)</strong> La duración dura hasta la próxima vez que realice sus preparativos diarios.</p>\n<p><strong>Intensificada (8º)</strong> La duración dura hasta la próxima vez que hagas tus preparativos diarios, y puedes objetivar hasta 10 criaturas.</p>",
          "duration": "1 hora",
          "range": "30 pies",
          "target": "1 Criatura",
          "time": "2",
          "name": "Hechizar"
        },
        "Grim Tendrils": {
          "description": "<p>Tirabuzones de oscuridad salen de tus dedos y corren por el aire. Infliges 2d4 de daño negativo y [[/r 1[bleed]]] daño a las criaturas vivas de la línea. Cada criatura viva de la línea debe intentar una salvación de Fortaleza.</p>\n<hr>Éxito<strong>Crítico</strong> La criatura no se ve afectada.<p><strong>Éxito</strong> La criatura sufre la mitad del daño negativo y ningún daño persistente por sangrado.</p>\n<p><strong>Fallo</strong> La criatura recibe el daño completo.</p>\n<p><strong>Fallo Cr</strong> ítico La criatura recibe el doble de daño negativo y el doble de daño persistente por sangrado.</p>\n<hr><strong>Aumentado (+1)</strong> El daño negativo aumenta en 2d4, y el daño persistente por sangrado aumenta en 1.",
          "time": "2",
          "name": "Zarcillos Macabros"
        },
        "Jaws": {
          "name": "Fauces"
        },
        "Low-Light Vision": {
          "description": "<p>@Localize[PF2E.NPC.Abilities.Glossary.LowLightVision]</p>",
          "name": "Visión En La Penumbra"
        },
        "Scent (Imprecise) 60 feet": {
          "description": "<p>@Localize[PF2E.NPC.Abilities.Glossary.Scent]</p>",
          "name": "Olfato (impreciso) 60 pies"
        },
        "Inflict Pain": {
          "description": "<p>Cuando un objetivo afectado por la habilidad Mirada hipnótica del chacal kurnugiano recibe daño, el chacal puede enfocar el poder de su tercer ojo para intensificar el dolor de este daño, aumentando el daño infligido en [[/r 1d6]]{1d6}.</p>",
          "name": "Infligir Dolor"
        },
        "Hypnotic Stare": {
          "description": "<p>El chacal kurnugiano abre su tercer ojo para mirar a un objetivo en un radio de 30 pies que pueda ver al chacal. Ese objetivo recibe un penalizador -2 a Tiradas de Salvación de Voluntad hasta el final del siguiente turno del chacal de Kurnugia. El chacal de Kurnug sólo puede mantener esta mirada contra un oponente a la vez; si el chacal la usa sobre un segundo objetivo, termina para el primer objetivo. El chacal puede disiparla como acción gratuita y usar su habilidad Quitar Memoria si así lo desea.</p>\n<p>@UUID[Compendium.pf2e.bestiary-effects.qFDiWpzk8cuwQGyH]{Efecto: Mirada Hipnótica}</p>",
          "name": "Mirada hipnótica"
        },
        "Remove Memory": {
          "description": "<p>El kurnugiano termina su habilidad Mirada hipnótica antes de tiempo, y justo antes de que esto ocurra, el objetivo debe tener éxito en una @Check[type:will|dc:24] tirada de salvación u olvidar cualquier actividad hostil que el chacal kurnugiano haya realizado contra él.</p>",
          "name": "Eliminar memoria"
        },
        "Knockdown": {
          "description": "<p>@Localize[PF2E.NPC.Abilities.Glossary.Knockdown]</p>",
          "name": "Derribar"
        },
        "Athletics": {
          "name": "Atletismo"
        },
        "Diplomacy": {
          "name": "Diplomacia"
        },
        "Intimidation": {
          "name": "Intimidación"
        },
        "Occultism": {
          "name": "Ocultismo"
        },
        "Religion": {
          "name": "Religión"
        },
        "Stealth": {
          "name": "Sigilo"
        }
      }
    },
    "Magic Starknives Trap": {
      "disable": "<p>@Check[type:thievery|dc:21|traits:action:disable-a-device] (experto) o <em>@UUID[Compendium.pf2e.spells-srd.9HpwDN4MYQJnW0LG]{Disipar Magia}</em> sobre cuatro de los seis pilares cualesquiera desactiva toda la trampa (la trampa es un conjuro de 2º nivel y la CD para disiparla es 21). Destruir cuatro de los seis pilares también desactiva la trampa.</p>",
      "detailsDescription": "<p>Los símbolos de Cuchillo Estrella de los seis pilares brillan y salen disparados por la habitación.</p>",
      "name": "Trampa Magia Starknives",
      "reset": "<p>La trampa se desactiva 1 asalto después de que no tiene criaturas objetivo y se restablece cada día al atardecer.</p>",
      "routine": "<p>(3 acciones) Por cada una de sus acciones en su turno, una talla en un pilar diferente brilla y hace un mágico cuchillo estrella Golpe a distancia contra una criatura aleatoria dentro del rango. Poder de Criaturas tienen cobertura de este Golpe, como de uno de los pilares de la sala.</p>",
      "stealth": "<p>detectar las energías mágicas que reverberan en los pilares</p>",
      "items": {
        "Starknife Attack": {
          "description": "<p>Si una criatura pasa por el par de pilares del medio, las dos puertas que dan a la salida de la habitación se cierran de golpe y se bloquean; mientras la trampa esté activa, las puertas deben ser melladas apertura con una prueba @Check[type:athletics|dc:23|name:Batter Open Door|traits:action:force-open] exitosa o daño suficiente (Dureza 12; PG 48 [UR 24]). Una de las tallas del cuchillo estrella brilla con luz, se desprende del pilar, y luego vuela hacia afuera, haciendo un mágico cuchillo estrella Golpe a Distancia contra una criatura aleatoria dentro del rango. La trampa tira entonces iniciativa con su Modificador al Sigilo de +12</p>",
          "name": "Cuchillo Estrella Ataque"
        },
        "Magical Starknife": {
          "name": "Mágico Cuchillo Estrella"
        }
      }
    },
    "Morgrym Leadbuster": {
      "name": "Morgrym Leadbuster",
      "items": {
        "Arcane Prepared Spells": {
          "name": "Conjuros Arcanos Preparados"
        },
        "Arcane Focus Spells": {
          "name": "Foco Arcano Conjuros"
        },
        "Acid Arrow": {
          "description": "<p>Conjuras una flecha de ácido que sigue corroyendo al objetivo tras impactar. Haz un ataque de conjuro contra el objetivo. Al impactar, infliges 3d8 de daño por ácido más la [[/r 1d6[persistent,acid]]]. En un impacto crítico, dobla el daño inicial, pero no el daño persistente.</p>\n<hr />\n<p><strong>Aumentado (+2)</strong> El Daño inicial aumenta en 2d8, y el @UUID[Compendium.pf2e.conditionitems.lDVqvLKA6eF3Df60]{Daño Persistente} aumenta en 1d6.</p>",
          "range": "120 pies",
          "target": "1 Criatura",
          "time": "2",
          "name": "Flecha Ácida"
        },
        "Obscuring Mist": {
          "description": "<p>Invocas una nube de niebla. Todas las criaturas dentro de la niebla se vuelven @UUID[Compendium.pf2e.conditionitems.DmAIPqOBomZ7H95W]{Oculto}, y todas las criaturas fuera de la niebla se vuelven Oculto a las criaturas dentro de ella. Puedes Disipar la nube.</p>",
          "duration": "1 minuto",
          "range": "120 pies",
          "time": "3",
          "name": "Niebla De Oscurecimiento"
        },
        "Resist Energy": {
          "description": "<p>Un escudo de energía elemental protege a una criatura contra un tipo de daño por energía. Elige ácido, frío, electricidad, fuego o daño sónico. El objetivo y su equipo ganan resistencia 5 contra el tipo de daño que hayas elegido.</p>\n<p>@UUID[Compendium.pf2e.spell-effects.con2Hzt47JjpuUej]{Efecto de Conjuro: Resistir Energía}</p>\n<hr />\n<p><strong>Aumentada (4º)</strong> La resistencia aumenta a 10, y puedes objetivar hasta dos criaturas.</p>\n<p><strong>Aumentada (7º)</strong> La resistencia aumenta a 15, y puedes objetivar hasta cinco criaturas.</p>",
          "duration": "10 minutos",
          "range": "toque",
          "target": "1 Criatura",
          "time": "2",
          "name": "Resistir a la energía"
        },
        "Command": {
          "description": "<p>Alarido un comando que es difícil de ignorar. Puedes ordenar al objetivo que se acerque a ti, que huya (como si tuviera la condición @UUID[Compendium.pf2e.conditionitems.sDPxOjQ9kx2RZE8D]{Huyendo} ), que suelte lo que tiene en la mano, que suelte @UUID[Compendium.pf2e.conditionitems.j91X7x0XSomq8d60]{Tumbado}, o que se ponga de pie en su sitio. No puede Retrasar ni tomar ninguna reacción hasta que haya obedecido tu orden. Los efectos dependen de la salvación de Voluntad del objetivo.</p>\n<hr><strong>Éxito</strong> La criatura no se ve afectada.<p><strong>Fallo</strong> En las primeras acciones de su siguiente turno, la criatura debe usar una acción individual para hacer lo que le ordenas.</p>\n<p>Fallo<strong>Crítico</strong> El objetivo debe utilizar todas sus acciones en su siguiente turno para obedecer tus órdenes.</p>\n<hr><strong>Aumentado (5º</strong> ) Puedes objetivo hasta 10 criaturas.",
          "duration": "hasta el final del siguiente turno del objetivo",
          "range": "30 pies",
          "target": "1 Criatura",
          "time": "2",
          "name": "Comando"
        },
        "Daze": {
          "description": "<p>Nublas la mente del objetivo y lo atontas con una sacudida mental. La sacudida inflige un daño mental igual a tu modificador de la característica de lanzamiento de conjuros; el objetivo debe intentar una salvación básica de Voluntad. Si el objetivo falla críticamente la salvación, también queda @UUID[Compendium.pf2e.conditionitems.dfCMdR4wnpbYNTix]{Aturdido 1}.</p>\n<hr />\n<p><strong>Aumentado (+2)</strong> El daño aumenta en 1d6.</p>",
          "duration": "1 Asalto",
          "range": "60 pies",
          "target": "1 Criatura",
          "time": "2",
          "name": "Atontar"
        },
        "Detect Magic": {
          "description": "<p>Envías un pulso que registra la presencia de magia. No recibes ninguna información más allá de la presencia o ausencia de magia. Puedes elegir ignorar la magia de la que eres plenamente consciente, como los objetos mágicos y los conjuros en curso tuyos y de tus aliados.</p>\n<p>Detectas magia de ilusión sólo si el efecto de esa magia tiene un nivel inferior al nivel de tu conjuro detectar magia. Sin embargo, los objetos que tienen un aura de ilusión pero no son engañosos en apariencia (como una poción de invisibilidad) suelen detectarse normalmente.</p>\n<hr />\n<p><strong>Aumentado (3º)</strong> Aprendes la escuela de magia para el efecto de mayor nivel dentro del rango que el conjuro detecte. Si varios efectos son igual de fuertes, el GM determina cuál aprendes.</p>\n<p><strong>Aumentado (4º)</strong> Como el 3º nivel, pero también localizas la fuente de la magia de mayor nivel. Al igual que con un sentido impreciso, no se conoce la ubicación exacta, pero se puede reducir la fuente a un cubo de 5 pies (o el más cercano si es más grande).</p>",
          "time": "2",
          "name": "Detectar Magia"
        },
        "Fear": {
          "description": "<p>Plantas miedo en el objetivo; debe intentar una salvación de Voluntad.</p>\n<hr />\n<p><strong>Éxito Crítico</strong> El objetivo no se ve afectado.</p>\n<p><strong>Éxito</strong> El objetivo es @UUID[Compendium.pf2e.conditionitems.TBSHQspnbcqxsmjL]{Asustado 1}.</p>\n<p><strong>Fallo</strong> El objetivo es @UUID[Compendium.pf2e.conditionitems.TBSHQspnbcqxsmjL]{Asustado 2}.</p>\n<p><strong>Fallo Crítico</strong> El objetivo es @UUID[Compendium.pf2e.conditionitems.TBSHQspnbcqxsmjL]{Asustado 3} y @UUID[Compendium.pf2e.conditionitems.sDPxOjQ9kx2RZE8D]{Huyendo} por 1 asalto.</p>\n<hr />\n<p><strong>Acentuado (3º)</strong> Puedes objetivar hasta cinco criaturas.</p>",
          "duration": "varía",
          "range": "30 pies",
          "target": "1 Criatura",
          "time": "2",
          "name": "Miedo"
        },
        "Ghost Sound": {
          "description": "<p>Creas una ilusión auditiva de sonidos simples que tiene un volumen máximo igual al de cuatro humanos normales gritando. Los sonidos emanan de un cuadrado que designes dentro del rango. No puedes crear palabras inteligibles ni otros sonidos intrincados (como la música).</p>\n<hr />\n<p><strong>Aumentado (3º)</strong> El rango aumenta a 60 pies.</p>\n<p><strong>Elevado (5º)</strong> El rango aumenta a 120 pies.</p>",
          "duration": "Kept",
          "range": "30 pies",
          "time": "2",
          "name": "Sonido Fantasma"
        },
        "Gust of Wind": {
          "description": "<p>Un violento viento sale de la palma de la mano, soplando desde el punto en el que te encuentras cuando lanzas el conjuro hasta el extremo opuesto de la línea. El viento apaga los pequeños no-fuegos mágicos, dispersa la niebla y la bruma, sopla los objetos de impedimenta ligera o menor y empuja los objetos más grandes. Las criaturas grandes o pequeñas en el área deben intentar una salvación de Fortaleza. Las criaturas grandes o pequeñas que entren en la ráfaga deben intentar la salvación al entrar.</p>\n<hr />\n<p><strong>Éxito Crítico</strong> La criatura no se ve afectada.</p>\n<p><strong>Éxito</strong> La criatura no puede moverse contra el viento.</p>\n<p><strong>Fallo</strong> La criatura es noqueado @UUID[Compendium.pf2e.conditionitems.j91X7x0XSomq8d60]{Tumbado}. Si fuera voladora, sufre los efectos de fallo crítico en su lugar.</p>\n<p><strong>Fallo Crítico</strong> La criatura es empujada 30 pies en la dirección del viento, tumbado noqueado, y recibe 2d6 daño contundente.</p>",
          "duration": "hasta el comienzo de su próximo turno",
          "time": "2",
          "name": "Ráfaga De Viento"
        },
        "Mage Hand": {
          "description": "<p>Creas una única mano mágica, invisible o fantasmal, que agarra el objeto objetivo y lo mueve lentamente hasta 20 pies. Como levitas el objeto, puedes moverlo en cualquier dirección. Cuando sostienes el Conjuro, puedes mover el objeto 20 pies adicionales. Si el objeto está en el aire cuando el conjuro termina, el objeto cae.</p>\n<hr />\n<p><strong>Aumentado (3º)</strong> Puedes objetivo un objeto desatendido con una impedimenta de 1 o menos.</p>\n<p><strong>Aumentado (5º)</strong> El rango aumenta a 60 pies, y puedes objetivo un objeto desatendido con una impedimenta de 1 o menos.</p>\n<p><strong>Aumentado (7º)</strong> El rango aumenta a 60 pies, y puedes objetivo un objeto desatendido con una impedimenta de 2 o menos.</p>",
          "duration": "Kept",
          "range": "30 pies",
          "target": "1 objeto desatendido de impedimenta ligera o inferior",
          "time": "2",
          "name": "Mano Del Mago"
        },
        "Magic Missile": {
          "description": "<p>Envías un dardo de fuerza a toda velocidad hacia una criatura que puedes ver. impacta automáticamente e inflige 1d4+1 daño por fuego. Por cada acción adicional que utilices al lanzar el conjuro, aumenta en uno el número de misiles que disparas, hasta un máximo de tres misiles por 3 acciones. El objetivo de cada misil se elige individualmente. Si disparas más de un misil al mismo objetivo, combina el daño antes de aplicar bonificaciones o penalizaciones al daño, resistencias, debilidades, etc.</p>\n<hr />\n<p><strong>Aumentado (+2)</strong> Disparas un misil adicional con cada acción que gastas.</p>",
          "range": "120 pies",
          "target": "1 Criatura",
          "time": "1 a 3",
          "name": "Proyecto Mágico"
        },
        "Message": {
          "description": "<p>Usted pronuncia las palabras en voz baja, pero en lugar de salir de su boca, se transmiten directamente a los oídos del objetivo. Mientras que los demás no pueden oír tus palabras mejor que si las pronunciaras normalmente, el objetivo puede oírlas como si estuviera a tu lado.</p>\n<p>El objetivo puede dar una breve respuesta como reacción, o como acción gratuita en su próximo turno si lo desea, pero debe poder verte y estar dentro de su alcance para hacerlo. Si responden, su respuesta llega directamente a tus oídos, igual que el mensaje original.</p>\n<hr />\n<p><strong>Aumentado (3º)</strong> El rango del conjuro aumenta a 500 pies.</p>",
          "duration": "véase más abajo",
          "range": "120 pies",
          "target": "1 Criatura",
          "time": "1",
          "name": "Mensaje"
        },
        "Ray of Frost": {
          "description": "<p>Haces una tirada de ataque de conjuro. Haz una tirada de ataque de conjuro. El rayo inflige un daño por frío igual a 1d4 + tu modificador de la característica de lanzamiento de conjuros.</p>\n<hr />\n<p><strong>Éxito Crítico</strong> El objetivo sufre el doble de daño y recibe un penalizador por estatus de -10 pies a sus Velocidades durante 1 asalto.</p>\n<p>@UUID[Compendium.pf2e.spell-effects.I4PsUAaYSUJ8pwKC]{Efecto de Conjuro: Rayo De Escarcha}</p>\n<p><strong>Éxito</strong> El objetivo lleva daño normal.</p>\n<hr />\n<p><strong>Aumentado (+1)</strong> El daño aumenta en 1d4.</p>",
          "range": "120 pies",
          "target": "1 Criatura",
          "time": "2",
          "name": "Rayo De Escarcha"
        },
        "Shield": {
          "description": "<p>Levantas un escudo mágico de fuerza. Esto cuenta como usar las acciones de Alzar Un Escudo, dándote un bonificador +1 por circunstancia a la CA hasta el inicio de tu siguiente turno, pero no requiere una mano para usarlo.</p>\n<p>Mientras el conjuro está en efecto, puedes usar la reacción @UUID[Compendium.pf2e.feats-srd.jM72TjJ965jocBV8]{Bloqueo Con El Escudo} con tu magia escudo. El escudo tiene Dureza 5. Después de usar Bloqueo Con El Escudo, el conjuro termina y no puedes volver a lanzarlo durante 10 minutos. A diferencia de un Bloqueo Con El Escudo normal, puedes usar la reacción del conjuro contra el conjuro <em>@UUID[Compendium.pf2e.spells-srd.gKKqvLohtrSJj3BM]{Proyectil Mágico}</em>.</p>\n<p>Potenciar el conjuro aumenta la Dureza del escudo.</p>\n<p>@UUID[Compendium.pf2e.spell-effects.Jemq5UknGdMO7b73]{Efecto de Conjuro: Escudo}</p>\n<hr />\n<p><strong>Acentuado (3º)</strong> El escudo tiene Dureza 10.</p>\n<p><strong>Aumentado (5º)</strong> El escudo tiene Dureza 15.</p>\n<p><strong>Aumentado (7º)</strong> El escudo tiene Dureza 20.</p>\n<p><strong>Aumentado (9º)</strong> El escudo tiene Dureza 25.</p>",
          "duration": "hasta el comienzo de su próximo turno",
          "time": "1",
          "name": "Escudo"
        },
        "Staff": {
          "name": "Bastón"
        },
        "Spellbook (Advanced Arcanomnemonics)": {
          "description": "<p>Un libro de conjuros contiene el saber escrito necesario para aprender y preparar varios conjuros, una necesidad para los magos (que suelen obtener uno gratis) y un lujo útil para otros lanzadores de conjuros que buscan aprender conjuros adicionales. Cada libro de conjuros puede contener hasta 100 conjuros. El precio indicado es por un libro de conjuros en blanco.</p>",
          "usage": "en la mano",
          "name": "Libro De Conjuros (Arcanomnemotecnia Avanzada)"
        },
        "Material Component Pouch": {
          "description": "<p>Esta bolsa contiene componentes materiales para aquellos conjuros que los requieran. Aunque los componentes se agotan con el tiempo, puedes rellenar los componentes gastados durante tus preparativos diarios.</p>",
          "usage": "en la mano",
          "name": "Bolsa De Componentes Materiales"
        },
        "Wand of Fear (Level 1)": {
          "description": "<p><em>@UUID[Compendium.pf2e.spells-srd.4koZzrnMXhhosn0D]</em></p>\n<hr />\n<p>Este bastón mide unos treinta centímetros de largo y contiene un solo conjuro. Su aspecto suele estar relacionado con el conjuro que contiene.</p>\n<p><strong>Activar</strong> Lanzar un conjuro</p>\n<p><strong>Frecuencia</strong> una vez al día, más sobrecarga</p>\n<hr />\n<p><strong>Efecto</strong> Lanzas el Conjuro al nivel indicado.</p>\n<p><strong>Artesanía</strong> Requisitos Suministra una tirada de nivel de lista del conjuro.</p>",
          "name": "Varita de Miedo (Nivel 1)"
        },
        "Darkvision": {
          "description": "<p>@Localize[PF2E.NPC.Abilities.Glossary.Darkvision]</p>",
          "name": "Visión en la Oscuridad"
        },
        "Necromantic Defense": {
          "description": "<p>Si Morgrym es objetivo de un ataque y una criatura muerto viviente de nivel inferior está junto a él, Morgrym y el muerto viviente intercambian sus lugares, y el muerto viviente se convierte en el objetivo del ataque.</p>",
          "name": "Defensa nigromántica"
        },
        "Arcane Bond": {
          "description": "<p>Una vez al día, Morgrym puede agotar el poder de su objeto vinculado para elegir un conjuro que ya haya lanzado hoy y lanzarlo de nuevo. Recuperar este conjuro es instantáneo, pero aún tiene que gastar la acción para lanzarlo.</p>",
          "name": "Bono Arcano"
        },
        "Necromancer": {
          "description": "<p>Morgrym trata con los sombríos poderes de la vida y la muerte y ha enfocado su magia para prestarle ayuda en este empeño. Puede lanzar <em>@UUID[Compendium.pf2e.spells-srd.4koZzrnMXhhosn0D]{Miedo}</em> como una escuela de conjuro.</p>",
          "name": "Nigromante"
        },
        "Athletics": {
          "name": "Atletismo"
        },
        "Crafting": {
          "name": "Elaboración"
        },
        "Demon Lore": {
          "name": "Saber Demonio"
        },
        "Diplomacy": {
          "name": "Diplomacia"
        },
        "Intimidation": {
          "name": "Intimidación"
        },
        "Religion": {
          "name": "Religión"
        },
        "Society": {
          "name": "Sociedad"
        },
        "Survival": {
          "name": "Supervivencia"
        }
      }
    },
    "Nightmare Terrain": {
      "disable": "<p>prueba de @Check[type:arcana|dc:22], @Check[type:nature|dc:22], @Check[type:occultism|dc:22], o @Check[type:religion|dc:22] (por un héroe con competencia experta en esa habilidad) tres veces para interrumpir temporalmente la magia, o <em>@UUID[Compendium.pf2e.spells-srd.9HpwDN4MYQJnW0LG]{Disipar Magia}</em> (conjuro de 3º nivel, CD 25)</p>",
      "detailsDescription": "<p>Lo que parece una inocente extensión de tierra asalta a los intrusos con terribles ilusiones.</p>",
      "name": "Pesadilla Terreno",
      "reset": "<p>Las terribles visiones cesan después de que todas las criaturas hayan abandonado el área afectada, pero el peligro se prepara inmediatamente para infligir sus visiones a la siguiente criatura que entre.</p>",
      "routine": "<p>(1 acción) Terribles visiones asaltan las mentes de todas las criaturas que pueden ver dentro del área afectada. Cada criatura debe intentar una @Check[type:will|dc:24] de tirada de salvación.</p>\n<hr />\n<p><strong>Éxito Crítico</strong> La criatura no se ve afectada.</p>\n<p><strong>Éxito</strong> La criatura es @UUID[Compendium.pf2e.conditionitems.TBSHQspnbcqxsmjL]{Asustado 2}.</p>\n<p><strong>Fallo</strong> La criatura toma [[/r (2d8+9)[mental]]] daño y es @UUID[Compendium.pf2e.conditionitems.TBSHQspnbcqxsmjL]{Asustado 3}.</p>\n<p><strong>Fallo Crítico</strong> La criatura coge [[/r (4d8+18)[mental]]] daño y es @UUID[Compendium.pf2e.conditionitems.TBSHQspnbcqxsmjL]{Asustado 4}.</p>",
      "stealth": "<p>@Check[type:perception|dc:22|traits:action:seek] para detectar la sutil aura mágica de la tierra</p>",
      "items": {
        "Step into Nightmares": {
          "description": "<p>Si una criatura que puede ver se mueve 10 pies dentro del área afectada, el peligro tira Sigilo (+16) para su iniciativa.</p>",
          "name": "Paso a Pesadillas"
        }
      }
    },
    "Omblin Leadbuster": {
      "name": "Omblin Leadbuster",
      "items": {
        "Hand Crossbow": {
          "name": "Ballesta De Mano"
        },
        "Rapier": {
          "name": "Espada ropera"
        },
        "Leather Armor": {
          "description": "<p>Mezcla de cuero cocido flexible y moldeado, un traje de este tipo de armadura proporciona cierta protección con la máxima flexibilidad.</p>",
          "name": "Armadura de Cuero"
        },
        "Bolts": {
          "description": "<p>Más cortos que las flechas tradicionales pero de construcción similar, los bolts son la munición utilizada por las ballestas.</p>",
          "name": "Virotes"
        },
        "Darkvision": {
          "description": "<p>@Localize[PF2E.NPC.Abilities.Glossary.Darkvision]</p>",
          "name": "Visión en la Oscuridad"
        },
        "Nimble Dodge": {
          "description": "<p><strong>Desencadenante</strong> A objetivos de criatura te con un ataque y puedes ver al atacante.</p>\n<p><strong>Requisitos</strong> No estás impedido</p>\n<hr />\n<p>Esquivas hábilmente, ganando un +2 de bonificador por circunstancia a la CA contra el ataque desencadenante.</p>",
          "name": "Ágil Dodge"
        },
        "Sneak Attack": {
          "description": "<p>Omblin inflige 1d6 extra a las criaturas que tienen la condición desprevenido.</p>\n<hr />\n<p>@Localize[PF2E.NPC.Abilities.Glossary.SneakAttack]</p>",
          "name": "Ataque Furtivo"
        },
        "Unbalancing Blow": {
          "description": "<p>Cuando Omblin golpea críticamente a un objetivo e inflige daño, el objetivo queda @UUID[Compendium.pf2e.conditionitems.AJh5ex99aV6VTggg]{Desprevenido} contra sus ataques hasta el final de su siguiente turno.</p>",
          "name": "Golpe desequilibrante"
        },
        "Unburdened Iron": {
          "description": "<p>Omblin ignora la reducción a su Velocidad por armadura y deduce 5 pies de cualquier penalizador a su Velocidad (como por ejemplo de un conjuro).</p>",
          "name": "Hierro sin carga"
        },
        "Acrobatics": {
          "name": "Acrobacias"
        },
        "Society": {
          "name": "Sociedad"
        },
        "Stealth": {
          "name": "Sigilo"
        },
        "Survival": {
          "name": "Supervivencia"
        },
        "Thievery": {
          "name": "Latrocinio"
        }
      }
    },
    "Orc Commander": {
      "name": "Comandante Orco",
      "items": {
        "Maul": {
          "name": "Mazo"
        },
        "Javelin": {
          "name": "Jabalina"
        },
        "Hide Armor": {
          "description": "<p>Mezcla de pieles, esconderse resistente y, a veces, cuero hervido moldeado, esta armadura proporciona protección gracias a sus capas de cuero, aunque su voluminosidad ralentiza al portador y disminuye la movilidad.</p>",
          "name": "Esconderse Armadura"
        },
        "Fist": {
          "name": "Puño"
        },
        "Darkvision": {
          "description": "<p>@Localize[PF2E.NPC.Abilities.Glossary.Darkvision]</p>",
          "name": "Visión en la Oscuridad"
        },
        "Ferocity": {
          "description": "<p>@Localize[PF2E.NPC.Abilities.Glossary.Ferocity]</p>",
          "name": "Ferocidad"
        },
        "Battle Cry": {
          "description": "<p>Bramando con fuerza, el comandante se otorga a sí mismo y a todos los aliados orcos en un radio de @Template[type:emanation|distance:60]{60 pies} que puedan oírle un +1 bonificador por estatus a las tiradas de ataque y daño hasta el inicio del siguiente turno del comandante orco.</p>\n<p>@UUID[Compendium.pf2e.bestiary-effects.Yqq4AkZ9lrm4CcID]{Efecto: Grito de Batalla}</p>",
          "name": "Grito de guerra"
        },
        "Athletics": {
          "name": "Atletismo"
        },
        "Intimidation": {
          "name": "Intimidación"
        },
        "Survival": {
          "name": "Supervivencia"
        }
      }
    },
    "Orc Scrapper": {
      "name": "Rascador Orco",
      "items": {
        "Javelin": {
          "name": "Jabalina"
        },
        "Battle Axe": {
          "name": "Hacha De Batalla"
        },
        "Breastplate": {
          "description": "<p>Aunque se denomina coraza, este tipo de armadura consta de varias piezas de placa o placas y mallas de armadura que protegen el torso, el cofre, el cuello y, a veces, las caderas y la parte inferior de las piernas. Otorga estratégicamente parte de la protección de la placa al tiempo que permite mayor flexibilidad y velocidad.</p>",
          "name": "Coraza"
        },
        "Fist": {
          "name": "Puño"
        },
        "Darkvision": {
          "description": "<p>@Localize[PF2E.NPC.Abilities.Glossary.Darkvision]</p>",
          "name": "Visión en la Oscuridad"
        },
        "Ferocity": {
          "description": "<p>@Localize[PF2E.NPC.Abilities.Glossary.Ferocity]</p>",
          "name": "Ferocidad"
        },
        "Athletics": {
          "name": "Atletismo"
        },
        "Intimidation": {
          "name": "Intimidación"
        },
        "Survival": {
          "name": "Supervivencia"
        }
      }
    },
    "Scalliwing": {
      "publicNotes": "<p>Los Couatls son grandes serpientes de colores brillantes con alas emplumadas. De naturaleza bondadosa, estas criaturas prestan ayuda a los mortales y se oponen a los malhechores, pero avistar una de ellas es un acontecimiento trascendental: estas magníficas criaturas, aunque reclusivas, rara vez aparecen.</p>\n<p>Los miembros más pequeños de la familia couatl, los scalliwings, se parecen a sus parientes más grandes, pero tienen aproximadamente el tamaño de un gato doméstico, y una irascible vena traviesa atempera su naturaleza bondadosa. Mientras que la mayoría de los couatls buscan corregir los errores del mundo o guiar a la civilización mortal hacia el progreso social, los scalliwings trabajan a un nivel más individual. Afirman que su función es enseñar a los lanzadores de conjuros de buen corazón los caminos de la magia y, de hecho, a veces sirven -o \"ayudan\", como se apresuran a corregir- a estos lanzadores de conjuros como familiares.</p>\n<p>Con sus escamas iridiscentes y sus plumas brillantes, los escualos son criaturas extraordinariamente bonitas. Parecen ser conscientes de ello y utilizan su aspecto para congraciarse con los demás. Esta belleza hace que algunas de ellas se enorgullezcan ligeramente de sí mismas, pero otras scalliwings descubren que su pequeño tamaño y sus defensas relativamente débiles las ponen a merced de criaturas crueles y más grandes que buscan aprisionarlas como bellas mascotas y trofeos. Aunque los escualos podrían residir alegremente en una sola residencia indefinidamente por voluntad propia, los escualos cautivos han orquestado arteras huiradas, coordinando sus esfuerzos con otras criaturas para causar espectaculares daños materiales en el proceso.</p>\n<p>Miden unos 60 cm de nariz a cola y tienen una envergadura similar. Su vida es casi tan larga como la de un humano. Aunque un ala escamosa parece algo más común que su pariente más grande y solitario, muchos mortales viven toda su vida sin encontrarse nunca con un ala escamosa.</p>",
      "name": "Scalliwing",
      "items": {
        "Divine Innate Spells": {
          "name": "Conjuros Divinos Innatos"
        },
        "Invisibility (Self Only)": {
          "description": "<p>Cubierto de ilusión, el objetivo se vuelve @UUID[Compendium.pf2e.conditionitems.zJxUflt9np0q4yML]{Invisible}. Esto lo convierte en @UUID[Compendium.pf2e.conditionitems.VRSef5y1LmL2Hkjf]{No Detectado} para todas las criaturas, aunque las criaturas pueden intentar encontrar al objetivo, convirtiéndolo en @UUID[Compendium.pf2e.conditionitems.iU0fEDdBp3rXpTMC]{Escondido} para ellas. Si el objetivo utiliza una acción hostil, el conjuro finaliza una vez completada dicha acción hostil.</p>\n<hr />\n<p><strong>Potenciado (4º)</strong> El conjuro dura 1 minuto, pero no termina si el objetivo utiliza una acción hostil.</p>",
          "duration": "10 minutos",
          "range": "toque",
          "target": "auto",
          "time": "2",
          "name": "Invisibilidad (sólo para uno mismo)"
        },
        "Command": {
          "description": "<p>Alarido un comando que es difícil de ignorar. Puedes ordenar al objetivo que se acerque a ti, que huya (como si tuviera la condición @UUID[Compendium.pf2e.conditionitems.sDPxOjQ9kx2RZE8D]{Huyendo} ), que suelte lo que tiene en la mano, que suelte @UUID[Compendium.pf2e.conditionitems.j91X7x0XSomq8d60]{Tumbado}, o que se ponga de pie en su sitio. No puede Retrasar ni tomar ninguna reacción hasta que haya obedecido tu orden. Los efectos dependen de la salvación de Voluntad del objetivo.</p>\n<hr><strong>Éxito</strong> La criatura no se ve afectada.<p><strong>Fallo</strong> En las primeras acciones de su siguiente turno, la criatura debe usar una acción individual para hacer lo que le ordenas.</p>\n<p>Fallo<strong>Crítico</strong> El objetivo debe utilizar todas sus acciones en su siguiente turno para obedecer tus órdenes.</p>\n<hr><strong>Aumentado (5º</strong> ) Puedes objetivo hasta 10 criaturas.",
          "duration": "hasta el final del siguiente turno del objetivo",
          "range": "30 pies",
          "target": "1 Criatura",
          "time": "2",
          "name": "Comando"
        },
        "Daze": {
          "description": "<p>Nublas la mente del objetivo y lo atontas con una sacudida mental. La sacudida inflige un daño mental igual a tu modificador de la característica de lanzamiento de conjuros; el objetivo debe intentar una salvación básica de Voluntad. Si el objetivo falla críticamente la salvación, también queda @UUID[Compendium.pf2e.conditionitems.dfCMdR4wnpbYNTix]{Aturdido 1}.</p>\n<hr />\n<p><strong>Aumentado (+2)</strong> El daño aumenta en 1d6.</p>",
          "duration": "1 Asalto",
          "range": "60 pies",
          "target": "1 Criatura",
          "time": "2",
          "name": "Atontar"
        },
        "Guidance": {
          "description": "<p>Pides orientación divina, concediendo al objetivo un bonificador +1 por estatus a una tirada de ataque, Prueba de Percepción, tirada de salvación o prueba de habilidad que el objetivo intente antes de que termine la duración. El objetivo elige en qué tirada usar el bonificador antes de tirar. Si el objetivo utiliza el bonificador, el conjuro termina. En cualquier caso, el objetivo queda temporalmente inmune durante 1 hora.</p>\n<p>@UUID[Compendium.pf2e.spell-effects.3qHKBDF7lrHw8jFK]{Efecto de Conjuro: Orientación Divina}</p>\n<p>@UUID[Compendium.pf2e.spell-effects.3LyOkV25p7wA181H]{Efecto: Orientación Divina Inmunidad}</p>",
          "duration": "hasta el comienzo de su próximo turno",
          "range": "30 pies",
          "target": "1 Criatura",
          "time": "1",
          "name": "Orientación Divina"
        },
        "Heal": {
          "description": "<p>Canalizas energía positiva para sanar al vivo o dañar al muerto viviente. Si el objetivo es una criatura viva dispuesta, restauras 1d8 Puntos De Golpe. Si el objetivo es un muerto viviente, le infliges esa cantidad de daño positivo y consigue una salvación básica de Fortaleza. El número de acciones que gastas al lanzar este Conjuro determina sus objetivos, rango, área y otros parámetros.</p>\n<p><span class=\"pf2-icon\">1</span> <strong>(somático)</strong> El conjuro tiene un rango de toque.</p>\n<p><span class=\"pf2-icon\">2</span> <strong>(verbal, somático</strong> ) El conjuro tiene un rango de 30 pies. Si estás curando una criatura viviente, aumenta los Puntos De Golpe restaurados en 8</p>\n<p><span class=\"pf2-icon\">3</span> <strong>(material, somático, verbal)</strong> Dispersas energía positiva en una emanación de 30 pies. Esto objetiva todo viviente y criaturas muerto viviente en la explosión.</p>\n<hr />\n<p><strong>Aumentado (+1)</strong> La cantidad de curación o daño aumenta en 1d8, y la curación extra para la versión de 2-acciones aumenta en 8.</p>",
          "range": "varía",
          "target": "1 criatura viva dispuesta o 1 muerto viviente",
          "time": "1 a 3",
          "name": "Sanar"
        },
        "Mage Hand": {
          "description": "<p>Creas una única mano mágica, invisible o fantasmal, que agarra el objeto objetivo y lo mueve lentamente hasta 20 pies. Como levitas el objeto, puedes moverlo en cualquier dirección. Cuando sostienes el Conjuro, puedes mover el objeto 20 pies adicionales. Si el objeto está en el aire cuando el conjuro termina, el objeto cae.</p>\n<hr />\n<p><strong>Aumentado (3º)</strong> Puedes objetivo un objeto desatendido con una impedimenta de 1 o menos.</p>\n<p><strong>Aumentado (5º)</strong> El rango aumenta a 60 pies, y puedes objetivo un objeto desatendido con una impedimenta de 1 o menos.</p>\n<p><strong>Aumentado (7º)</strong> El rango aumenta a 60 pies, y puedes objetivo un objeto desatendido con una impedimenta de 2 o menos.</p>",
          "duration": "Kept",
          "range": "30 pies",
          "target": "1 objeto desatendido de impedimenta ligera o inferior",
          "time": "2",
          "name": "Mano Del Mago"
        },
        "Message": {
          "description": "<p>Usted pronuncia las palabras en voz baja, pero en lugar de salir de su boca, se transmiten directamente a los oídos del objetivo. Mientras que los demás no pueden oír tus palabras mejor que si las pronunciaras normalmente, el objetivo puede oírlas como si estuviera a tu lado.</p>\n<p>El objetivo puede dar una breve respuesta como reacción, o como acción gratuita en su próximo turno si lo desea, pero debe poder verte y estar dentro de su alcance para hacerlo. Si responden, su respuesta llega directamente a tus oídos, igual que el mensaje original.</p>\n<hr />\n<p><strong>Aumentado (3º)</strong> El rango del conjuro aumenta a 500 pies.</p>",
          "duration": "véase más abajo",
          "range": "120 pies",
          "target": "1 Criatura",
          "time": "1",
          "name": "Mensaje"
        },
        "Sanctuary": {
          "description": "<p>Proteges a una criatura con energía protectora que disuade los ataques enemigos. Las criaturas que intenten atacar al objetivo deben intentar una salvación de Voluntad cada vez. Si el objetivo utiliza una acción hostil, el conjuro termina.</p>\n<hr>Éxito<strong>Crítico</strong> Santuario termina.<p><strong>Éxito</strong> La criatura puede intentar su ataque y cualquier otro ataque contra el objetivo este turno.</p>\n<p><strong>Fallo</strong> La criatura no puede atacar al objetivo y desperdicia las acciones. No puede intentar más ataques contra el objetivo este turno.</p>\n<p>Fallo<strong>Crítico</strong> La criatura desperdicia las acciones y no puede intentar atacar al objetivo durante el resto de la duración del santuario.</p>",
          "duration": "1 minuto",
          "range": "toque",
          "target": "1 Criatura",
          "time": "2",
          "name": "Santuario"
        },
        "Shield": {
          "description": "<p>Levantas un escudo mágico de fuerza. Esto cuenta como usar las acciones de Alzar Un Escudo, dándote un bonificador +1 por circunstancia a la CA hasta el inicio de tu siguiente turno, pero no requiere una mano para usarlo.</p>\n<p>Mientras el conjuro está en efecto, puedes usar la reacción @UUID[Compendium.pf2e.feats-srd.jM72TjJ965jocBV8]{Bloqueo Con El Escudo} con tu magia escudo. El escudo tiene Dureza 5. Después de usar Bloqueo Con El Escudo, el conjuro termina y no puedes volver a lanzarlo durante 10 minutos. A diferencia de un Bloqueo Con El Escudo normal, puedes usar la reacción del conjuro contra el conjuro <em>@UUID[Compendium.pf2e.spells-srd.gKKqvLohtrSJj3BM]{Proyectil Mágico}</em>.</p>\n<p>Potenciar el conjuro aumenta la Dureza del escudo.</p>\n<p>@UUID[Compendium.pf2e.spell-effects.Jemq5UknGdMO7b73]{Efecto de Conjuro: Escudo}</p>\n<hr />\n<p><strong>Acentuado (3º)</strong> El escudo tiene Dureza 10.</p>\n<p><strong>Aumentado (5º)</strong> El escudo tiene Dureza 15.</p>\n<p><strong>Aumentado (7º)</strong> El escudo tiene Dureza 20.</p>\n<p><strong>Aumentado (9º)</strong> El escudo tiene Dureza 25.</p>",
          "duration": "hasta el comienzo de su próximo turno",
          "time": "1",
          "name": "Escudo"
        },
        "Fangs": {
          "name": "Colmillos"
        },
        "Darkvision": {
          "description": "<p>@Localize[PF2E.NPC.Abilities.Glossary.Darkvision]</p>",
          "name": "Visión en la Oscuridad"
        },
        "Wing Flash": {
          "description": "<p>El scalliwing despliega sus alas iridiscentes y las agita en una pauta hipnotizadora. Cada criatura en un radio de 30 pies que pueda ver al scalliwing debe intentar una salvación de @Check[type:will|dc:20].</p>\n<hr />\n<p><strong>Éxito Crítico</strong> La criatura no se ve afectada.</p>\n<p><strong>Éxito</strong> La criatura queda @UUID[Compendium.pf2e.conditionitems.AJh5ex99aV6VTggg]{Desprevenida} hasta el inicio de su siguiente turno.</p>\n<p><strong>Fallo</strong> La criatura queda desprevenida hasta el comienzo de su siguiente turno, y debe gastar sus primeras acciones de su siguiente turno admirando el scalliwing.</p>\n<p><strong>Fallo Crítico</strong> La criatura queda desprevenida hasta el inicio de su siguiente turno. Durante 1 minuto, la criatura debe pasar sus primeras acciones de cada turno admirando al scalliwing. Este efecto termina si el scalliwing ataca o utiliza otra acción hostil contra la criatura afectada.</p>",
          "name": "Flash del ala"
        },
        "Acrobatics": {
          "name": "Acrobacias"
        },
        "Diplomacy": {
          "name": "Diplomacia"
        },
        "Nature": {
          "name": "Naturaleza"
        },
        "Religion": {
          "name": "Religión"
        }
      }
    },
    "Stinkweed Shambler": {
      "publicNotes": "<p>Los desbrozadores de stinkweed son masas animadas de vegetación fétida que crecen en el suelo necrótico donde han caído ghasts, zombis enfermos u otras pútridas criaturas muerto viviente. En un lugar donde se han destruido numerosas criaturas muerto viviente, puede surgir una infestación de hasta una docena de desbrozadores de stinkweed. Estos \"compañeros de podredumbre\" trabajan bien juntos, compartiendo una coordinación preternatural. Los desbrozadores de stinkweed crecen rápidamente, apareciendo al principio como brotes verdes de crecimiento rápido con hojas verde luz, pero pronto crecen hasta adoptar una forma humanoide que puede liberarse del suelo y desplazarse lentamente por sí sola. Las hojas de la stinkweed Broza movedizas son la fuente de su desagradable olor, que es más penetrante cuando las hojas se aplastan o se aprietan. Las Stinkweed Broza movedizas están cubiertas de varias flores pequeñas y blancas, cada una de las cuales crece en forma de calavera de menudo.</p>\n<p>Los desbrozadores de stinkweed son criaturas desagradables, pero sus métodos no son complicados. Les gusta capturar y atormentar a criaturas más grandes, como ganado y humanoides. Conscientes de que no son especialmente fuertes y de que su olor puede delatarles, a los desbrozadores de stinkweed les gusta tender trampas sencillas, como cascadas muertas o fosos. Su perversa diversión sólo cesa cuando su presa ha muerto a causa de numerosas heridas. Los desbrozadores apestosos no consumen a sus víctimas y, de hecho, carecen de boca; obtienen todo el sustento que necesitan de la luz solar, pero también parecen obtener cierta satisfacción nutricional del dolor que engendran sus tormentos.</p>\n<p>La mayoría de los desbrozadores de stinkweed alcanzan un metro de altura y pesan sólo 10 kilos.</p>",
      "languagesCustom": "(No habla ningún idioma)",
      "name": "Hierba apestosa Broza movediza",
      "items": {
        "Vine": {
          "name": "Vid"
        },
        "Seedpod": {
          "name": "Semillero"
        },
        "Low-Light Vision": {
          "description": "<p>@Localize[PF2E.NPC.Abilities.Glossary.LowLightVision]</p>",
          "name": "Visión En La Penumbra"
        },
        "Stench": {
          "description": "<p>@Template[type:emanation|distance:10] @UUID[Compendium.pf2e.bestiary-ability-glossary-srd.v61oEQaDdcRpaZ9X]{Aura}</p>\n<p>Una criatura que entre en el aura o comience su turno en ella debe superar una @Check[type:fortitude|dc:14] o queda @UUID[Compendium.pf2e.conditionitems.AJh5ex99aV6VTggg]{Desprevenido} durante 1 asalto (y @UUID[Compendium.pf2e.conditionitems.xYTAsEpcJE1Ccni3]{Lentificado 1} durante 1 asalto en caso de fallo crítico). Una criatura que tenga éxito en su salvación es temporalmente inmune durante 1 minuto.</p>",
          "name": "Hedor"
        },
        "Stinky Leaves": {
          "description": "<p>El olor fétido que emite un Broza movediza stinkweed se vuelve más fuerte cuando sus hojas se aplastan o se queman. Cuando un stinkweed Broza movediza recibe contundente o daño por fuego, la CD de su Hedor habilidad aumenta a 18 y su Sigilo bonificador disminuye a +4. Ambos efectos duran 1 minuto.</p>",
          "name": "Hojas apestosas"
        },
        "Waving Weed": {
          "description": "<p>El stinkweed Broza movediza Zancadas hasta la mitad de su Velocidad. Este movimiento no provoca reacciones.</p>",
          "name": "Hierba ondulante"
        },
        "Woodland Stride": {
          "description": "<p>Una stinkweed Broza movediza ignora terreno difícil y terreno difícil mayor de follaje no mágico.</p>",
          "name": "Zancada del bosque"
        },
        "Acrobatics": {
          "name": "Acrobacias"
        },
        "Intimidation": {
          "name": "Intimidación"
        },
        "Stealth": {
          "name": "Sigilo"
        },
        "Survival": {
          "name": "Supervivencia"
        }
      }
    },
    "Tongues of Flame": {
      "disable": "<p>@Check[type:thievery|dc:22|traits:action:disable-a-device] de latrocinio para desactivar una sola boquilla, @Check[type:thievery|dc:21|traits:action:pick-a-lock] atrocinio dos veces para desbloquear una puerta, o @Check[type:thievery|dc:25|traits:action:disable-a-device] para desactivar la trampa desde el panel de control. Un héroe que no esté entrenado en Latrocinio falla automáticamente estas pruebas.</p>",
      "detailsDescription": "<p>Boquillas escondidas en el techo de los cuatro pasillos que conducen a la intersección rocían propulsiones de llamas a lo largo de sus longitudes cuando se activa la trampa.</p>",
      "HPDetails": "para destruir una sola boquilla; <strong>Puerta</strong> Dureza 6, <strong>PG</strong> 22 (UR 11) para romper una puerta y huir por el pasillo",
      "name": "Don De Lenguas de Llama",
      "reset": "<p>La trampa se desactiva y se restablece al cabo de 10 minutos. Tras activarse la trampa por cuarta vez, se queda sin combustible y debe restablecerse manualmente.</p>",
      "routine": "<p>(4 acciones) La trampa pierde 1 acción cada turno por cada boquilla inutilizada. En cada acción, una boquilla diferente lanza una propulsión de llamas por un pasillo diferente, infligiendo daño [[/r 3d6[fire]]] cada criatura en los primeros 10 pies del pasillo pasado el cruce @Check[type:reflex|dc:22|basic:true]).</p>\n<p>Una criatura que se encuentre en la intersección del pasillo sólo puede ser alcanzada por una propulsión de llamas por asalto, aunque se encuentre en la zona de varias propulsiones de llamas. La criatura sólo intenta una tirada de salvación por asalto, pero sufre un penalizador -2 por circunstancia a su tirada de salvación.</p>",
      "items": {
        "Seal the Doors": {
          "description": "<p>Si una criatura entra en la intersección del pasillo, las cuatro puertas que salen de esta intersección se cierran y se bloquean, y la trampa tira Sigilo (+13) por su iniciativa.</p>",
          "name": "Selle las puertas"
        }
      }
    },
    "Viper Urn": {
      "disable": "<p>@Check[type:thievery|dc:15|traits:action:disable-a-device] (entrenado) para estabilizar la urna, o @Check[type:athletics|dc:15] para bajar con cuidado la pesada urna</p>",
      "detailsDescription": "<p>Una urna de cerámica que contiene una víbora enroscada se inclina y estalla cuando se tira de un cable trampa.</p>",
      "name": "Urna Viper",
      "items": {
        "Topple": {
          "description": "<p>Cuando alguien tira del cable trampa, la urna se estrella contra una criatura de la puerta, haciendo un Golpe de urna contra esa criatura, y luego suelta una @UUID[Compendium.pf2e.pathfinder-bestiary.lFlXmieuHTBIonhj]{Víbora} en la plaza que contenía la trampa. La víbora ataca a cualquier planta no criatura que detecte.</p>",
          "name": "Topple"
        },
        "Shattering Urn": {
          "name": "Urna de fragmentación"
        }
      }
    },
    "Web Lurker Noose": {
      "disable": "<p>@Check[type:survival|dc:18] (entrenado) o @Check[type:thievery|dc:18|traits:action:disable-a-device] (experto) para reorganizar las correas</p>",
      "detailsDescription": "<p>Una discreta red a la altura de la garganta atrapa a una criatura que camina hacia ella.</p>",
      "name": "Lazo de Telaraña",
      "items": {
        "Noose": {
          "description": "<p>El objetivo gana la condición de @UUID[Compendium.pf2e.conditionitems.kWc1fhmv9LBiTuei]{Agarrado} es y tiró de la tierra(@UUID[Compendium.pf2e.actionspf2e.SkZAQRkLLkmBQNB9]{Huir} CD 22).</p>",
          "name": "Lazo"
        },
        "Web Noose": {
          "description": "<p>Si un pasos de criatura en la plaza con el alambre de tropiezo telaraña, el lazo de telaraña acechador hace un Golpe de lazo contra la criatura.</p>",
          "name": "Lazo de Telaraña"
        }
      }
    }
  }
}
