{
  "label": "Glosario de Habilidades del Bestiario",
  "mapping": {
    "name": "name",
    "description": "system.description.value"
  },
  "entries": {
    "+1 Status to All Saves vs. Magic": {
      "name": "+1 estado a todas las salvaciones contra magia"
    },
    "All-Around Vision": {
      "description": "<p>@Localize[PF2E.NPC.Abilities.Glossary.AllAroundVision]</p>",
      "name": "Visión periférica total"
    },
    "Aquatic Ambush": {
      "description": "<p>@Localize[PF2E.NPC.Abilities.Glossary.AquaticAmbush]</p>",
      "name": "Emboscada Acuática"
    },
    "At-Will Spells": {
      "description": "<p>@Localize[PF2E.NPC.Abilities.Glossary.AtWillSpells]</p>",
      "name": "Conjuros A Voluntad"
    },
    "Attack of Opportunity": {
      "description": "<p>@Localize[PF2E.NPC.Abilities.Glossary.AttackOfOpportunity]</p>",
      "name": "Ataque de oportunidad"
    },
    "Aura": {
      "description": "<p>@Localize[PF2E.NPC.Abilities.Glossary.Aura]</p>",
      "name": "Aura"
    },
    "Buck": {
      "description": "<p>@Check[type:reflex|dc:]</p>\n<p>@Localize[PF2E.NPC.Abilities.Glossary.Buck]</p>",
      "name": "Encabritarse"
    },
    "Catch Rock": {
      "description": "<p>@Localize[PF2E.NPC.Abilities.Glossary.CatchRock]</p>",
      "name": "Atrapar Roca"
    },
    "Change Shape": {
      "description": "<p>@Localize[PF2E.NPC.Abilities.Glossary.ChangeShape]</p>",
      "name": "Cambiar De Forma"
    },
    "Constant Spells": {
      "description": "<p>@Localize[PF2E.NPC.Abilities.Glossary.ConstantSpells]</p>",
      "name": "Conjuros Constantes"
    },
    "Constrict": {
      "description": "<p>[[/r 0[bludgeoning]]]{0 contundente}, @Check[type:fortitude|dc:|basic:true]</p>\n<hr />\n<p>@Localize[PF2E.NPC.Abilities.Glossary.Constrict]</p>",
      "name": "Constreñir"
    },
    "Coven": {
      "description": "<p>@Localize[PF2E.NPC.Abilities.Glossary.Coven]</p>",
      "name": "Aquelarre"
    },
    "Darkvision": {
      "description": "<p>@Localize[PF2E.NPC.Abilities.Glossary.Darkvision]</p>",
      "name": "Visión en la Oscuridad"
    },
    "Disease": {
      "description": "<p>@Localize[PF2E.NPC.Abilities.Glossary.Disease]</p>",
      "name": "Enfermedad"
    },
    "Engulf": {
      "description": "<p>@Check[type:reflex|dc:], [[/r 0[damage]]] daño, CD de Huir [0], Ruptura [0]</p>\n<hr />\n<p>@Localize[PF2E.NPC.Abilities.Glossary.Engulf]</p>",
      "name": "Envolver"
    },
    "Fast Healing": {
      "description": "<p>@Localize[PF2E.NPC.Abilities.Glossary.FastHealing]</p>",
      "name": "Curación rápida"
    },
    "Ferocity": {
      "description": "<p>@Localize[PF2E.NPC.Abilities.Glossary.Ferocity]</p>",
      "name": "Ferocidad"
    },
    "Form Up": {
      "description": "<p>@Localize[PF2E.NPC.Abilities.Glossary.FormUp]</p>",
      "name": "Formar"
    },
    "Frightful Presence": {
      "description": "<p>@Template[type:emanation|distance:0]{0 pies} @UUID[Compendium.pf2e.bestiary-ability-glossary-srd.v61oEQaDdcRpaZ9X]{Aura} @Check[type:will|dc:]</p>\n<hr />\n<p>@Localize[PF2E.NPC.Abilities.Glossary.FrightfulPresence]</p>",
      "name": "Presencia Pavorosa"
    },
    "Grab": {
      "description": "<p>@Localize[PF2E.NPC.Abilities.Glossary.Grab]</p>",
      "name": "Agarrón"
    },
    "Greater Constrict": {
      "description": "<p>[[/r 0[bludgeoning]]]{0 contundente}, @Check[type:fortitude|dc:|basic:true]</p>\n<hr />\n<p>@Localize[PF2E.NPC.Abilities.Glossary.GreaterConstrict]</p>",
      "name": "Constreñir Mayor"
    },
    "Greater Darkvision": {
      "description": "<p>@Localize[PF2E.NPC.Abilities.Glossary.GreaterDarkvision]</p>",
      "name": "Visión En La Oscuridad Mayor"
    },
    "Improved Grab": {
      "description": "<p>@Localize[PF2E.NPC.Abilities.Glossary.improvedGrab]</p>",
      "name": "Agarrón Mejorado"
    },
    "Improved Knockdown": {
      "description": "<p>@Localize[PF2E.NPC.Abilities.Glossary.improvedKnockdown]</p>",
      "name": "Derribar Mejorado"
    },
    "Improved Push": {
      "description": "<p>@Localize[PF2E.NPC.Abilities.Glossary.improvedPush]</p>",
      "name": "Empujar Mejorado"
    },
    "Knockdown": {
      "description": "<p>@Localize[PF2E.NPC.Abilities.Glossary.Knockdown]</p>",
      "name": "Derribar"
    },
    "Lifesense": {
      "description": "<p>@Localize[PF2E.NPC.Abilities.Glossary.Lifesense]</p>",
      "name": "Sentir la vida"
    },
    "Light Blindness": {
      "description": "<p>@Localize[PF2E.NPC.Abilities.Glossary.LightBlindness]</p>",
      "name": "Ceguera Ante La Luz"
    },
    "Low-Light Vision": {
      "description": "<p>@Localize[PF2E.NPC.Abilities.Glossary.LowLightVision]</p>",
      "name": "Visión En La Penumbra"
    },
    "Negative Healing": {
      "description": "<p>@Localize[PF2E.NPC.Abilities.Glossary.NegativeHealing]</p>",
      "name": "Curación Negativa"
    },
    "Nimble Dodge": {
      "description": "<p><strong>Desencadenante</strong> A objetivos de criatura te con un ataque y puedes ver al atacante.</p>\n<p><strong>Requisitos</strong> No estás impedido</p>\n<hr />\n<p>Esquivas hábilmente, ganando un +2 de bonificador por circunstancia a la CA contra el ataque desencadenante.</p>",
      "name": "Ágil Dodge"
    },
    "Poison": {
      "description": "<p>@Localize[PF2E.NPC.Abilities.Glossary.Poison]</p>",
      "name": "Veneno"
    },
    "Power Attack": {
      "description": "<p>@Localize[PF2E.NPC.Abilities.Glossary.PowerAttack]</p>",
      "name": "Ataque de energía"
    },
    "Push": {
      "description": "<p>@Localize[PF2E.NPC.Abilities.Glossary.Push]</p>",
      "name": "Empujar"
    },
    "Regeneration": {
      "description": "<p>@Localize[PF2E.NPC.Abilities.Glossary.Regeneration]</p>",
      "name": "Regeneración"
    },
    "Rend": {
      "description": "<p>@Localize[PF2E.NPC.Abilities.Glossary.Rend]</p>",
      "name": "Rasgadura"
    },
    "Retributive Strike": {
      "description": "<p>@Localize[PF2E.NPC.Abilities.Glossary.RetributiveStrike]</p>",
      "name": "Impacto Retributivo"
    },
    "Scent": {
      "description": "<p>@Localize[PF2E.NPC.Abilities.Glossary.Scent]</p>",
      "name": "Olfato"
    },
    "Shield Block": {
      "description": "<p>@Localize[PF2E.NPC.Abilities.Glossary.ShieldBlock]</p>",
      "name": "Bloqueo Con El Escudo"
    },
    "Sneak Attack": {
      "description": "<p>@Localize[PF2E.NPC.Abilities.Glossary.SneakAttack]</p>",
      "name": "Ataque Furtivo"
    },
    "Swallow Whole": {
      "description": "<p>[Tamaño de la lista], [[/r 0[bludgeoning]]]{0 contundente}, Ruptura [0]</p>\n<hr />\n<p>@Localize[PF2E.NPC.Abilities.Glossary.SwallowWhole]</p>",
      "name": "Engullir"
    },
    "Swarm Mind": {
      "description": "<p>@Localize[PF2E.NPC.Abilities.Glossary.SwarmMind]</p>",
      "name": "mente de plaga"
    },
    "Telepathy": {
      "description": "<p>@Localize[PF2E.NPC.Abilities.Glossary.Telepathy]</p>",
      "name": "Telepatía"
    },
    "Thoughtsense": {
      "description": "<p>@Localize[PF2E.NPC.Abilities.Glossary.Thoughtsense]</p>",
      "name": "Sentir Pensamientos"
    },
    "Throw Rock": {
      "description": "<p>@Localize[PF2E.NPC.Abilities.Glossary.ThrowRock]</p>",
      "name": "Arrojar Roca"
    },
    "Trample": {
      "description": "<p>[Listed Golpe], @Check[type:reflex|dc:|basic:true]</p>\n<hr />\n<p>@Localize[PF2E.NPC.Abilities.Glossary.Trample]</p>",
      "name": "Pisotear"
    },
    "Tremorsense": {
      "description": "<p>@Localize[PF2E.NPC.Abilities.Glossary.Tremorsense]</p>",
      "name": "Sentido de la vibración"
    },
    "Troop Defenses": {
      "description": "<p>@Localize[PF2E.NPC.Abilities.Glossary.TroopDefenses]</p>",
      "name": "Defensas de tropas"
    },
    "Wavesense": {
      "description": "<p>@Localize[PF2E.NPC.Abilities.Glossary.Wavesense]</p>",
      "name": "Sentir Ondulaciones"
    }
  }
}
